service_id,monday,tuesday,wednesday,thursday,friday,saturday,sunday,start_date,end_date
1,1,1,1,1,1,0,0,20210301,20210419
2,0,0,0,0,0,1,0,20210306,20210417
3,1,1,1,1,1,0,0,20210301,20210419
4,1,1,1,1,1,0,0,20210406,20210416
5,0,0,0,0,0,1,0,20210220,20210227
6,1,1,1,1,1,0,0,20210218,20210226
