route_id,service_id,trip_id,trip_headsign,direction_id,block_id,shape_id
0,4,0,Target Shopping Centre Bundaberg,0,,0
0,4,1,Target Shopping Centre Bundaberg,0,,0
0,4,2,Target Shopping Centre Bundaberg,0,,0
0,4,3,Target Shopping Centre Bundaberg,0,,0
0,4,4,Target Shopping Centre Bundaberg,0,,0
0,4,5,Target Shopping Centre Bundaberg,0,,0
0,4,6,Target Shopping Centre Bundaberg,0,,0
1,4,7,Sugarland Shoppingtown,1,,1
1,4,8,Sugarland Shoppingtown,1,,1
1,4,9,Sugarland Shoppingtown,1,,1
1,4,10,Sugarland Shoppingtown,1,,1
1,4,11,Sugarland Shoppingtown,1,,1
1,4,12,Sugarland Shoppingtown,1,,1
1,4,13,Sugarland Shoppingtown,1,,1
2,4,14,Target Shopping Centre Bundaberg,0,,2
2,4,15,Target Shopping Centre Bundaberg,0,,2
2,4,16,Target Shopping Centre Bundaberg,0,,2
2,4,17,Target Shopping Centre Bundaberg,0,,2
2,4,18,Target Shopping Centre Bundaberg,0,,2
2,4,19,Target Shopping Centre Bundaberg,0,,2
2,4,20,Target Shopping Centre Bundaberg,0,,2
3,4,21,Target Shopping Centre Bundaberg,0,,3
3,4,22,Target Shopping Centre Bundaberg,0,,3
3,4,23,Target Shopping Centre Bundaberg,0,,3
3,4,24,Target Shopping Centre Bundaberg,0,,3
3,4,25,Target Shopping Centre Bundaberg,0,,3
3,4,26,Target Shopping Centre Bundaberg,0,,3
3,4,27,Target Shopping Centre Bundaberg,0,,3
3,4,28,Target Shopping Centre Bundaberg,0,,3
3,4,29,Target Shopping Centre Bundaberg,0,,3
4,4,30,Bundaberg Library,0,,4
4,4,31,Bundaberg Library,0,,4
4,4,32,Bundaberg Library,0,,4
4,4,33,Bundaberg Library,0,,4
4,4,34,Bundaberg Library,0,,4
4,4,35,Bundaberg Library,0,,4
4,4,36,Bundaberg Library,0,,4
4,4,37,Bundaberg Library,0,,4
5,4,38,Sugarland Shoppingtown,1,,5
5,4,39,Sugarland Shoppingtown,1,,5
5,4,40,Sugarland Shoppingtown,1,,5
5,4,41,Sugarland Shoppingtown,1,,5
5,4,42,Sugarland Shoppingtown,1,,5
5,4,43,Sugarland Shoppingtown,1,,5
5,4,44,Sugarland Shoppingtown,1,,5
5,4,45,Sugarland Shoppingtown,1,,5
5,4,46,Sugarland Shoppingtown,1,,5
6,4,47,Target Shopping Centre Bundaberg,0,,6
6,4,48,Target Shopping Centre Bundaberg,0,,6
6,4,49,Target Shopping Centre Bundaberg,0,,6
6,4,50,Target Shopping Centre Bundaberg,0,,6
6,4,51,Target Shopping Centre Bundaberg,0,,6
6,4,52,Target Shopping Centre Bundaberg,0,,6
6,4,53,Target Shopping Centre Bundaberg,0,,6
6,4,54,Target Shopping Centre Bundaberg,0,,7
7,4,55,Bundaberg Library,0,,8
7,4,56,Bundaberg Library,0,,8
7,4,57,Bundaberg Library,0,,8
8,4,58,Sugarland Shoppingtown,0,,9
8,4,59,Sugarland Shoppingtown,0,,9
8,4,60,Sugarland Shoppingtown,0,,10
8,4,61,Sugarland Shoppingtown,0,,10
8,4,62,Sugarland Shoppingtown,0,,10
8,4,63,Sugarland Shoppingtown,0,,10
8,4,64,Sugarland Shoppingtown,0,,10
8,4,65,Sugarland Shoppingtown,0,,10
8,4,66,University of CQld,0,,11
8,4,67,Innes Park,1,,12
8,4,68,Sugarland Shoppingtown,0,,13
8,4,69,Innes Park,1,,12
8,4,70,Sugarland Shoppingtown,0,,13
8,4,71,Innes Park,1,,12
8,4,72,Sugarland Shoppingtown,0,,13
8,4,73,Innes Park,1,,12
8,4,74,Sugarland Shoppingtown,0,,13
8,4,75,Innes Park,1,,12
8,4,76,Sugarland Shoppingtown,0,,13
8,4,77,Innes Park,1,,12
8,4,78,Sugarland Shoppingtown,0,,13
8,4,79,Innes Park,1,,14
8,4,80,Innes Park,1,,14
9,4,81,Catholic Church Bundaberg,0,,15
9,4,82,Catholic Church Bundaberg,0,,15
9,4,83,Catholic Church Bundaberg,0,,15
9,4,84,Catholic Church Bundaberg,0,,15
0,2,85,Target Shopping Centre Bundaberg,0,,0
0,2,86,Target Shopping Centre Bundaberg,0,,0
0,2,87,Target Shopping Centre Bundaberg,0,,0
0,2,88,Target Shopping Centre Bundaberg,0,,0
0,2,89,Target Shopping Centre Bundaberg,0,,0
1,2,90,Sugarland Shoppingtown,1,,1
1,2,91,Sugarland Shoppingtown,1,,1
1,2,92,Sugarland Shoppingtown,1,,1
1,2,93,Sugarland Shoppingtown,1,,1
2,2,94,Target Shopping Centre Bundaberg,0,,2
2,2,95,Target Shopping Centre Bundaberg,0,,2
2,2,96,Target Shopping Centre Bundaberg,0,,2
2,2,97,Target Shopping Centre Bundaberg,0,,2
3,2,98,Target Shopping Centre Bundaberg,0,,3
3,2,99,Target Shopping Centre Bundaberg,0,,3
3,2,100,Target Shopping Centre Bundaberg,0,,3
3,2,101,Target Shopping Centre Bundaberg,0,,3
3,2,102,Target Shopping Centre Bundaberg,0,,3
4,2,103,Bundaberg Library,0,,4
4,2,104,Bundaberg Library,0,,4
4,2,105,Bundaberg Library,0,,4
4,2,106,Bundaberg Library,0,,4
5,2,107,Sugarland Shoppingtown,1,,5
5,2,108,Sugarland Shoppingtown,1,,5
5,2,109,Sugarland Shoppingtown,1,,5
5,2,110,Sugarland Shoppingtown,1,,5
5,2,111,Sugarland Shoppingtown,1,,5
6,2,112,Target Shopping Centre Bundaberg,0,,6
6,2,113,Target Shopping Centre Bundaberg,0,,7
6,2,114,Target Shopping Centre Bundaberg,0,,6
7,2,115,Bundaberg Library,0,,8
7,2,116,Bundaberg Library,0,,8
8,2,117,Sugarland Shoppingtown,0,,10
8,2,118,Sugarland Shoppingtown,0,,10
8,2,119,Sugarland Shoppingtown,0,,10
8,2,120,Innes Park,1,,12
8,2,121,Innes Park,1,,12
8,2,122,Innes Park,1,,12
8,2,123,Innes Park,1,,12
8,2,124,Sugarland Shoppingtown,0,,10
9,2,125,Catholic Church Bundaberg,0,,15
9,2,126,Bundaberg IGA,0,,15
0,3,127,Target Shopping Centre Bundaberg,0,,0
0,3,128,Target Shopping Centre Bundaberg,0,,0
0,3,129,Target Shopping Centre Bundaberg,0,,0
0,3,130,Target Shopping Centre Bundaberg,0,,0
0,3,131,Target Shopping Centre Bundaberg,0,,0
0,3,132,Target Shopping Centre Bundaberg,0,,0
0,3,133,Target Shopping Centre Bundaberg,0,,0
1,3,134,Sugarland Shoppingtown,1,,1
1,3,135,Sugarland Shoppingtown,1,,1
1,3,136,Sugarland Shoppingtown,1,,1
1,3,137,Sugarland Shoppingtown,1,,1
1,3,138,Sugarland Shoppingtown,1,,1
1,3,139,Sugarland Shoppingtown,1,,1
1,3,140,Sugarland Shoppingtown,1,,1
2,3,141,Target Shopping Centre Bundaberg,0,,2
2,3,142,Target Shopping Centre Bundaberg,0,,2
2,3,143,Target Shopping Centre Bundaberg,0,,2
2,3,144,Target Shopping Centre Bundaberg,0,,2
2,3,145,Target Shopping Centre Bundaberg,0,,2
2,3,146,Target Shopping Centre Bundaberg,0,,2
2,3,147,Target Shopping Centre Bundaberg,0,,2
3,3,148,Target Shopping Centre Bundaberg,0,,3
3,3,149,Target Shopping Centre Bundaberg,0,,3
3,3,150,Target Shopping Centre Bundaberg,0,,3
3,3,151,Target Shopping Centre Bundaberg,0,,3
3,3,152,Target Shopping Centre Bundaberg,0,,3
3,3,153,Target Shopping Centre Bundaberg,0,,3
3,3,154,Target Shopping Centre Bundaberg,0,,3
3,3,155,Target Shopping Centre Bundaberg,0,,3
3,3,156,Target Shopping Centre Bundaberg,0,,3
4,3,157,Bundaberg Library,0,,4
4,3,158,Bundaberg Library,0,,4
4,3,159,Bundaberg Library,0,,4
4,3,160,Bundaberg Library,0,,4
4,3,161,Bundaberg Library,0,,4
4,3,162,Bundaberg Library,0,,4
4,3,163,Bundaberg Library,0,,4
4,3,164,Bundaberg Library,0,,4
5,3,165,Sugarland Shoppingtown,1,,5
5,3,166,Sugarland Shoppingtown,1,,5
5,3,167,Sugarland Shoppingtown,1,,5
5,3,168,Sugarland Shoppingtown,1,,5
5,3,169,Sugarland Shoppingtown,1,,5
5,3,170,Sugarland Shoppingtown,1,,5
5,3,171,Sugarland Shoppingtown,1,,5
5,3,172,Sugarland Shoppingtown,1,,5
5,3,173,Sugarland Shoppingtown,1,,5
6,3,174,Target Shopping Centre Bundaberg,0,,6
6,3,175,Target Shopping Centre Bundaberg,0,,6
6,3,176,Target Shopping Centre Bundaberg,0,,6
6,3,177,Target Shopping Centre Bundaberg,0,,6
6,3,178,Target Shopping Centre Bundaberg,0,,6
6,3,179,Target Shopping Centre Bundaberg,0,,6
6,3,180,Target Shopping Centre Bundaberg,0,,6
6,3,181,Target Shopping Centre Bundaberg,0,,7
7,3,182,Bundaberg Library,0,,8
7,3,183,Bundaberg Library,0,,8
7,3,184,Bundaberg Library,0,,8
7,3,185,Bundaberg Library,0,,8
8,3,186,Sugarland Shoppingtown,0,,9
8,3,187,Sugarland Shoppingtown,0,,9
8,3,188,Sugarland Shoppingtown,0,,10
8,3,189,Sugarland Shoppingtown,0,,10
8,3,190,Sugarland Shoppingtown,0,,10
8,3,191,Sugarland Shoppingtown,0,,10
8,3,192,Sugarland Shoppingtown,0,,10
8,3,193,Sugarland Shoppingtown,0,,10
8,3,194,University of CQld,0,,11
8,3,195,Innes Park,1,,12
8,3,196,Sugarland Shoppingtown,0,,13
8,3,197,Innes Park,1,,12
8,3,198,Sugarland Shoppingtown,0,,13
8,3,199,Innes Park,1,,12
8,3,200,Sugarland Shoppingtown,0,,13
8,3,201,Innes Park,1,,12
8,3,202,Sugarland Shoppingtown,0,,13
8,3,203,Innes Park,1,,12
8,3,204,Sugarland Shoppingtown,0,,13
8,3,205,Innes Park,1,,12
8,3,206,Sugarland Shoppingtown,0,,13
8,3,207,Innes Park,1,,14
8,3,208,Innes Park,1,,14
9,3,209,Bundaberg IGA,0,,15
9,3,210,Bundaberg IGA,0,,15
9,3,211,Sea Park Rd,0,,16
9,3,212,Shalom College,0,,17
9,3,213,Catholic Church Bundaberg,0,,18
9,3,214,Bundaberg IGA,0,,15
0,5,215,Target Shopping Centre Bundaberg,0,,0
0,5,216,Target Shopping Centre Bundaberg,0,,0
0,5,217,Target Shopping Centre Bundaberg,0,,0
0,5,218,Target Shopping Centre Bundaberg,0,,0
0,5,219,Target Shopping Centre Bundaberg,0,,0
1,5,220,Sugarland Shoppingtown,1,,1
1,5,221,Sugarland Shoppingtown,1,,1
1,5,222,Sugarland Shoppingtown,1,,1
1,5,223,Sugarland Shoppingtown,1,,1
2,5,224,Target Shopping Centre Bundaberg,0,,2
2,5,225,Target Shopping Centre Bundaberg,0,,2
2,5,226,Target Shopping Centre Bundaberg,0,,2
2,5,227,Target Shopping Centre Bundaberg,0,,2
3,5,228,Target Shopping Centre Bundaberg,0,,3
3,5,229,Target Shopping Centre Bundaberg,0,,3
3,5,230,Target Shopping Centre Bundaberg,0,,3
3,5,231,Target Shopping Centre Bundaberg,0,,3
3,5,232,Target Shopping Centre Bundaberg,0,,3
4,5,233,Bundaberg Library,0,,4
4,5,234,Bundaberg Library,0,,4
4,5,235,Bundaberg Library,0,,4
4,5,236,Bundaberg Library,0,,4
5,5,237,Sugarland Shoppingtown,1,,5
5,5,238,Sugarland Shoppingtown,1,,5
5,5,239,Sugarland Shoppingtown,1,,5
5,5,240,Sugarland Shoppingtown,1,,5
5,5,241,Sugarland Shoppingtown,1,,5
6,5,242,Target Shopping Centre Bundaberg,0,,6
6,5,243,Target Shopping Centre Bundaberg,0,,7
6,5,244,Target Shopping Centre Bundaberg,0,,6
7,5,245,Bundaberg Library,0,,8
7,5,246,Bundaberg Library,0,,8
8,5,247,Sugarland Shoppingtown,0,,10
8,5,248,Sugarland Shoppingtown,0,,10
8,5,249,Sugarland Shoppingtown,0,,10
8,5,250,Innes Park,1,,12
8,5,251,Innes Park,1,,12
8,5,252,Innes Park,1,,12
8,5,253,Innes Park,1,,12
8,5,254,Sugarland Shoppingtown,0,,10
9,5,255,Catholic Church Bundaberg,0,,15
9,5,256,Catholic Church Bundaberg,0,,15
10,5,257,Target Shopping Centre Bundaberg,0,,19
10,5,258,Target Shopping Centre Bundaberg,0,,19
11,5,259,Target Shopping Centre Bundaberg,0,,20
11,5,260,Target Shopping Centre Bundaberg,0,,20
0,6,261,Target Shopping Centre Bundaberg,0,,0
0,6,262,Target Shopping Centre Bundaberg,0,,0
0,6,263,Target Shopping Centre Bundaberg,0,,0
0,6,264,Target Shopping Centre Bundaberg,0,,0
0,6,265,Target Shopping Centre Bundaberg,0,,0
0,6,266,Target Shopping Centre Bundaberg,0,,0
0,6,267,Target Shopping Centre Bundaberg,0,,0
1,6,268,Sugarland Shoppingtown,1,,1
1,6,269,Sugarland Shoppingtown,1,,1
1,6,270,Sugarland Shoppingtown,1,,1
1,6,271,Sugarland Shoppingtown,1,,1
1,6,272,Sugarland Shoppingtown,1,,1
1,6,273,Sugarland Shoppingtown,1,,1
1,6,274,Sugarland Shoppingtown,1,,1
2,6,275,Target Shopping Centre Bundaberg,0,,2
2,6,276,Target Shopping Centre Bundaberg,0,,2
2,6,277,Target Shopping Centre Bundaberg,0,,2
2,6,278,Target Shopping Centre Bundaberg,0,,2
2,6,279,Target Shopping Centre Bundaberg,0,,2
2,6,280,Target Shopping Centre Bundaberg,0,,2
2,6,281,Target Shopping Centre Bundaberg,0,,2
3,6,282,Target Shopping Centre Bundaberg,0,,3
3,6,283,Target Shopping Centre Bundaberg,0,,3
3,6,284,Target Shopping Centre Bundaberg,0,,3
3,6,285,Target Shopping Centre Bundaberg,0,,3
3,6,286,Target Shopping Centre Bundaberg,0,,3
3,6,287,Target Shopping Centre Bundaberg,0,,3
3,6,288,Target Shopping Centre Bundaberg,0,,3
3,6,289,Target Shopping Centre Bundaberg,0,,3
3,6,290,Target Shopping Centre Bundaberg,0,,3
4,6,291,Bundaberg Library,0,,4
4,6,292,Bundaberg Library,0,,4
4,6,293,Bundaberg Library,0,,4
4,6,294,Bundaberg Library,0,,4
4,6,295,Bundaberg Library,0,,4
4,6,296,Bundaberg Library,0,,4
4,6,297,Bundaberg Library,0,,4
4,6,298,Bundaberg Library,0,,4
5,6,299,Sugarland Shoppingtown,1,,5
5,6,300,Sugarland Shoppingtown,1,,5
5,6,301,Sugarland Shoppingtown,1,,5
5,6,302,Sugarland Shoppingtown,1,,5
5,6,303,Sugarland Shoppingtown,1,,5
5,6,304,Sugarland Shoppingtown,1,,5
5,6,305,Sugarland Shoppingtown,1,,5
5,6,306,Sugarland Shoppingtown,1,,5
5,6,307,Sugarland Shoppingtown,1,,5
6,6,308,Target Shopping Centre Bundaberg,0,,6
6,6,309,Target Shopping Centre Bundaberg,0,,6
6,6,310,Target Shopping Centre Bundaberg,0,,6
6,6,311,Target Shopping Centre Bundaberg,0,,6
6,6,312,Target Shopping Centre Bundaberg,0,,6
6,6,313,Target Shopping Centre Bundaberg,0,,6
6,6,314,Target Shopping Centre Bundaberg,0,,6
6,6,315,Target Shopping Centre Bundaberg,0,,7
7,6,316,Bundaberg Library,0,,8
7,6,317,Bundaberg Library,0,,8
7,6,318,Bundaberg Library,0,,8
7,6,319,Bundaberg Library,0,,8
8,6,320,Sugarland Shoppingtown,0,,9
8,6,321,Sugarland Shoppingtown,0,,9
8,6,322,Sugarland Shoppingtown,0,,10
8,6,323,Sugarland Shoppingtown,0,,10
8,6,324,Sugarland Shoppingtown,0,,10
8,6,325,Sugarland Shoppingtown,0,,10
8,6,326,Sugarland Shoppingtown,0,,10
8,6,327,Sugarland Shoppingtown,0,,10
8,6,328,University of CQld,0,,11
8,6,329,Innes Park,1,,12
8,6,330,Sugarland Shoppingtown,0,,13
8,6,331,Innes Park,1,,12
8,6,332,Sugarland Shoppingtown,0,,13
8,6,333,Innes Park,1,,12
8,6,334,Sugarland Shoppingtown,0,,13
8,6,335,Innes Park,1,,12
8,6,336,Sugarland Shoppingtown,0,,13
8,6,337,Innes Park,1,,12
8,6,338,Sugarland Shoppingtown,0,,13
8,6,339,Innes Park,1,,12
8,6,340,Sugarland Shoppingtown,0,,13
8,6,341,Innes Park,1,,14
8,6,342,Innes Park,1,,14
9,6,343,Catholic Church Bundaberg,0,,15
9,6,344,Catholic Church Bundaberg,0,,15
9,6,345,Sea Park Rd,0,,16
9,6,346,Shalom College,0,,17
9,6,347,Catholic Church Bundaberg,0,,18
9,6,348,Catholic Church Bundaberg,0,,15
10,6,349,Target Shopping Centre Bundaberg,0,,19
10,6,350,Target Shopping Centre Bundaberg,0,,19
11,6,351,Target Shopping Centre Bundaberg,0,,20
11,6,352,Target Shopping Centre Bundaberg,0,,20
10,2,353,Target Shopping Centre Bundaberg,0,,19
10,2,354,Target Shopping Centre Bundaberg,0,,19
11,2,355,Target Shopping Centre Bundaberg,0,,20
11,2,356,Target Shopping Centre Bundaberg,0,,20
10,1,357,Target Shopping Centre Bundaberg,0,,19
10,1,358,Target Shopping Centre Bundaberg,0,,19
11,1,359,Target Shopping Centre Bundaberg,0,,20
11,1,360,Target Shopping Centre Bundaberg,0,,20
