stop_id,stop_code,stop_name,stop_desc,stop_lat,stop_lon,zone_id,stop_url,location_type,parent_station,platform_code
57,750000,Cedar St at Coral Coast Drive (Palm Cove),,-16.743585,145.668207,1,http://translink.com.au/stop/750000/gtfs/,,,
58,750001,Williams Esplanade at Caryota St,,-16.744104,145.671100,1,http://translink.com.au/stop/750001/gtfs/,,,
59,750002,Veivers Road at Talpa Cl,,-16.749260,145.667899,1,http://translink.com.au/stop/750002/gtfs/,,,
60,750003,Veivers Road at Capt Cook Highway,,-16.748213,145.663659,1,http://translink.com.au/stop/750003/gtfs/,,,
61,750004,Captain Cook Hwy near Alexandra St,,-16.758023,145.663351,1,http://translink.com.au/stop/750004/gtfs/,,,
62,750005,Endeavour Rd at Elford Street,,-16.763984,145.667889,1,http://translink.com.au/stop/750005/gtfs/,,,
63,750006,Endeavour Road at Haycock St,,-16.762734,145.669390,1,http://translink.com.au/stop/750006/gtfs/,,,
64,750007,Endeavour Rd at Upolu Esp,,-16.761302,145.672832,1,http://translink.com.au/stop/750007/gtfs/,,,
65,750008,Arlington Esp near Upolu Esp (Hail n Ride),,-16.764331,145.675445,1,http://translink.com.au/stop/750008/gtfs/,,,
66,750009,Arlington Esplanade at Clifton Rd (Clifton Beach),,-16.767400,145.677060,1,http://translink.com.au/stop/750009/gtfs/,,,
67,750010,Clifton Road at Guide Street,,-16.769045,145.675490,1,http://translink.com.au/stop/750010/gtfs/,,,
68,750011,Clifton Rd at Capt Cook Hwy,,-16.771944,145.674683,1,http://translink.com.au/stop/750011/gtfs/,,,
70,750013,Cottesloe Dr at Daytona St (Kewarra Beach),,-16.790693,145.680651,2,http://translink.com.au/stop/750013/gtfs/,,,
75,750014,Poolwood Rd at Miami Rd,,-16.787775,145.685217,2,http://translink.com.au/stop/750014/gtfs/,,,
77,750015,Captain Cook Hwy at Arawa St,,-16.794739,145.680837,2,http://translink.com.au/stop/750015/gtfs/,,,
78,750016,Trinity Beach Rd at Madang St,,-16.795739,145.687593,2,http://translink.com.au/stop/750016/gtfs/,,,
79,750017,Trinity Beach Rd at Periwinkle Ave,,-16.790490,145.690847,2,http://translink.com.au/stop/750017/gtfs/,,,
29,750018,Trinity Beach Rd at Vasey St,,-16.785490,145.698915,2,http://translink.com.au/stop/750018/gtfs/,,,
30,750019,Trinity Beach Rd at Petersen St,,-16.787513,145.696737,2,http://translink.com.au/stop/750019/gtfs/,,,
81,750020,Anderson St at Lae St,,-16.789012,145.696319,2,http://translink.com.au/stop/750020/gtfs/,,,
85,750021,Madang St at Kokoda St,,-16.793681,145.690606,2,http://translink.com.au/stop/750021/gtfs/,,,
32,750022,Trinity Beach Rd at Madang St,,-16.795198,145.687783,2,http://translink.com.au/stop/750022/gtfs/,,,
25,750024,Madang St at Rabaul St,,-16.793503,145.692765,2,http://translink.com.au/stop/750024/gtfs/,,,
26,750025,Moresby St at Saidor Cl,,-16.793080,145.695058,2,http://translink.com.au/stop/750025/gtfs/,,,
27,750026,Moresby St at Anderson St,,-16.791287,145.696453,2,http://translink.com.au/stop/750026/gtfs/,,,
31,750027,Trinity Beach Rd at Rabaul St,,-16.790322,145.691820,2,http://translink.com.au/stop/750027/gtfs/,,,
33,750028,Captain Cook Hwy at Arawa St,,-16.794958,145.680579,2,http://translink.com.au/stop/750028/gtfs/,,,
36,750029,Poolwood Rd at Mahab St,,-16.784346,145.689353,2,http://translink.com.au/stop/750029/gtfs/,,,
37,750030,Albatross St at Wagtail Cl,,-16.779092,145.683354,2,http://translink.com.au/stop/750030/gtfs/,,,
38,750031,Gannet St at Manly Cl,,-16.783177,145.682836,2,http://translink.com.au/stop/750031/gtfs/,,,
39,750032,Gannet St at Coolangatta Cl,,-16.784719,145.678907,2,http://translink.com.au/stop/750032/gtfs/,,,
40,750033,Cottesloe Dr near Daytona St (Kewarra Beach) (HnR),,-16.790705,145.680962,2,http://translink.com.au/stop/750033/gtfs/,,,
42,750035,Clifton Road near Capt Cook Highway,,-16.771210,145.674786,1,http://translink.com.au/stop/750035/gtfs/,,,
47,750036,Endeavour Road near Saxon Street,,-16.762756,145.669799,1,http://translink.com.au/stop/750036/gtfs/,,,
48,750037,Endeavour Rd near Capt Cook Hwy,,-16.764210,145.667943,1,http://translink.com.au/stop/750037/gtfs/,,,
49,750038,Captain Cook Hwy near Alexandra St,,-16.758329,145.663264,1,http://translink.com.au/stop/750038/gtfs/,,,
53,750039,Williams Esplanade near French St,,-16.744080,145.671029,1,http://translink.com.au/stop/750039/gtfs/,,,
54,750040,Cedar St near Coral Coast Drive (Palm Cove),,-16.743567,145.668423,1,http://translink.com.au/stop/750040/gtfs/,,,
413,750041,Captain Cook Hwy at Aropa St,,-16.805675,145.690823,3,http://translink.com.au/stop/750041/gtfs/,,,
414,750042,Captain Cook Hwy (Smithfield),,-16.815868,145.693631,3,http://translink.com.au/stop/750042/gtfs/,,,
412,750043,Captain Cook Hwy (Smithfield),,-16.817430,145.693043,3,http://translink.com.au/stop/750043/gtfs/,,,
19,750044,Reed Rd at Centaur St,,-16.804795,145.701699,3,http://translink.com.au/stop/750044/gtfs/,,,
91,750045,Cheviot St near Leisure Pk Rd (Smithfield SHS),,-16.815150,145.693970,3,http://translink.com.au/stop/750045/gtfs/,,,
92,750046,McGregor Road at Faculty Cl,,-16.821188,145.695353,3,http://translink.com.au/stop/750046/gtfs/,,,
446,750048,Lydia Street at Anne St,,-16.824283,145.686551,3,http://translink.com.au/stop/750048/gtfs/,,,
447,750049,Gavin St at Stanton St,,-16.831029,145.690256,3,http://translink.com.au/stop/750049/gtfs/,,,
108,750050,Stanton Rd near Survey St,,-16.831522,145.691298,3,http://translink.com.au/stop/750050/gtfs/,,,
16,750051,McGregor Road at Faculty Cl,,-16.820972,145.695407,3,http://translink.com.au/stop/750051/gtfs/,,,
93,750052,Captain Cook Hwy (Smithfield) (Hail n Ride),,-16.825874,145.692418,3,,,,
94,750053,Smithfield Shopping Centre (Cattana Rd),,-16.834852,145.692217,3,http://translink.com.au/stop/750053/gtfs/,,,
124,750054,Mt Milman Dr at Danbulan St,,-16.837279,145.695245,3,http://translink.com.au/stop/750054/gtfs/,,,
112,750055,Varley St at Nancy St,,-16.817835,145.720065,3,http://translink.com.au/stop/750055/gtfs/,,,
114,750056,Varley Street at Daisy St,,-16.812218,145.720692,3,http://translink.com.au/stop/750056/gtfs/,,,
115,750057,Varley St at Hesp St,,-16.808059,145.721199,3,http://translink.com.au/stop/750057/gtfs/,,,
116,750058,Varley St at Adair St,,-16.805500,145.721523,3,http://translink.com.au/stop/750058/gtfs/,,,
117,750059,Sims Esp at Adair St,,-16.805849,145.724553,3,http://translink.com.au/stop/750059/gtfs/,,,
118,750060,Sims Esp at Rutherford St,,-16.808318,145.725868,3,http://translink.com.au/stop/750060/gtfs/,,,
119,750061,Wattle St at Fairweather St,,-16.810618,145.723310,3,http://translink.com.au/stop/750061/gtfs/,,,
120,750062,Varley St at Daisy Street,,-16.811202,145.721042,3,http://translink.com.au/stop/750062/gtfs/,,,
121,750063,Varley St at Grason St,,-16.813945,145.720701,3,http://translink.com.au/stop/750063/gtfs/,,,
122,750064,Varley St at Carolyn Cl,,-16.816613,145.720451,3,http://translink.com.au/stop/750064/gtfs/,,,
127,750065,Oleander St at Bamboo Street,,-16.840024,145.739659,4,http://translink.com.au/stop/750065/gtfs/,,,
128,750066,Oleander St at Poinciana St,,-16.839922,145.739834,4,http://translink.com.au/stop/750066/gtfs/,,,
129,750067,Oleander St at Tamarind St,,-16.843537,145.739411,4,http://translink.com.au/stop/750067/gtfs/,,,
130,750068,Oleander St at Hickory St,,-16.846644,145.739028,4,http://translink.com.au/stop/750068/gtfs/,,,
131,750069,Holloway Beach Rd at Moonah St,,-16.851422,145.736117,4,http://translink.com.au/stop/750069/gtfs/,,,
133,750070,Prior St at Phillips St,,-16.850697,145.746964,4,http://translink.com.au/stop/750070/gtfs/,,,
136,750071,Christensen St at Machans St (Machans Beach SS),,-16.852604,145.745683,4,http://translink.com.au/stop/750071/gtfs/,,,
137,750072,Machans Beach Access Rd,,-16.855199,145.742480,4,http://translink.com.au/stop/750072/gtfs/,,,
14,750073,Smithfield Shopping Centre,,-16.838391,145.692837,3,http://translink.com.au/stop/750073/gtfs/,,,
158,750075,Brinsmead Kamerunga Rd (Skyrail Base Station),,-16.848133,145.695279,3,http://translink.com.au/stop/750075/gtfs/,,,
455,750077,Impey St near Lake Placid Rd,,-16.871093,145.680893,3,http://translink.com.au/stop/750077/gtfs/,,,
451,750078,Lake Placid Rd at Brinsmead Kamerunga Rd,,-16.868431,145.686041,3,http://translink.com.au/stop/750078/gtfs/,,,
159,750079,Cairns Western Art at Harley St,,-16.879794,145.690026,4,http://translink.com.au/stop/750079/gtfs/,,,
426,750080,Michaelangelo Dr near Cyperus Dr (Hail n Ride),,-16.903773,145.697851,4,http://translink.com.au/stop/750080/gtfs/,,,
427,750081,Michaelangelo Dr near Jasmine St,,-16.904417,145.695363,4,http://translink.com.au/stop/750081/gtfs/,,,
429,750082,Michaelangelo Dr near Ebony St,,-16.906744,145.692933,4,http://translink.com.au/stop/750082/gtfs/,,,
430,750083,Michaelangelo Dr at Jasmine St,,-16.904246,145.695292,4,http://translink.com.au/stop/750083/gtfs/,,,
431,750084,Michaelangelo Dr near Cyperus Dr (Hail n Ride),,-16.903596,145.697490,4,http://translink.com.au/stop/750084/gtfs/,,,
160,750085,Redlynch Central Shopping Centre (Larsen St),,-16.895139,145.699438,4,http://translink.com.au/stop/750085/gtfs/,,,
161,750086,Redlynch Intake Rd at Short St,,-16.889180,145.696284,4,http://translink.com.au/stop/750086/gtfs/,,,
162,750087,Brinsmead Kamerunga Rd (Redlynch Railway Station),,-16.887167,145.696567,4,http://translink.com.au/stop/750087/gtfs/,,,
432,750088,Kamerunga Road at Ryan Weare Park,,-16.884988,145.704915,4,http://translink.com.au/stop/750088/gtfs/,,,
433,750089,Kamerunga Rd near Freshwater Rd,,-16.881789,145.708673,4,http://translink.com.au/stop/750089/gtfs/,,,
434,750090,Lavis Rd near Valley St,,-16.881363,145.711122,4,http://translink.com.au/stop/750090/gtfs/,,,
435,750091,Old Smithfield Rd near Le Grande St,,-16.882164,145.712403,4,http://translink.com.au/stop/750091/gtfs/,,,
436,750092,Old Smithfield Rd at Freshwater School,,-16.880961,145.715170,4,http://translink.com.au/stop/750092/gtfs/,,,
437,750093,Old Smithfield Rd near Cassowary St,,-16.878962,145.716577,4,http://translink.com.au/stop/750093/gtfs/,,,
438,750094,Kamerunga Rd near Old Smithfield Rd,,-16.877293,145.716895,4,http://translink.com.au/stop/750094/gtfs/,,,
439,750095,Kamerunga Rd near Passchendaele St,,-16.876398,145.723550,4,http://translink.com.au/stop/750095/gtfs/,,,
440,750096,Kamerunga Rd near Hardwick St,,-16.875651,145.727900,4,http://translink.com.au/stop/750096/gtfs/,,,
441,750098,Kamerunga Rd at Stratford Pde,,-16.875346,145.732697,4,http://translink.com.au/stop/750098/gtfs/,,,
442,750099,Stratford Pde near Aeroglen Dr,,-16.875005,145.736193,4,http://translink.com.au/stop/750099/gtfs/,,,
443,750100,Aeroglen Dr near Stratford Pde,,-16.876245,145.741499,4,http://translink.com.au/stop/750100/gtfs/,,,
444,750101,Aeroglen Dr at Whitfield St,,-16.882860,145.745763,4,http://translink.com.au/stop/750101/gtfs/,,,
445,750102,Aeroglen Dr at Palmerston St,,-16.885814,145.747682,4,http://translink.com.au/stop/750102/gtfs/,,,
96,750103,Sheridan St at Rutherford St,,-16.900082,145.756073,5,http://translink.com.au/stop/750103/gtfs/,,,
97,750104,Sheridan St at Rutherford St,,-16.902017,145.756958,5,http://translink.com.au/stop/750104/gtfs/,,,
98,750105,Sheridan St at Lily St (Tobruk Pool),,-16.903499,145.757946,5,http://translink.com.au/stop/750105/gtfs/,,,
99,750106,Sheridan St at Smith Street,,-16.906144,145.759649,5,http://translink.com.au/stop/750106/gtfs/,,,
100,750107,Sheridan St at McKenzie St,,-16.908558,145.761284,5,http://translink.com.au/stop/750107/gtfs/,,,
101,750108,Sheridan St at McKenzie St,,-16.910311,145.762581,5,http://translink.com.au/stop/750108/gtfs/,,,
102,750109,Sheridan St at Charles St,,-16.912504,145.764187,5,http://translink.com.au/stop/750109/gtfs/,,,
5,750136,Sheridan St at Grove St,,-16.913332,145.764469,5,http://translink.com.au/stop/750136/gtfs/,,,
6,750137,Sheridan St at Charles Street,,-16.911694,145.763139,5,http://translink.com.au/stop/750137/gtfs/,,,
7,750138,Sheridan St at Thomas Street,,-16.909824,145.761804,5,http://translink.com.au/stop/750138/gtfs/,,,
8,750139,Sheridan St at James Street,,-16.907618,145.760152,5,http://translink.com.au/stop/750139/gtfs/,,,
9,750140,Sheridan St at Lily Street,,-16.905452,145.758835,5,http://translink.com.au/stop/750140/gtfs/,,,
10,750141,Sheridan St at Lily St (Tobruk Pool),,-16.903951,145.757858,5,http://translink.com.au/stop/750141/gtfs/,,,
11,750142,Sheridan St Cairns Nth,,-16.902089,145.756629,5,http://translink.com.au/stop/750142/gtfs/,,,
12,750143,Sheridan St at Rutherford St,,-16.900146,145.755741,5,http://translink.com.au/stop/750143/gtfs/,,,
198,750144,Collins Ave at Cairns Botanic Gardens,,-16.899638,145.748194,5,http://translink.com.au/stop/750144/gtfs/,,,
195,750145,Greenslopes St near Crathern Cl,,-16.903038,145.742795,5,http://translink.com.au/stop/750145/gtfs/,,,
196,750146,Greenslopes Street at McCormack Street,,-16.903384,145.746311,5,http://translink.com.au/stop/750146/gtfs/,,,
197,750147,Greenslopes St at Centenary Lakes,,-16.903847,145.751847,5,http://translink.com.au/stop/750147/gtfs/,,,
415,750148,Aeroglen Dr at Palmerston St,,-16.885749,145.747548,4,http://translink.com.au/stop/750148/gtfs/,,,
421,750149,Old Smithfield Rd at Simon St,,-16.879575,145.716286,4,http://translink.com.au/stop/750149/gtfs/,,,
422,750150,Merrybrook Street at Freshwater SS,,-16.880977,145.715327,4,http://translink.com.au/stop/750150/gtfs/,,,
423,750151,Old Smithfield Rd at Le Grande Street,,-16.882252,145.712226,4,http://translink.com.au/stop/750151/gtfs/,,,
424,750152,Kamerunga Road at Freshwater Railway Station,,-16.881565,145.709623,4,http://translink.com.au/stop/750152/gtfs/,,,
425,750153,Kamerunga Road at Ryan Weare Park,,-16.885218,145.705044,4,http://translink.com.au/stop/750153/gtfs/,,,
163,750154,Loridan Dr at Adam Dr,,-16.893075,145.712981,4,http://translink.com.au/stop/750154/gtfs/,,,
164,750155,Loridan Dr at Wills St,,-16.902682,145.714709,4,http://translink.com.au/stop/750155/gtfs/,,,
165,750156,Loridan Dr at Windsor Close,,-16.903880,145.711007,4,http://translink.com.au/stop/750156/gtfs/,,,
166,750157,Cairns Western Arterial near Ramsey Dr,,-16.913251,145.722446,5,http://translink.com.au/stop/750157/gtfs/,,,
213,750158,McManus St at Whitfield State School,,-16.910954,145.728037,5,http://translink.com.au/stop/750158/gtfs/,,,
214,750159,McManus St near Park St,,-16.908205,145.728291,5,http://translink.com.au/stop/750159/gtfs/,,,
215,750160,McManus St near Hodel St,,-16.904375,145.728636,5,http://translink.com.au/stop/750160/gtfs/,,,
217,750161,Woodward St near Nolan St (Hail n Ride),,-16.900522,145.733946,5,http://translink.com.au/stop/750161/gtfs/,,,
219,750162,Woodward Street at Forest Ave,,-16.901149,145.741627,5,http://translink.com.au/stop/750162/gtfs/,,,
181,750163,Richardson St at Pease St,,-16.906037,145.741107,5,http://translink.com.au/stop/750163/gtfs/,,,
189,750166,Jensen St near Oregon St,,-16.912918,145.734766,5,http://translink.com.au/stop/750166/gtfs/,,,
190,750167,Jensen St near Brooks St,,-16.910702,145.733502,5,http://translink.com.au/stop/750167/gtfs/,,,
191,750168,Jensen St near Redwood St,,-16.909324,145.733116,5,http://translink.com.au/stop/750168/gtfs/,,,
192,750169,Jensen St near Boden St,,-16.907372,145.733738,5,http://translink.com.au/stop/750169/gtfs/,,,
193,750170,Richardson St near Polentz St,,-16.905382,145.735748,5,http://translink.com.au/stop/750170/gtfs/,,,
194,750171,Richardson St near Pease Street,,-16.905842,145.741203,5,http://translink.com.au/stop/750171/gtfs/,,,
199,750172,Woodward St at Pease St,,-16.901316,145.741827,5,http://translink.com.au/stop/750172/gtfs/,,,
200,750173,Woodward St near Forest Ave (Hail n Ride),,-16.901220,145.740940,5,http://translink.com.au/stop/750173/gtfs/,,,
201,750174,Woodward St at Clemson Ave,,-16.901009,145.738115,5,http://translink.com.au/stop/750174/gtfs/,,,
202,750175,Woodward St near Lomond Cl (Hail n Ride),,-16.900910,145.737193,5,http://translink.com.au/stop/750175/gtfs/,,,
203,750176,Woodward St near Jensen St,,-16.900698,145.734610,5,http://translink.com.au/stop/750176/gtfs/,,,
204,750177,Woodward St near Nolan St,,-16.900613,145.733470,5,http://translink.com.au/stop/750177/gtfs/,,,
206,750180,McManus St near Hodel St,,-16.903675,145.728899,5,http://translink.com.au/stop/750180/gtfs/,,,
207,750181,McManus St near Park St,,-16.908255,145.728463,5,http://translink.com.au/stop/750181/gtfs/,,,
208,750182,McManus St at Whitfield State School,,-16.912408,145.728121,5,http://translink.com.au/stop/750182/gtfs/,,,
210,750183,Murray St near Enmore St,,-16.920266,145.734151,5,http://translink.com.au/stop/750183/gtfs/,,,
212,750184,Murray St near Enmore St,,-16.920385,145.734138,5,http://translink.com.au/stop/750184/gtfs/,,,
146,750185,Pease St near Murray St (CairnsVilla & LeisurePk),,-16.920689,145.740536,5,http://translink.com.au/stop/750185/gtfs/,,,
148,750188,Pease St near Murray St (CairnsVilla & LeisurePk),,-16.921165,145.740036,5,http://translink.com.au/stop/750188/gtfs/,,,
170,750189,Pease St near Reservoir Rd,,-16.917714,145.740990,5,http://translink.com.au/stop/750189/gtfs/,,,
171,750190,Anderson St near Mayers St,,-16.916387,145.743623,5,http://translink.com.au/stop/750190/gtfs/,,,
172,750191,Anderson St near English Street,,-16.915553,145.746085,5,http://translink.com.au/stop/750191/gtfs/,,,
173,750192,Anderson St near Hill St,,-16.914686,145.748895,5,http://translink.com.au/stop/750192/gtfs/,,,
174,750193,Anderson St at Chaplain St (Cemetery),,-16.913525,145.752308,5,http://translink.com.au/stop/750193/gtfs/,,,
175,750194,Martyn St near Thomas St (Hail n Ride),,-16.913242,145.755940,5,http://translink.com.au/stop/750194/gtfs/,,,
176,750195,Martyn St near Shearer St,,-16.914167,145.757623,5,http://translink.com.au/stop/750195/gtfs/,,,
177,750196,Martyn St near Grove St,,-16.916091,145.761048,5,http://translink.com.au/stop/750196/gtfs/,,,
139,750201,Martyn St near Grove St,,-16.916326,145.760723,5,http://translink.com.au/stop/750201/gtfs/,,,
140,750202,Martyn St near Thomas St (Hail n Ride),,-16.914125,145.757105,5,http://translink.com.au/stop/750202/gtfs/,,,
141,750203,Anderson St at Chaplain Avenue (Cemetery),,-16.913565,145.753406,5,http://translink.com.au/stop/750203/gtfs/,,,
142,750205,Anderson St near Hill St,,-16.915067,145.749043,5,http://translink.com.au/stop/750205/gtfs/,,,
143,750206,Anderson St near English Street,,-16.916043,145.746126,5,http://translink.com.au/stop/750206/gtfs/,,,
144,750207,Anderson St near Mayers St,,-16.916829,145.743790,5,http://translink.com.au/stop/750207/gtfs/,,,
145,750208,Pease St near Reservoir Rd (Hail n Ride),,-16.917748,145.741392,5,http://translink.com.au/stop/750208/gtfs/,,,
244,750209,Stockland Earlville,,-16.944511,145.739043,6,http://translink.com.au/stop/750209/gtfs/,,,
246,750210,Balaclava Rd at Downing St,,-16.944135,145.734131,6,http://translink.com.au/stop/750210/gtfs/,,,
249,750211,Lavender St at Holly St,,-16.937824,145.730404,6,http://translink.com.au/stop/750211/gtfs/,,,
250,750212,Irene St at Beatrice St (Mooroobool),,-16.935322,145.729245,6,http://translink.com.au/stop/750212/gtfs/,,,
251,750213,McGregor St at Wawan St,,-16.926595,145.731901,6,http://translink.com.au/stop/750213/gtfs/,,,
252,750214,Swallow St at Moody St,,-16.927381,145.734739,6,http://translink.com.au/stop/750214/gtfs/,,,
253,750215,Swallow St at Cochrane St,,-16.930656,145.738004,6,http://translink.com.au/stop/750215/gtfs/,,,
255,750216,English St at Hoare St,,-16.925630,145.746032,6,http://translink.com.au/stop/750216/gtfs/,,,
256,750217,Hoare St at Kiernan Street,,-16.923340,145.747774,6,http://translink.com.au/stop/750217/gtfs/,,,
257,750218,Hoare St at Eureka St (Trinity Bay SHS),,-16.923863,145.752562,6,http://translink.com.au/stop/750218/gtfs/,,,
231,750219,Newton St at Cairns TAFE,,-16.922666,145.755999,6,http://translink.com.au/stop/750219/gtfs/,,,
258,750220,Aumuller St at Gatton St,,-16.926174,145.754692,6,http://translink.com.au/stop/750220/gtfs/,,,
228,750221,DFO Westcourt,,-16.933113,145.753304,6,http://translink.com.au/stop/750221/gtfs/,,,
260,750222,Aumuller St at O'Leary St,,-16.931634,145.759661,6,http://translink.com.au/stop/750222/gtfs/,,,
261,750223,Aumuller St near Joan St (Portsmith) (Hail n Ride),,-16.933756,145.761439,6,http://translink.com.au/stop/750223/gtfs/,,,
262,750224,Aumuller St at Spence St,,-16.934795,145.762340,6,http://translink.com.au/stop/750224/gtfs/,,,
0,750225,Cairns Central Shopping Centre (Spence St),,-16.926599,145.773501,20,http://translink.com.au/stop/750225/gtfs/,,,
1,750226,Spence Street at Grafton St,,-16.924805,145.775714,20,http://translink.com.au/stop/750226/gtfs/,,,
225,750227,Aumuller St at Spence St (Portsmith),,-16.934796,145.761969,6,http://translink.com.au/stop/750227/gtfs/,,,
226,750228,Aumuller St at O'Leary St,,-16.931471,145.759113,6,http://translink.com.au/stop/750228/gtfs/,,,
229,750229,Mann St at Vivian St,,-16.930085,145.753028,6,http://translink.com.au/stop/750229/gtfs/,,,
230,750230,Aumuller St at Mann St,,-16.927423,145.755696,6,http://translink.com.au/stop/750230/gtfs/,,,
233,750231,Hoare St at Kiernan Street,,-16.923660,145.748024,6,http://translink.com.au/stop/750231/gtfs/,,,
234,750232,English St at Hoare Street,,-16.925193,145.746208,6,http://translink.com.au/stop/750232/gtfs/,,,
235,750233,Lennon St at Alfred St,,-16.931174,145.744189,6,http://translink.com.au/stop/750233/gtfs/,,,
238,750234,McGregor St at Irene St,,-16.926690,145.730654,6,http://translink.com.au/stop/750234/gtfs/,,,
241,750235,Grevillea St at Pepperina St,,-16.936384,145.734358,6,http://translink.com.au/stop/750235/gtfs/,,,
243,750236,Balaclava Rd at Yarrum St,,-16.943455,145.735909,6,http://translink.com.au/stop/750236/gtfs/,,,
245,750237,Stockland Earlville,,-16.944560,145.738935,6,http://translink.com.au/stop/750237/gtfs/,,,
320,750238,Mulgrave Rd at Soure St,,-16.942159,145.739374,6,http://translink.com.au/stop/750238/gtfs/,,,
321,750239,Mulgrave Rd near Kelly St,,-16.939626,145.743142,6,http://translink.com.au/stop/750239/gtfs/,,,
322,750240,Mulgrave Rd near Kelly St (Balaclava State Sch),,-16.938484,145.744964,6,http://translink.com.au/stop/750240/gtfs/,,,
324,750241,Mulgrave Rd (DFO Westcourt),,-16.935154,145.753699,6,http://translink.com.au/stop/750241/gtfs/,,,
325,750242,Mulgrave Rd near Creedy St,,-16.931008,145.757515,6,http://translink.com.au/stop/750242/gtfs/,,,
326,750243,Mulgrave Rd near Collinson St,,-16.928809,145.758711,6,http://translink.com.au/stop/750243/gtfs/,,,
327,750244,Mulgrave Rd at Parramatta Park State School,,-16.925179,145.763900,20/6,http://translink.com.au/stop/750244/gtfs/,,,
266,750247,Mulgrave Rd at Parramatta Park State School,,-16.925399,145.764306,20/6,http://translink.com.au/stop/750247/gtfs/,,,
267,750248,Mulgrave Rd at Gregory St,,-16.927034,145.762002,6,http://translink.com.au/stop/750248/gtfs/,,,
227,750250,Mulgrave Rd at Creedy St,,-16.931332,145.757867,6,http://translink.com.au/stop/750250/gtfs/,,,
268,750251,Mulgrave Rd at Tills St,,-16.936516,145.751652,6,http://translink.com.au/stop/750251/gtfs/,,,
269,750252,Mulgrave Street at Dalton St,,-16.937833,145.748047,6,http://translink.com.au/stop/750252/gtfs/,,,
270,750253,Mulgrave Rd near Wilks St (Balaclava State Sch),,-16.938962,145.745053,6,http://translink.com.au/stop/750253/gtfs/,,,
271,750254,Mulgrave Rd near Marsh St,,-16.941228,145.741605,6,http://translink.com.au/stop/750254/gtfs/,,,
329,750256,Toogood Rd near Cavanagh St,,-16.954238,145.742851,7,http://translink.com.au/stop/750256/gtfs/,,,
331,750257,Toogood Rd at Nephrite St,,-16.957093,145.738071,7,http://translink.com.au/stop/750257/gtfs/,,,
332,750258,Toogood Rd at Agate St,,-16.957809,145.734428,7,http://translink.com.au/stop/750258/gtfs/,,,
335,750259,Anderson Rd near Bellbird St,,-16.966436,145.730609,7,http://translink.com.au/stop/750259/gtfs/,,,
339,750260,Anderson Rd at Windarra St (Coconut Village),,-16.967751,145.743672,7,http://translink.com.au/stop/750260/gtfs/,,,
341,750261,Windarra St near Noela Cl,,-16.964056,145.739866,7,http://translink.com.au/stop/750261/gtfs/,,,
342,750262,Anderson Rd near Shannon Dr,,-16.966688,145.731856,7,http://translink.com.au/stop/750262/gtfs/,,,
343,750263,Fairview St near Turquoise Cl (Forno Park),,-16.963409,145.730319,7,http://translink.com.au/stop/750263/gtfs/,,,
344,750264,Toogood St near Panorama St,,-16.959012,145.728127,7,http://translink.com.au/stop/750264/gtfs/,,,
345,750265,Toogood Rd at Tamba St,,-16.957884,145.733497,7,http://translink.com.au/stop/750265/gtfs/,,,
346,750266,Toogood Rd at Erang St,,-16.956319,145.741018,7,http://translink.com.au/stop/750266/gtfs/,,,
273,750267,Des Chalmers Drive at Rigg Street,,-16.957307,145.747145,7,http://translink.com.au/stop/750267/gtfs/,,,
376,750269,Progress Rd at Dillon Cl (White Rock SS),,-16.987582,145.743111,7,http://translink.com.au/stop/750269/gtfs/,,,
380,750270,Tiffany St at Alabama St,,-16.987453,145.746762,7,http://translink.com.au/stop/750270/gtfs/,,,
382,750271,Progress Rd at Leftwich St (Trinity Anglican Sch),,-16.979280,145.743917,7,http://translink.com.au/stop/750271/gtfs/,,,
383,750273,Kambara St at Sheehy Rd,,-16.976566,145.750419,7,http://translink.com.au/stop/750273/gtfs/,,,
384,750274,Kambara St at Skull Rd,,-16.971539,145.750959,7,http://translink.com.au/stop/750274/gtfs/,,,
385,750275,Skull Rd at Kowinka St,,-16.971133,145.748546,7,http://translink.com.au/stop/750275/gtfs/,,,
349,750276,Forest Gardens Blvd near Madigans Dr,,-16.977846,145.740038,7,http://translink.com.au/stop/750276/gtfs/,,,
350,750277,Forest Gardens Blvd at Archer Cl,,-16.979959,145.737547,7,http://translink.com.au/stop/750277/gtfs/,,,
351,750278,Forest Gardens Blvd at Oakblue Dr,,-16.983309,145.736945,7,http://translink.com.au/stop/750278/gtfs/,,,
277,750279,Forest Gardens Blvd at Booyong Dr,,-16.985064,145.738559,7,http://translink.com.au/stop/750279/gtfs/,,,
316,750280,Mt Sheridan Plaza (Barnard Dr) Stop B,,-16.989640,145.739618,8,http://translink.com.au/stop/750280/gtfs/,,,
365,750281,Timberlea Dr near Walker Rd,,-17.012400,145.720417,8,http://translink.com.au/stop/750281/gtfs/,,,
366,750282,Timberlea Dr near Boyce St,,-17.007669,145.718486,8,http://translink.com.au/stop/750282/gtfs/,,,
367,750283,Timberlea Dr near Dan Jones St,,-17.003354,145.720765,8,http://translink.com.au/stop/750283/gtfs/,,,
368,750284,Robert Rd at Templar Cr,,-17.009968,145.726500,8,http://translink.com.au/stop/750284/gtfs/,,,
369,750285,Robert Rd at Cintra St,,-17.006504,145.730169,8,http://translink.com.au/stop/750285/gtfs/,,,
370,750286,Hardy Rd at Malabar St (Tom Murray Park),,-17.000048,145.734397,8,http://translink.com.au/stop/750286/gtfs/,,,
371,750287,Forest Gardens Blvd near Booyong Dr,,-16.984863,145.738463,7,http://translink.com.au/stop/750287/gtfs/,,,
372,750288,Forest Gardens Blvd at Oakblue Dr,,-16.983328,145.736817,7,http://translink.com.au/stop/750288/gtfs/,,,
373,750289,Forest Gardens Blvd at Archer Cl,,-16.979901,145.737392,7,http://translink.com.au/stop/750289/gtfs/,,,
374,750290,Forest Gardens Blvd near Sawpit St,,-16.977690,145.739715,7,http://translink.com.au/stop/750290/gtfs/,,,
278,750291,Mt Sheridan Plaza (Barnard Dr) Stop A,,-16.989790,145.739563,8,http://translink.com.au/stop/750291/gtfs/,,,
279,750292,Trafalgar Rd at Barnard Dr,,-16.995255,145.741809,8,http://translink.com.au/stop/750292/gtfs/,,,
280,750293,Trafalgar Rd at Nimroud Cl,,-16.997076,145.739419,8,http://translink.com.au/stop/750293/gtfs/,,,
281,750294,Idalia Rd at Scotia Cl,,-16.999521,145.739406,8,http://translink.com.au/stop/750294/gtfs/,,,
283,750295,Robert Rd at Golden Grove Dr (Fretwell Park),,-17.004130,145.738041,8,http://translink.com.au/stop/750295/gtfs/,,,
286,750296,Ravizza Dr near MacKellar Cl,,-17.013799,145.739250,8,http://translink.com.au/stop/750296/gtfs/,,,
287,750297,Ravizza Dr at Hancock St (Edmonton Centre),,-17.017881,145.742496,8,http://translink.com.au/stop/750297/gtfs/,,,
288,750298,Mill Rd at Hartill St,,-17.020320,145.739220,8,http://translink.com.au/stop/750298/gtfs/,,,
306,750299,Mill Rd at Hartill St,,-17.020188,145.739184,8,http://translink.com.au/stop/750299/gtfs/,,,
360,750300,Hambledon Dr (Sugarworld Gardens),,-17.022044,145.724957,8,http://translink.com.au/stop/750300/gtfs/,,,
289,750301,Graham St near Jubilee St (John Walker Park),,-17.023479,145.734379,8,http://translink.com.au/stop/750301/gtfs/,,,
290,750302,Graham St near Mt Peter Rd,,-17.026667,145.737207,8,http://translink.com.au/stop/750302/gtfs/,,,
291,750303,Mt Peter Rd near Prior St,,-17.024031,145.739617,8,http://translink.com.au/stop/750303/gtfs/,,,
292,750304,Cattle St at Old Bruce Highway,,-17.020741,145.744773,8,http://translink.com.au/stop/750304/gtfs/,,,
302,750305,Cattle St at Old Bruce Highway,,-17.020988,145.744367,8,http://translink.com.au/stop/750305/gtfs/,,,
303,750306,Mt Peter Rd near Prior St,,-17.024095,145.739700,8,http://translink.com.au/stop/750306/gtfs/,,,
304,750307,Mt Peter Rd near Graham St,,-17.026750,145.737613,8,http://translink.com.au/stop/750307/gtfs/,,,
305,750308,Graham St near Jubilee St (John Walker Park),,-17.023936,145.734615,8,http://translink.com.au/stop/750308/gtfs/,,,
298,750309,Farmer St at Barney St,,-17.030452,145.740025,8,http://translink.com.au/stop/750309/gtfs/,,,
299,750310,Farmer St at Tilse St,,-17.027626,145.745161,8,http://translink.com.au/stop/750310/gtfs/,,,
300,750311,Farmer St at Gattenby St,,-17.029126,145.747344,8,http://translink.com.au/stop/750311/gtfs/,,,
395,750312,Cairns Rd near Draper Rd (Pyramid Retirement Ctr),,-17.085966,145.779342,10,http://translink.com.au/stop/750312/gtfs/,,,
396,750313,Cairns Rd near George St,,-17.087525,145.783752,10,http://translink.com.au/stop/750313/gtfs/,,,
397,750314,Norman St near Gordon St (Gordonvale),,-17.091779,145.786494,10,http://translink.com.au/stop/750314/gtfs/,,,
398,750315,Riverstone Rd near Swan St,,-17.097526,145.781742,10,http://translink.com.au/stop/750315/gtfs/,,,
404,750316,Fisher Rd near Creswell Cl,,-17.094747,145.771373,10,http://translink.com.au/stop/750316/gtfs/,,,
405,750317,Dempsey St near Hooper Cl,,-17.104064,145.772132,10,http://translink.com.au/stop/750317/gtfs/,,,
406,750318,Riverstone Rd near Jacob Cl,,-17.101870,145.776830,10,http://translink.com.au/stop/750318/gtfs/,,,
407,750319,Riverstone Road near Griffin St,,-17.098741,145.780355,10,http://translink.com.au/stop/750319/gtfs/,,,
408,750320,Riverstone Rd near Moller St,,-17.097532,145.781396,10,http://translink.com.au/stop/750320/gtfs/,,,
410,750321,Cairns Rd near Draper Rd (Pyramid Retirement Ctr),,-17.086225,145.779261,10,http://translink.com.au/stop/750321/gtfs/,,,
411,750322,Bruce Hwy near King St,,-17.078426,145.775388,9,http://translink.com.au/stop/750322/gtfs/,,,
301,750323,Old Bruce Highway (Barrier Reef Caravilla),,-17.024218,145.746517,8,http://translink.com.au/stop/750323/gtfs/,,,
307,750324,Ravizza Dr near Hartill St (Edmonton Centre),,-17.018072,145.742465,8,http://translink.com.au/stop/750324/gtfs/,,,
309,750325,Bicentennial Rd near McLaughlin Rd,,-17.010690,145.735140,8,http://translink.com.au/stop/750325/gtfs/,,,
310,750326,Bicentennial Rd near Jones Access Rd,,-17.007010,145.735556,8,http://translink.com.au/stop/750326/gtfs/,,,
311,750327,Robert Rd at Bicentennial Rd,,-17.003822,145.736456,8,http://translink.com.au/stop/750327/gtfs/,,,
312,750328,Robert Rd near Golden Grove Dr,,-17.004147,145.739428,8,http://translink.com.au/stop/750328/gtfs/,,,
313,750329,Idalia Rd near Scotia Cl,,-16.999664,145.739348,8,http://translink.com.au/stop/750329/gtfs/,,,
317,750330,Charlotte Cl at Service Road,,-16.961979,145.746516,7,http://translink.com.au/stop/750330/gtfs/,,,
318,750331,Des Chalmers Drive at Rigg Street,,-16.957438,145.746908,7,http://translink.com.au/stop/750331/gtfs/,,,
319,750332,Mulgrave Rd at Toogood Rd,,-16.950302,145.742430,6/7,http://translink.com.au/stop/750332/gtfs/,,,
150,750333,Reservoir Rd near Enmore St,,-16.916812,145.733631,5,http://translink.com.au/stop/750333/gtfs/,,,
151,750334,Cairns Western Arterial near Ramsey Dr,,-16.913731,145.720616,5,http://translink.com.au/stop/750334/gtfs/,,,
156,750335,Cairns Western Art at Harley St,,-16.880496,145.690618,4,http://translink.com.au/stop/750335/gtfs/,,,
157,750336,Cairns Western Art at Illawarra St,,-16.865656,145.690358,3,http://translink.com.au/stop/750336/gtfs/,,,
56,750337,Cedar Rd near Warren St (Hail n Ride),,-16.745436,145.665872,1,http://translink.com.au/stop/750337/gtfs/,,,
55,750338,Cedar Rd near Warren St (Hail n Ride),,-16.746350,145.664881,1,http://translink.com.au/stop/750338/gtfs/,,,
51,750339,Veivers Rd near Oliva St (Hail n Ride),,-16.749154,145.667913,1,http://translink.com.au/stop/750339/gtfs/,,,
46,750342,Endeavour Rd at Upolu Esp,,-16.761526,145.672574,1,http://translink.com.au/stop/750342/gtfs/,,,
45,750343,Arlington Esp near Upolu Esp (Hail n Ride),,-16.764394,145.675308,1,http://translink.com.au/stop/750343/gtfs/,,,
44,750344,Arlington Esp near Clifton Rd (Clifton Beach),,-16.767246,145.676809,1,http://translink.com.au/stop/750344/gtfs/,,,
43,750345,Clifton Rd near Yule Ave (Hail n Ride),,-16.768896,145.675266,1,http://translink.com.au/stop/750345/gtfs/,,,
17,750346,Cheviot St at Smithfield SHS (Hail n Ride),,-16.815043,145.693853,3,http://translink.com.au/stop/750346/gtfs/,,,
89,750347,Reed Rd near Centaur St (Hail n Ride),,-16.804936,145.701851,3,http://translink.com.au/stop/750347/gtfs/,,,
88,750348,Reed Rd near Debbie St (Hail n Ride),,-16.801699,145.705945,3,http://translink.com.au/stop/750348/gtfs/,,,
20,750349,Reed Rd near Debbie St (Hail n Ride),,-16.802308,145.704972,3,http://translink.com.au/stop/750349/gtfs/,,,
23,750350,Manus St near Kitava St (Hail n Ride),,-16.797863,145.694272,2,http://translink.com.au/stop/750350/gtfs/,,,
86,750351,Manus St near Kitava St (Hail n Ride),,-16.797784,145.694458,2,http://translink.com.au/stop/750351/gtfs/,,,
24,750352,Trinity Beach State School (Hail n Ride),,-16.793576,145.690610,2,,,,
84,750353,Madang St near Rabaul St (Hail n Ride),,-16.793742,145.692766,2,http://translink.com.au/stop/750353/gtfs/,,,
83,750354,Moresby St near Saidor Cl (Hail n Ride),,-16.793110,145.695096,2,http://translink.com.au/stop/750354/gtfs/,,,
82,750355,Moresby St near Kiriwina Cl (Hail n Ride),,-16.791421,145.696493,2,http://translink.com.au/stop/750355/gtfs/,,,
28,750356,Anderson St near Lae St (Hail n Ride),,-16.788766,145.696085,2,http://translink.com.au/stop/750356/gtfs/,,,
80,750357,Keem St near Peterson St (Hail n Ride),,-16.787211,145.696810,2,http://translink.com.au/stop/750357/gtfs/,,,
35,750358,Poolwood Rd near Cabarita St (Hail n Ride),,-16.787684,145.685187,2,http://translink.com.au/stop/750358/gtfs/,,,
73,750359,Albatross St near Wagtail Cl,,-16.779071,145.683052,2,http://translink.com.au/stop/750359/gtfs/,,,
72,750360,Gannet St near Manly Cl (Hail n Ride),,-16.783101,145.682676,2,http://translink.com.au/stop/750360/gtfs/,,,
71,750361,Gannet St near Newport Cl (Hail n Ride),,-16.784631,145.678773,2,http://translink.com.au/stop/750361/gtfs/,,,
138,750362,Mount Milman Dr near Danbulan St (Hail n Ride),,-16.837140,145.694961,3,http://translink.com.au/stop/750362/gtfs/,,,
110,750363,Lydia St near Dennison St (Hail n Ride),,-16.824363,145.686456,3,http://translink.com.au/stop/750363/gtfs/,,,
458,750364,Kamerunga Rd at Caravonica School (Hail n Ride),,-16.852667,145.695460,3,http://translink.com.au/stop/750364/gtfs/,,,
454,750366,Lake Placid Rd at Brinsmead Kamerunga Rd,,-16.868577,145.686240,3,http://translink.com.au/stop/750366/gtfs/,,,
453,750367,Redlynch Intake Rd near Short St (Hail n Ride),,-16.889292,145.696439,4,,,,
155,750368,Redlynch Shopping Centre (Larsen St),,-16.894993,145.699505,4,http://translink.com.au/stop/750368/gtfs/,,,
428,750369,Michaelangelo Dr near Jungara Rd (Hail n Ride),,-16.906836,145.693053,4,http://translink.com.au/stop/750369/gtfs/,,,
154,750370,Redlynch Intake Rd near Tenni St (Hail n Ride),,-16.888628,145.696667,4,http://translink.com.au/stop/750370/gtfs/,,,
420,750371,Kamerunga Road at Savina Park,,-16.876682,145.722878,4,http://translink.com.au/stop/750371/gtfs/,,,
418,750372,Kamerunga Rd at Clacherty St (Stratford),,-16.875573,145.731118,4,http://translink.com.au/stop/750372/gtfs/,,,
417,750373,Stratford Pde near Tully St (Hail n Ride),,-16.875285,145.736661,4,http://translink.com.au/stop/750373/gtfs/,,,
153,750374,Loridan Dr near Adam Dr (Brinsmead) (Hail n Ride),,-16.893243,145.712974,4,http://translink.com.au/stop/750374/gtfs/,,,
152,750376,Loridan Dr near Banning Av (Hail n Ride),,-16.903729,145.710945,4,http://translink.com.au/stop/750376/gtfs/,,,
188,750377,Piccones Shopping Village (Jensen St),,-16.913825,145.739705,5,http://translink.com.au/stop/750377/gtfs/,,,
187,750378,Piccones Shopping Village (Jensen St),,-16.913769,145.739717,5,http://translink.com.au/stop/750378/gtfs/,,,
186,750379,Jensen Street at Oregon St,,-16.912848,145.734925,5,http://translink.com.au/stop/750379/gtfs/,,,
185,750380,Jensen St near Brooks St,,-16.910818,145.733628,5,http://translink.com.au/stop/750380/gtfs/,,,
184,750381,Jensen St near Redwood St (Hail n Ride),,-16.909320,145.733247,5,http://translink.com.au/stop/750381/gtfs/,,,
183,750382,Jensen St at Boden St,,-16.907375,145.733850,5,http://translink.com.au/stop/750382/gtfs/,,,
182,750383,Richardson St near Polentz St (Hail n Ride),,-16.905596,145.735722,5,http://translink.com.au/stop/750383/gtfs/,,,
180,750384,Greenslopes St near Crathern Cl (Hail n Ride),,-16.903319,145.742738,5,http://translink.com.au/stop/750384/gtfs/,,,
179,750385,Greenslopes Street near McCormack St,,-16.903552,145.746320,5,http://translink.com.au/stop/750385/gtfs/,,,
178,750386,Greenslopes St near MacNamara St (Hail n Ride),,-16.904153,145.751863,5,http://translink.com.au/stop/750386/gtfs/,,,
239,750388,Irene St near Beatrice St (Hail n Ride),,-16.935280,145.729409,6,http://translink.com.au/stop/750388/gtfs/,,,
352,750392,Hardy Rd at Tom Murray Park,,-17.000289,145.734479,8,http://translink.com.au/stop/750392/gtfs/,,,
354,750394,Robert Rd near Templar Cr (Hail n Ride),,-17.010029,145.726395,8,http://translink.com.au/stop/750394/gtfs/,,,
355,750395,Timberlea Drive at Dan Jones St,,-17.003443,145.720803,8,http://translink.com.au/stop/750395/gtfs/,,,
356,750396,Timberlea Dr near Shelbourne St (Hail n Ride),,-17.007728,145.718567,8,http://translink.com.au/stop/750396/gtfs/,,,
357,750397,Timberlea Rd near Walker Rd (Hail n Ride),,-17.012500,145.720480,8,http://translink.com.au/stop/750397/gtfs/,,,
359,750398,Walker Rd at Sugarworld,,-17.018709,145.728422,8,http://translink.com.au/stop/750398/gtfs/,,,
363,750399,Walker Rd at Sugarworld,,-17.018688,145.727787,8,http://translink.com.au/stop/750399/gtfs/,,,
361,750401,Wiseman Rd at Canecutter Road Park (Hail n Ride),,-17.025777,145.729863,8,http://translink.com.au/stop/750401/gtfs/,,,
297,750402,Farmer St near Maren St (Hail n Ride),,-17.033825,145.740096,8,http://translink.com.au/stop/750402/gtfs/,,,
293,750404,Service Rd near Bruce Hwy (Hail n Ride),,-17.025261,145.747066,8,http://translink.com.au/stop/750404/gtfs/,,,
308,750405,Ravizza Dr near MacKellar Cl (Hail n Ride),,-17.013956,145.739309,8,http://translink.com.au/stop/750405/gtfs/,,,
285,750406,Bicentennial Road at Resolution Dr,,-17.012014,145.735124,8,http://translink.com.au/stop/750406/gtfs/,,,
284,750407,Bicentennial Rd at Duyfken St,,-17.007035,145.735669,8,http://translink.com.au/stop/750407/gtfs/,,,
314,750408,Trafalgar Rd near Nimroud Cl (Hail n Ride),,-16.996996,145.739330,8,http://translink.com.au/stop/750408/gtfs/,,,
315,750409,Trafalgar Rd near Barnard Dr (Hail n Ride),,-16.995262,145.741702,8,http://translink.com.au/stop/750409/gtfs/,,,
274,750410,Des Chalmers Drive at Charlotte Cl,,-16.962048,145.746621,7,http://translink.com.au/stop/750410/gtfs/,,,
403,750412,Dempsey Street at Pyramid Estate (Gordonvale),,-17.087449,145.766710,10,http://translink.com.au/stop/750412/gtfs/,,,
402,750413,Fisher Rd near Creswell Cl (Hail n Ride),,-17.094775,145.771230,10,http://translink.com.au/stop/750413/gtfs/,,,
401,750414,Dempsey St near Hooper Cl (Hail n Ride),,-17.104039,145.771980,10,http://translink.com.au/stop/750414/gtfs/,,,
400,750415,Riverstone Rd near Jacod Cl (Hail n Ride),,-17.102058,145.776848,10,http://translink.com.au/stop/750415/gtfs/,,,
399,750416,Riverstone Rd near Griffin St (Hail n Ride),,-17.098765,145.780580,10,http://translink.com.au/stop/750416/gtfs/,,,
409,750417,Cairns Rd near Nelson St,,-17.087656,145.783713,10,http://translink.com.au/stop/750417/gtfs/,,,
394,750418,Bruce Hwy near Loftus St (Hail n Ride),,-17.080596,145.775430,9,http://translink.com.au/stop/750418/gtfs/,,,
338,750419,Anderson Rd near Loretta St (Coconut Vill) (HnR),,-16.967477,145.743657,7,http://translink.com.au/stop/750419/gtfs/,,,
336,750420,Windarra St near Tracey Cl (Hail n Ride),,-16.964060,145.739986,7,http://translink.com.au/stop/750420/gtfs/,,,
334,750421,Fairview Street at Forno Park,,-16.963404,145.730428,7,http://translink.com.au/stop/750421/gtfs/,,,
333,750422,Toogood St near Panorama St,,-16.959150,145.727981,7,http://translink.com.au/stop/750422/gtfs/,,,
347,750423,Toogood Rd near Lynette St (Hail n Ride),,-16.954202,145.742690,7,http://translink.com.au/stop/750423/gtfs/,,,
393,750424,White Rock State School (Hail n Ride),,-16.987155,145.743003,7,http://translink.com.au/stop/750424/gtfs/,,,
389,750425,Tiffany St at Alabama Street,,-16.987418,145.746885,7,http://translink.com.au/stop/750425/gtfs/,,,
381,750426,Frangipanni St at Short Street,,-16.983069,145.745456,7,http://translink.com.au/stop/750426/gtfs/,,,
388,750427,Frangipanni St at Khalu Park,,-16.983040,145.746579,7,http://translink.com.au/stop/750427/gtfs/,,,
387,750428,Progress Rd at Trinity Anglican Sch (Hail n Ride),,-16.979427,145.744030,7,http://translink.com.au/stop/750428/gtfs/,,,
459,750432,Dunne St at Sunbus Depot (Hail n Ride),,-16.824629,145.704222,3,http://translink.com.au/stop/750432/gtfs/,,,
358,750435,Walker Rd at Isabella State School,,-17.017515,145.725370,8,http://translink.com.au/stop/750435/gtfs/,,,
364,750436,Walker Rd at Isabella State School,,-17.017301,145.724295,8,http://translink.com.au/stop/750436/gtfs/,,,
220,750437,Collins Ave (Cairns Botanic Gardens),,-16.899481,145.748290,5,http://translink.com.au/stop/750437/gtfs/,,,
221,750440,Cairns Central Shopping Centre (Spence St),,-16.926721,145.773647,20,http://translink.com.au/stop/750440/gtfs/,,,
2,750441,"Cairns City Bus Station, platform 2",,-16.920613,145.774441,20,http://translink.com.au/stop/750441/gtfs/,,,2
105,750442,"Cairns City Bus Station, platform 1",,-16.920742,145.774720,20,http://translink.com.au/stop/750442/gtfs/,,,1
4,750443,Cairns Hospital (Lake Street),,-16.912551,145.767480,20/5,http://translink.com.au/stop/750443/gtfs/,,,
103,750444,Cairns Hospital (Lake Street),,-16.912587,145.767852,20/5,http://translink.com.au/stop/750444/gtfs/,,,
15,750445,James Cook University Bus Station,,-16.818238,145.690961,3,http://translink.com.au/stop/750445/gtfs/,,,
362,750448,Wiseman Rd at Canecutter Road Park,,-17.025638,145.729916,8,http://translink.com.au/stop/750448/gtfs/,,,
111,750455,Dunne St at Sunbus Depot (Hail n Ride),,-16.824736,145.704296,3,,,,
323,750459,Mulgrave Road near Dillon Street,,-16.937150,145.748885,6,http://translink.com.au/stop/750459/gtfs/,,,
218,750463,Woodward St at Skye Cl,,-16.900819,145.737870,5,http://translink.com.au/stop/750463/gtfs/,,,
216,750464,Woodward Street near Heavey Crescent,,-16.900275,145.731141,5,http://translink.com.au/stop/750464/gtfs/,,,
205,750465,Woodward Street near McManus Street,,-16.900272,145.729454,5,http://translink.com.au/stop/750465/gtfs/,,,
242,750467,Mestrez St at Long St,,-16.938719,145.736556,6,http://translink.com.au/stop/750467/gtfs/,,,
375,750468,Bruce Highway at Anderson Road,,-16.966839,145.746549,7,http://translink.com.au/stop/750468/gtfs/,,,
3,750477,Lake Street at Cairns Private Hospital,,-16.916618,145.771000,20,http://translink.com.au/stop/750477/gtfs/,,,
104,750478,Lake Street at Cairns Private Hospital,,-16.915801,145.770534,20,http://translink.com.au/stop/750478/gtfs/,,,
448,750479,Red Peak Blvd near Aroona St (Hail n Ride),,-16.861328,145.689567,3,http://translink.com.au/stop/750479/gtfs/,,,
457,750480,Aroona St near Illowra Ct (Hail n Ride),,-16.862236,145.689524,3,http://translink.com.au/stop/750480/gtfs/,,,
106,750481,Spence St at Grafton St,,-16.924912,145.775926,20,http://translink.com.au/stop/750481/gtfs/,,,
275,750482,Bruce Highway at Anderson Road,,-16.966697,145.746661,7,http://translink.com.au/stop/750482/gtfs/,,,
390,750483,Mercurio Street near Giffin Road,,-16.990964,145.746168,7,http://translink.com.au/stop/750483/gtfs/,,,
379,750484,Mercurio Street at Ferngully Street,,-16.990659,145.746130,7,http://translink.com.au/stop/750484/gtfs/,,,
386,750486,Kowinka St near Sheehy St (Hail n Ride),,-16.975954,145.747738,7,http://translink.com.au/stop/750486/gtfs/,,,
265,750487,Florence Street at Sheridan Street,,-16.920828,145.770453,20,http://translink.com.au/stop/750487/gtfs/,,,
328,750488,Florence Street at Sheridan Street,,-16.920675,145.770202,20,http://translink.com.au/stop/750488/gtfs/,,,
107,750489,Cairns Central Terminus,,-16.925276,145.771107,20,http://translink.com.au/stop/750489/gtfs/,,,
50,750491,Veivers Rd near Captain Cook Hwy (Hail n Ride),,-16.748174,145.663814,1,http://translink.com.au/stop/750491/gtfs/,,,
52,750492,Veivers Rd near Bursa St (Hail n Ride),,-16.749557,145.670262,1,http://translink.com.au/stop/750492/gtfs/,,,
74,750493,Poolwood Rd near Mahab St (Hail n Ride),,-16.784463,145.689486,2,http://translink.com.au/stop/750493/gtfs/,,,
76,750494,Poolwood Rd near Cottesloe St (Hail n Ride),,-16.790350,145.681945,2,http://translink.com.au/stop/750494/gtfs/,,,
34,750495,Poolwood Rd near Cottesloe St (Hail n Ride),,-16.790481,145.681618,2,http://translink.com.au/stop/750495/gtfs/,,,
21,750496,Roberts Dr near Seaways St (Hail n Ride),,-16.801234,145.697272,2,http://translink.com.au/stop/750496/gtfs/,,,
87,750497,Roberts Dr near Seaways St (Hail n Ride),,-16.800705,145.696803,2,http://translink.com.au/stop/750497/gtfs/,,,
90,750498,Reed Rd near Smithfield Village Dr (HnR),,-16.808685,145.697030,3,http://translink.com.au/stop/750498/gtfs/,,,
18,750499,Reed Rd near Smithfield Village Dr (Hail n Ride),,-16.808608,145.696822,3,http://translink.com.au/stop/750499/gtfs/,,,
22,750500,Roberts Dr near Moresby St (Hail n Ride),,-16.799462,145.694867,2,http://translink.com.au/stop/750500/gtfs/,,,
109,750501,Gavin St near Stanton Rd (Hail n Ride),,-16.831029,145.690170,3,http://translink.com.au/stop/750501/gtfs/,,,
125,750503,Wistaria St near Mahogany St (Hail n Ride),,-16.845868,145.735005,4,http://translink.com.au/stop/750503/gtfs/,,,
126,750504,Wistaria St near Baronia Cr (Hail n Ride),,-16.840209,145.735599,4,http://translink.com.au/stop/750504/gtfs/,,,
132,750505,Machans St near Beach Access Rd (Hail n Ride),,-16.855267,145.742351,4,http://translink.com.au/stop/750505/gtfs/,,,
134,750506,Marshall St near Machan St (Hail n Ride),,-16.851523,145.748955,4,http://translink.com.au/stop/750506/gtfs/,,,
135,750507,Tucker St near David St (Hail n Ride),,-16.852696,145.748103,4,http://translink.com.au/stop/750507/gtfs/,,,
95,750508,Captain Cook Hwy near Arnold St (Hail n Ride),,-16.873096,145.740752,4,http://translink.com.au/stop/750508/gtfs/,,,
13,750509,Captain Cook Hwy near Arnold St (Hail n Ride),,-16.872681,145.739895,4,http://translink.com.au/stop/750509/gtfs/,,,
449,750510,Impey Street at Baway Close,,-16.865429,145.682814,3,http://translink.com.au/stop/750510/gtfs/,,,
450,750511,Impey Street at Lake Placid Road,,-16.870895,145.681008,3,http://translink.com.au/stop/750511/gtfs/,,,
452,750512,Brinsmead Kamerunga Rd near Ernest St (HnR),,-16.887152,145.695778,4,http://translink.com.au/stop/750512/gtfs/,,,
416,750513,Aeroglen Road near Palmerston Street (HnR),,-16.882574,145.745467,4,http://translink.com.au/stop/750513/gtfs/,,,
419,750514,Kamerunga Road at Hardwick Street,,-16.875916,145.727358,4,http://translink.com.au/stop/750514/gtfs/,,,
456,750515,Impey Street at Baway Close,,-16.865383,145.682560,3,http://translink.com.au/stop/750515/gtfs/,,,
167,750518,Reservoir Road at Enmore Street,,-16.916692,145.734657,5,http://translink.com.au/stop/750518/gtfs/,,,
168,750519,Reservoir Road at Pease Street,,-16.917907,145.738789,5,http://translink.com.au/stop/750519/gtfs/,,,
209,750520,Enmore St near Reservoir Rd (Hail n Ride),,-16.917163,145.734174,5,http://translink.com.au/stop/750520/gtfs/,,,
211,750521,Olive St near Moody St (Hail n Ride),,-16.920848,145.739262,5,http://translink.com.au/stop/750521/gtfs/,,,
224,750522,Spence St near Buchan St (Hail n Ride),,-16.934170,145.763985,6,http://translink.com.au/stop/750522/gtfs/,,,
232,750523,Trinity Bay High near Hoare St (Hail n Ride),,-16.924112,145.752430,6,http://translink.com.au/stop/750523/gtfs/,,,
236,750524,Swallow St near Cochrane St (Hail n Ride),,-16.930839,145.737764,6,http://translink.com.au/stop/750524/gtfs/,,,
237,750525,Swallow St near McGregor Rd (Hail n Ride),,-16.927524,145.734566,6,http://translink.com.au/stop/750525/gtfs/,,,
240,750526,Lavender St near Holly St (Hail n Ride),,-16.937782,145.730494,6,http://translink.com.au/stop/750526/gtfs/,,,
247,750527,Mestrez St near Long St (Hail n Ride),,-16.938785,145.736445,6,http://translink.com.au/stop/750527/gtfs/,,,
248,750528,Grevillea St near Pepperina St (Hail n Ride),,-16.936394,145.734122,6,http://translink.com.au/stop/750528/gtfs/,,,
254,750529,Lennon St near Alfred St (Hail n Ride),,-16.930825,145.744463,6,http://translink.com.au/stop/750529/gtfs/,,,
259,750530,Mann St near Vivian St (Hail n Ride),,-16.930143,145.753263,6,http://translink.com.au/stop/750530/gtfs/,,,
330,750531,Toogood Rd near Windarra St (Hail n Ride),,-16.956436,145.741108,7,http://translink.com.au/stop/750531/gtfs/,,,
272,750532,Bruce Hwy near Toogood Rd (Hail n Ride),,-16.949824,145.742327,6/7,http://translink.com.au/stop/750532/gtfs/,,,
276,750534,George Cannon Dr near Booyong Dr (Hail n Ride),,-16.984319,145.740155,7,http://translink.com.au/stop/750534/gtfs/,,,
282,750535,Golden Grove Road near Robert Road (HnR),,-17.003950,145.740566,8,http://translink.com.au/stop/750535/gtfs/,,,
294,750536,Petersen Rd near Farmer St (Hail n Ride),,-17.029899,145.748275,8,http://translink.com.au/stop/750536/gtfs/,,,
295,750537,Farmer St near Gattenby St (Hail n Ride),,-17.029087,145.747089,8,http://translink.com.au/stop/750537/gtfs/,,,
296,750538,Farmer St near Shaft St (Hail n Ride),,-17.027557,145.744922,8,http://translink.com.au/stop/750538/gtfs/,,,
353,750539,Robert Rd near Herald St (Hail n Ride),,-17.006567,145.730265,8,http://translink.com.au/stop/750539/gtfs/,,,
348,750540,George Cannon Drive near Benjamin Street,,-16.978230,145.741304,7,http://translink.com.au/stop/750540/gtfs/,,,
123,750541,Varley St at Nancy St,,-16.817400,145.720224,3,http://translink.com.au/stop/750541/gtfs/,,,
113,750542,Varley St near Grason St (Hail n Ride),,-16.813990,145.720530,3,http://translink.com.au/stop/750542/gtfs/,,,
264,750631,Draper St at Hartley St,,-16.931060,145.772343,20,,,,
41,750638,Captain Cook Highway at Clifton Road,,-16.772802,145.674215,1,http://translink.com.au/stop/750638/gtfs/,,,
69,750639,Captain Cook Highway at Clifton Road,,-16.772572,145.674238,1,http://translink.com.au/stop/750639/gtfs/,,,
149,750640,Reservoir Road at Pease Street,,-16.918218,145.738909,5,http://translink.com.au/stop/750640/gtfs/,,,
337,750645,Windarra St at Jean Cl,,-16.966440,145.741280,7,http://translink.com.au/stop/750645/gtfs/,,,
340,750646,Windarra St at Jean Cl,,-16.966199,145.741038,7,http://translink.com.au/stop/750646/gtfs/,,,
263,750649,Buchan St near Kenny St (Hail n Ride),,-16.936873,145.767595,6,,,,
222,750651,Draper St at Hartley St,,-16.931084,145.772545,6,,,,
223,750652,Kenny St near Draper St (Hail n Ride),,-16.933380,145.773082,6,,,,
391,750653,Johnson Rd at Fretwell Rd (Hail n Ride),,-16.994207,145.746554,8,http://translink.com.au/stop/750653/gtfs/,,,
392,750654,Fretwell Rd at Progress Road,,-16.994597,145.743918,8,http://translink.com.au/stop/750654/gtfs/,,,
377,750655,Fretwell Rd at Progress Rd,,-16.994379,145.744091,8,http://translink.com.au/stop/750655/gtfs/,,,
378,750656,Johnson Rd at Fretwell Rd (Hail n Ride),,-16.993900,145.746465,8,http://translink.com.au/stop/750656/gtfs/,,,
169,750657,Raintrees Shopping Centre Stop A,,-16.925761,145.739957,6,http://translink.com.au/stop/750657/gtfs/,,,
147,750658,Raintrees Shopping Centre Stop B,,-16.925397,145.740451,6,http://translink.com.au/stop/750658/gtfs/,,,
