trip_id,arrival_time,departure_time,stop_id,stop_sequence,pickup_type,drop_off_type
0,09:00:00,09:00:00,0,1,0,0
0,09:01:00,09:01:00,1,2,0,0
0,09:10:00,09:10:00,2,3,0,0
0,09:13:00,09:13:00,3,4,0,0
0,09:14:00,09:14:00,4,5,0,0
0,09:15:00,09:15:00,5,6,0,0
0,09:16:00,09:16:00,6,7,0,0
0,09:17:00,09:17:00,7,8,0,0
0,09:18:00,09:18:00,8,9,0,0
0,09:18:00,09:18:00,9,10,0,0
0,09:20:00,09:20:00,10,11,0,0
0,09:21:00,09:21:00,11,12,0,0
0,09:22:00,09:22:00,12,13,0,0
0,09:23:00,09:23:00,13,14,0,0
0,09:23:00,09:23:00,14,15,0,0
0,09:24:00,09:24:00,15,16,0,0
0,09:25:00,09:25:00,16,17,0,0
0,09:28:00,09:28:00,17,18,0,0
0,09:32:00,09:32:00,18,19,0,0
0,09:34:00,09:34:00,19,20,0,0
0,09:34:00,09:34:00,20,21,0,0
0,09:35:00,09:35:00,21,22,0,0
0,09:37:00,09:37:00,22,23,0,0
0,09:39:00,09:39:00,23,24,0,0
0,09:42:00,09:42:00,24,25,0,0
0,09:44:00,09:44:00,25,26,0,0
0,09:45:00,09:45:00,26,27,0,0
0,09:52:00,09:52:00,27,28,0,0
0,09:57:00,09:57:00,28,29,0,0
0,10:04:00,10:04:00,29,30,0,0
0,10:05:00,10:05:00,30,31,0,0
0,10:08:00,10:08:00,31,32,0,0
0,10:09:00,10:09:00,32,33,0,0
0,10:10:00,10:10:00,33,34,0,0
0,10:12:00,10:12:00,34,35,0,0
0,10:16:00,10:16:00,35,36,0,0
0,10:19:00,10:19:00,36,37,0,0
0,10:20:00,10:20:00,37,38,0,0
0,10:20:00,10:20:00,38,39,0,0
0,10:21:00,10:21:00,39,40,0,0
0,10:22:00,10:22:00,40,41,0,0
0,10:23:00,10:23:00,41,42,0,0
0,10:24:00,10:24:00,42,43,0,0
0,10:24:00,10:24:00,10,44,0,0
0,10:26:00,10:26:00,43,45,0,0
0,10:27:00,10:27:00,44,46,0,0
0,10:28:00,10:28:00,45,47,0,0
0,10:29:00,10:29:00,46,48,0,0
0,10:29:00,10:29:00,47,49,0,0
0,10:34:00,10:34:00,48,50,0,0
0,10:44:00,10:44:00,0,51,0,0
1,14:15:00,14:15:00,0,1,0,0
1,14:16:00,14:16:00,1,2,0,0
1,14:25:00,14:25:00,2,3,0,0
1,14:28:00,14:28:00,3,4,0,0
1,14:29:00,14:29:00,4,5,0,0
1,14:30:00,14:30:00,5,6,0,0
1,14:31:00,14:31:00,6,7,0,0
1,14:32:00,14:32:00,7,8,0,0
1,14:33:00,14:33:00,8,9,0,0
1,14:33:00,14:33:00,9,10,0,0
1,14:35:00,14:35:00,10,11,0,0
1,14:36:00,14:36:00,11,12,0,0
1,14:37:00,14:37:00,12,13,0,0
1,14:38:00,14:38:00,13,14,0,0
1,14:38:00,14:38:00,14,15,0,0
1,14:39:00,14:39:00,15,16,0,0
1,14:40:00,14:40:00,16,17,0,0
1,14:43:00,14:43:00,17,18,0,0
1,14:47:00,14:47:00,18,19,0,0
1,14:49:00,14:49:00,19,20,0,0
1,14:49:00,14:49:00,20,21,0,0
1,14:50:00,14:50:00,21,22,0,0
1,14:52:00,14:52:00,22,23,0,0
1,14:54:00,14:54:00,23,24,0,0
1,14:57:00,14:57:00,24,25,0,0
1,14:59:00,14:59:00,25,26,0,0
1,15:00:00,15:00:00,26,27,0,0
1,15:07:00,15:07:00,27,28,0,0
1,15:12:00,15:12:00,28,29,0,0
1,15:19:00,15:19:00,29,30,0,0
1,15:20:00,15:20:00,30,31,0,0
1,15:23:00,15:23:00,31,32,0,0
1,15:24:00,15:24:00,32,33,0,0
1,15:25:00,15:25:00,33,34,0,0
1,15:27:00,15:27:00,34,35,0,0
1,15:31:00,15:31:00,35,36,0,0
1,15:34:00,15:34:00,36,37,0,0
1,15:35:00,15:35:00,37,38,0,0
1,15:35:00,15:35:00,38,39,0,0
1,15:36:00,15:36:00,39,40,0,0
1,15:37:00,15:37:00,40,41,0,0
1,15:38:00,15:38:00,41,42,0,0
1,15:39:00,15:39:00,42,43,0,0
1,15:39:00,15:39:00,10,44,0,0
1,15:41:00,15:41:00,43,45,0,0
1,15:42:00,15:42:00,44,46,0,0
1,15:43:00,15:43:00,45,47,0,0
1,15:44:00,15:44:00,46,48,0,0
1,15:44:00,15:44:00,47,49,0,0
1,15:49:00,15:49:00,48,50,0,0
1,15:59:00,15:59:00,0,51,0,0
2,07:15:00,07:15:00,0,1,0,0
2,07:16:00,07:16:00,1,2,0,0
2,07:25:00,07:25:00,2,3,0,0
2,07:28:00,07:28:00,3,4,0,0
2,07:29:00,07:29:00,4,5,0,0
2,07:30:00,07:30:00,5,6,0,0
2,07:31:00,07:31:00,6,7,0,0
2,07:32:00,07:32:00,7,8,0,0
2,07:33:00,07:33:00,8,9,0,0
2,07:33:00,07:33:00,9,10,0,0
2,07:45:00,07:45:00,10,11,0,0
2,07:46:00,07:46:00,11,12,0,0
2,07:47:00,07:47:00,12,13,0,0
2,07:49:00,07:49:00,13,14,0,0
2,07:49:00,07:49:00,14,15,0,0
2,07:50:00,07:50:00,15,16,0,0
2,07:51:00,07:51:00,16,17,0,0
2,07:54:00,07:54:00,17,18,0,0
2,07:58:00,07:58:00,18,19,0,0
2,08:00:00,08:00:00,19,20,0,0
2,08:00:00,08:00:00,20,21,0,0
2,08:01:00,08:01:00,21,22,0,0
2,08:03:00,08:03:00,22,23,0,0
2,08:04:00,08:04:00,23,24,0,0
2,08:07:00,08:07:00,24,25,0,0
2,08:09:00,08:09:00,25,26,0,0
2,08:10:00,08:10:00,26,27,0,0
2,08:15:00,08:15:00,49,28,0,0
2,08:20:00,08:20:00,50,29,0,0
2,08:25:00,08:25:00,51,30,0,0
2,08:27:00,08:27:00,28,31,0,0
2,08:34:00,08:34:00,29,32,0,0
2,08:35:00,08:35:00,30,33,0,0
2,08:38:00,08:38:00,31,34,0,0
2,08:39:00,08:39:00,32,35,0,0
2,08:40:00,08:40:00,33,36,0,0
2,08:42:00,08:42:00,34,37,0,0
2,08:46:00,08:46:00,35,38,0,0
2,08:49:00,08:49:00,36,39,0,0
2,08:50:00,08:50:00,37,40,0,0
2,08:50:00,08:50:00,38,41,0,0
2,08:51:00,08:51:00,39,42,0,0
2,08:52:00,08:52:00,40,43,0,0
2,08:53:00,08:53:00,41,44,0,0
2,08:54:00,08:54:00,42,45,0,0
2,08:54:00,08:54:00,10,46,0,0
2,08:56:00,08:56:00,43,47,0,0
2,08:57:00,08:57:00,44,48,0,0
2,08:58:00,08:58:00,45,49,0,0
2,08:59:00,08:59:00,46,50,0,0
2,08:59:00,08:59:00,47,51,0,0
2,09:01:00,09:01:00,52,52,0,0
2,09:04:00,09:04:00,48,53,0,0
2,09:14:00,09:14:00,0,54,0,0
3,08:20:00,08:20:00,10,1,0,0
3,08:21:00,08:21:00,11,2,0,0
3,08:22:00,08:22:00,12,3,0,0
3,08:23:00,08:23:00,13,4,0,0
3,08:23:00,08:23:00,14,5,0,0
3,08:24:00,08:24:00,15,6,0,0
3,08:25:00,08:25:00,16,7,0,0
3,08:28:00,08:28:00,17,8,0,0
3,08:32:00,08:32:00,18,9,0,0
3,08:34:00,08:34:00,19,10,0,0
3,08:35:00,08:35:00,20,11,0,0
3,08:36:00,08:36:00,21,12,0,0
3,08:38:00,08:38:00,22,13,0,0
3,08:40:00,08:40:00,23,14,0,0
3,08:44:00,08:44:00,24,15,0,0
3,08:47:00,08:47:00,25,16,0,0
3,08:49:00,08:49:00,51,17,0,0
3,08:53:00,08:53:00,26,18,0,0
3,08:54:00,08:54:00,28,19,0,0
3,09:00:00,09:00:00,29,20,0,0
3,09:01:00,09:01:00,30,21,0,0
3,09:03:00,09:03:00,31,22,0,0
3,09:04:00,09:04:00,32,23,0,0
3,09:05:00,09:05:00,33,24,0,0
3,09:07:00,09:07:00,34,25,0,0
3,09:11:00,09:11:00,35,26,0,0
3,09:15:00,09:15:00,36,27,0,0
3,09:16:00,09:16:00,37,28,0,0
3,09:16:00,09:16:00,38,29,0,0
3,09:17:00,09:17:00,39,30,0,0
3,09:18:00,09:18:00,40,31,0,0
3,09:19:00,09:19:00,41,32,0,0
3,09:20:00,09:20:00,42,33,0,0
3,09:20:00,09:20:00,10,34,0,0
4,14:30:00,14:30:00,10,1,0,0
4,14:31:00,14:31:00,11,2,0,0
4,14:32:00,14:32:00,12,3,0,0
4,14:33:00,14:33:00,13,4,0,0
4,14:33:00,14:33:00,14,5,0,0
4,14:34:00,14:34:00,15,6,0,0
4,14:35:00,14:35:00,16,7,0,0
4,14:38:00,14:38:00,17,8,0,0
4,14:42:00,14:42:00,18,9,0,0
4,14:44:00,14:44:00,19,10,0,0
4,14:44:00,14:44:00,20,11,0,0
4,14:45:00,14:45:00,21,12,0,0
4,14:47:00,14:47:00,22,13,0,0
4,14:49:00,14:49:00,23,14,0,0
4,14:52:00,14:52:00,24,15,0,0
4,14:54:00,14:54:00,25,16,0,0
4,14:55:00,14:55:00,26,17,0,0
4,15:05:00,15:05:00,51,18,0,0
4,15:07:00,15:07:00,28,19,0,0
4,15:16:00,15:16:00,29,20,0,0
4,15:17:00,15:17:00,30,21,0,0
4,15:20:00,15:20:00,31,22,0,0
4,15:21:00,15:21:00,32,23,0,0
4,15:23:00,15:23:00,33,24,0,0
4,15:25:00,15:25:00,34,25,0,0
4,15:29:00,15:29:00,35,26,0,0
4,15:32:00,15:32:00,36,27,0,0
4,15:33:00,15:33:00,37,28,0,0
4,15:33:00,15:33:00,38,29,0,0
4,15:34:00,15:34:00,39,30,0,0
4,15:35:00,15:35:00,40,31,0,0
4,15:36:00,15:36:00,41,32,0,0
4,15:37:00,15:37:00,42,33,0,0
4,15:37:00,15:37:00,10,34,0,0
5,15:10:00,15:10:00,49,1,0,0
5,15:15:00,15:15:00,53,2,0,0
5,15:25:00,15:25:00,54,3,0,0
5,15:29:00,15:29:00,29,4,0,0
5,15:30:00,15:30:00,30,5,0,0
5,15:32:00,15:32:00,31,6,0,0
5,15:33:00,15:33:00,32,7,0,0
5,15:34:00,15:34:00,33,8,0,0
5,15:35:00,15:35:00,34,9,0,0
5,15:39:00,15:39:00,35,10,0,0
5,15:42:00,15:42:00,36,11,0,0
5,15:43:00,15:43:00,37,12,0,0
5,15:44:00,15:44:00,38,13,0,0
5,15:45:00,15:45:00,39,14,0,0
5,15:47:00,15:47:00,40,15,0,0
5,15:48:00,15:48:00,41,16,0,0
5,15:49:00,15:49:00,42,17,0,0
5,15:50:00,15:50:00,10,18,0,0
6,07:36:00,07:36:00,10,1,0,0
6,07:37:00,07:37:00,11,2,0,0
6,07:39:00,07:39:00,12,3,0,0
6,07:40:00,07:40:00,13,4,0,0
6,07:41:00,07:41:00,14,5,0,0
6,07:42:00,07:42:00,15,6,0,0
6,07:43:00,07:43:00,16,7,0,0
6,07:46:00,07:46:00,17,8,0,0
6,07:50:00,07:50:00,18,9,0,0
6,07:52:00,07:52:00,19,10,0,0
6,07:52:00,07:52:00,20,11,0,0
6,07:53:00,07:53:00,21,12,0,0
6,07:55:00,07:55:00,22,13,0,0
6,07:57:00,07:57:00,23,14,0,0
6,07:59:00,07:59:00,24,15,0,0
6,08:01:00,08:01:00,54,16,0,0
6,08:05:00,08:05:00,55,17,0,0
6,08:09:00,08:09:00,53,18,0,0
7,14:15:00,14:15:00,0,1,0,0
7,14:16:00,14:16:00,1,2,0,0
7,14:25:00,14:25:00,2,3,0,0
7,14:28:00,14:28:00,4,4,0,0
7,14:29:00,14:29:00,5,5,0,0
7,14:30:00,14:30:00,6,6,0,0
7,14:31:00,14:31:00,7,7,0,0
7,14:32:00,14:32:00,8,8,0,0
7,14:32:00,14:32:00,9,9,0,0
7,14:35:00,14:35:00,10,10,0,0
7,14:36:00,14:36:00,11,11,0,0
7,14:37:00,14:37:00,12,12,0,0
7,14:38:00,14:38:00,13,13,0,0
7,14:38:00,14:38:00,14,14,0,0
7,14:39:00,14:39:00,15,15,0,0
7,14:40:00,14:40:00,16,16,0,0
7,14:43:00,14:43:00,17,17,0,0
7,14:47:00,14:47:00,18,18,0,0
7,14:49:00,14:49:00,19,19,0,0
7,14:50:00,14:50:00,20,20,0,0
7,14:51:00,14:51:00,21,21,0,0
7,14:54:00,14:54:00,22,22,0,0
7,14:56:00,14:56:00,23,23,0,0
7,14:59:00,14:59:00,24,24,0,0
7,15:03:00,15:03:00,25,25,0,0
7,15:05:00,15:05:00,50,26,0,0
7,15:07:00,15:07:00,51,27,0,0
7,15:10:00,15:10:00,26,28,0,0
7,15:12:00,15:12:00,28,29,0,0
7,15:30:00,15:30:00,54,30,0,0
7,15:34:00,15:34:00,29,31,0,0
7,15:35:00,15:35:00,30,32,0,0
7,15:37:00,15:37:00,31,33,0,0
7,15:38:00,15:38:00,32,34,0,0
7,15:39:00,15:39:00,33,35,0,0
7,15:40:00,15:40:00,34,36,0,0
7,15:44:00,15:44:00,35,37,0,0
7,15:47:00,15:47:00,36,38,0,0
7,15:48:00,15:48:00,37,39,0,0
7,15:48:00,15:48:00,38,40,0,0
7,15:49:00,15:49:00,39,41,0,0
7,15:50:00,15:50:00,40,42,0,0
7,15:51:00,15:51:00,41,43,0,0
7,15:52:00,15:52:00,42,44,0,0
7,15:52:00,15:52:00,10,45,0,0
7,15:54:00,15:54:00,43,46,0,0
7,15:55:00,15:55:00,44,47,0,0
7,15:57:00,15:57:00,45,48,0,0
7,15:58:00,15:58:00,46,49,0,0
7,15:59:00,15:59:00,47,50,0,0
7,16:01:00,16:01:00,52,51,0,0
7,16:05:00,16:05:00,48,52,0,0
7,16:15:00,16:15:00,0,53,0,0
8,08:00:00,08:00:00,0,1,0,0
8,08:01:00,08:01:00,1,2,0,0
8,08:10:00,08:10:00,2,3,0,0
8,08:13:00,08:13:00,3,4,0,0
8,08:14:00,08:14:00,4,5,0,0
8,08:15:00,08:15:00,5,6,0,0
8,08:16:00,08:16:00,6,7,0,0
8,08:17:00,08:17:00,7,8,0,0
8,08:18:00,08:18:00,8,9,0,0
8,08:18:00,08:18:00,9,10,0,0
8,08:20:00,08:20:00,10,11,0,0
8,08:21:00,08:21:00,11,12,0,0
8,08:22:00,08:22:00,12,13,0,0
8,08:23:00,08:23:00,13,14,0,0
8,08:23:00,08:23:00,14,15,0,0
8,08:24:00,08:24:00,15,16,0,0
8,08:25:00,08:25:00,16,17,0,0
8,08:28:00,08:28:00,17,18,0,0
8,08:32:00,08:32:00,18,19,0,0
8,08:34:00,08:34:00,19,20,0,0
8,08:34:00,08:34:00,20,21,0,0
8,08:35:00,08:35:00,21,22,0,0
8,08:37:00,08:37:00,22,23,0,0
8,08:39:00,08:39:00,23,24,0,0
8,08:42:00,08:42:00,24,25,0,0
8,08:44:00,08:44:00,25,26,0,0
8,08:45:00,08:45:00,26,27,0,0
8,08:52:00,08:52:00,56,28,0,0
8,08:57:00,08:57:00,28,29,0,0
8,09:04:00,09:04:00,29,30,0,0
8,09:05:00,09:05:00,30,31,0,0
8,09:08:00,09:08:00,31,32,0,0
8,09:09:00,09:09:00,32,33,0,0
8,09:10:00,09:10:00,33,34,0,0
8,09:12:00,09:12:00,34,35,0,0
8,09:16:00,09:16:00,35,36,0,0
8,09:19:00,09:19:00,36,37,0,0
8,09:20:00,09:20:00,37,38,0,0
8,09:20:00,09:20:00,38,39,0,0
8,09:21:00,09:21:00,39,40,0,0
8,09:22:00,09:22:00,40,41,0,0
8,09:23:00,09:23:00,41,42,0,0
8,09:24:00,09:24:00,42,43,0,0
8,09:24:00,09:24:00,10,44,0,0
8,09:26:00,09:26:00,43,45,0,0
8,09:27:00,09:27:00,44,46,0,0
8,09:28:00,09:28:00,45,47,0,0
8,09:29:00,09:29:00,46,48,0,0
8,09:29:00,09:29:00,47,49,0,0
8,09:34:00,09:34:00,48,50,0,0
8,09:44:00,09:44:00,0,51,0,0
9,14:00:00,14:00:00,0,1,0,0
9,14:01:00,14:01:00,1,2,0,0
9,14:10:00,14:10:00,2,3,0,0
9,14:13:00,14:13:00,3,4,0,0
9,14:14:00,14:14:00,4,5,0,0
9,14:15:00,14:15:00,5,6,0,0
9,14:16:00,14:16:00,6,7,0,0
9,14:17:00,14:17:00,7,8,0,0
9,14:18:00,14:18:00,8,9,0,0
9,14:18:00,14:18:00,9,10,0,0
9,14:20:00,14:20:00,10,11,0,0
9,14:21:00,14:21:00,11,12,0,0
9,14:22:00,14:22:00,12,13,0,0
9,14:23:00,14:23:00,13,14,0,0
9,14:23:00,14:23:00,14,15,0,0
9,14:24:00,14:24:00,15,16,0,0
9,14:25:00,14:25:00,16,17,0,0
9,14:28:00,14:28:00,17,18,0,0
9,14:32:00,14:32:00,18,19,0,0
9,14:34:00,14:34:00,19,20,0,0
9,14:34:00,14:34:00,20,21,0,0
9,14:35:00,14:35:00,21,22,0,0
9,14:37:00,14:37:00,22,23,0,0
9,14:39:00,14:39:00,23,24,0,0
9,14:42:00,14:42:00,24,25,0,0
9,14:44:00,14:44:00,25,26,0,0
9,14:45:00,14:45:00,26,27,0,0
9,14:52:00,14:52:00,56,28,0,0
9,14:57:00,14:57:00,28,29,0,0
9,15:04:00,15:04:00,29,30,0,0
9,15:05:00,15:05:00,30,31,0,0
9,15:08:00,15:08:00,31,32,0,0
9,15:09:00,15:09:00,32,33,0,0
9,15:10:00,15:10:00,33,34,0,0
9,15:12:00,15:12:00,34,35,0,0
9,15:16:00,15:16:00,35,36,0,0
9,15:19:00,15:19:00,36,37,0,0
9,15:20:00,15:20:00,37,38,0,0
9,15:20:00,15:20:00,38,39,0,0
9,15:21:00,15:21:00,39,40,0,0
9,15:22:00,15:22:00,40,41,0,0
9,15:23:00,15:23:00,41,42,0,0
9,15:24:00,15:24:00,42,43,0,0
9,15:24:00,15:24:00,10,44,0,0
9,15:26:00,15:26:00,43,45,0,0
9,15:27:00,15:27:00,44,46,0,0
9,15:28:00,15:28:00,45,47,0,0
9,15:29:00,15:29:00,46,48,0,0
9,15:29:00,15:29:00,47,49,0,0
9,15:34:00,15:34:00,48,50,0,0
9,15:44:00,15:44:00,0,51,0,0
10,09:00:00,09:00:00,0,1,0,0
10,09:01:00,09:01:00,1,2,0,0
10,09:10:00,09:10:00,2,3,0,0
10,09:13:00,09:13:00,3,4,0,0
10,09:14:00,09:14:00,4,5,0,0
10,09:15:00,09:15:00,5,6,0,0
10,09:16:00,09:16:00,6,7,0,0
10,09:17:00,09:17:00,7,8,0,0
10,09:18:00,09:18:00,8,9,0,0
10,09:18:00,09:18:00,9,10,0,0
10,09:20:00,09:20:00,10,11,0,0
10,09:21:00,09:21:00,11,12,0,0
10,09:22:00,09:22:00,12,13,0,0
10,09:23:00,09:23:00,13,14,0,0
10,09:23:00,09:23:00,14,15,0,0
10,09:24:00,09:24:00,15,16,0,0
10,09:25:00,09:25:00,16,17,0,0
10,09:28:00,09:28:00,17,18,0,0
10,09:32:00,09:32:00,18,19,0,0
10,09:34:00,09:34:00,19,20,0,0
10,09:34:00,09:34:00,20,21,0,0
10,09:35:00,09:35:00,21,22,0,0
10,09:37:00,09:37:00,22,23,0,0
10,09:39:00,09:39:00,23,24,0,0
10,09:42:00,09:42:00,24,25,0,0
10,09:44:00,09:44:00,25,26,0,0
10,09:45:00,09:45:00,26,27,0,0
10,09:52:00,09:52:00,56,28,0,0
10,09:57:00,09:57:00,28,29,0,0
10,10:04:00,10:04:00,29,30,0,0
10,10:05:00,10:05:00,30,31,0,0
10,10:08:00,10:08:00,31,32,0,0
10,10:09:00,10:09:00,32,33,0,0
10,10:10:00,10:10:00,33,34,0,0
10,10:12:00,10:12:00,34,35,0,0
10,10:16:00,10:16:00,35,36,0,0
10,10:19:00,10:19:00,36,37,0,0
10,10:20:00,10:20:00,37,38,0,0
10,10:20:00,10:20:00,38,39,0,0
10,10:21:00,10:21:00,39,40,0,0
10,10:22:00,10:22:00,40,41,0,0
10,10:23:00,10:23:00,41,42,0,0
10,10:24:00,10:24:00,42,43,0,0
10,10:24:00,10:24:00,10,44,0,0
10,10:26:00,10:26:00,43,45,0,0
10,10:27:00,10:27:00,44,46,0,0
10,10:28:00,10:28:00,45,47,0,0
10,10:29:00,10:29:00,46,48,0,0
10,10:29:00,10:29:00,47,49,0,0
10,10:34:00,10:34:00,48,50,0,0
10,10:44:00,10:44:00,0,51,0,0
11,14:15:00,14:15:00,0,1,0,0
11,14:16:00,14:16:00,1,2,0,0
11,14:25:00,14:25:00,2,3,0,0
11,14:28:00,14:28:00,3,4,0,0
11,14:29:00,14:29:00,4,5,0,0
11,14:30:00,14:30:00,5,6,0,0
11,14:31:00,14:31:00,6,7,0,0
11,14:32:00,14:32:00,7,8,0,0
11,14:33:00,14:33:00,8,9,0,0
11,14:33:00,14:33:00,9,10,0,0
11,14:35:00,14:35:00,10,11,0,0
11,14:36:00,14:36:00,11,12,0,0
11,14:37:00,14:37:00,12,13,0,0
11,14:38:00,14:38:00,13,14,0,0
11,14:38:00,14:38:00,14,15,0,0
11,14:39:00,14:39:00,15,16,0,0
11,14:40:00,14:40:00,16,17,0,0
11,14:43:00,14:43:00,17,18,0,0
11,14:47:00,14:47:00,18,19,0,0
11,14:49:00,14:49:00,19,20,0,0
11,14:49:00,14:49:00,20,21,0,0
11,14:50:00,14:50:00,21,22,0,0
11,14:52:00,14:52:00,22,23,0,0
11,14:54:00,14:54:00,23,24,0,0
11,14:57:00,14:57:00,24,25,0,0
11,14:59:00,14:59:00,25,26,0,0
11,15:00:00,15:00:00,26,27,0,0
11,15:07:00,15:07:00,56,28,0,0
11,15:12:00,15:12:00,28,29,0,0
11,15:19:00,15:19:00,29,30,0,0
11,15:20:00,15:20:00,30,31,0,0
11,15:23:00,15:23:00,31,32,0,0
11,15:24:00,15:24:00,32,33,0,0
11,15:25:00,15:25:00,33,34,0,0
11,15:27:00,15:27:00,34,35,0,0
11,15:31:00,15:31:00,35,36,0,0
11,15:34:00,15:34:00,36,37,0,0
11,15:35:00,15:35:00,37,38,0,0
11,15:35:00,15:35:00,38,39,0,0
11,15:36:00,15:36:00,39,40,0,0
11,15:37:00,15:37:00,40,41,0,0
11,15:38:00,15:38:00,41,42,0,0
11,15:39:00,15:39:00,42,43,0,0
11,15:39:00,15:39:00,10,44,0,0
11,15:41:00,15:41:00,43,45,0,0
11,15:42:00,15:42:00,44,46,0,0
11,15:43:00,15:43:00,45,47,0,0
11,15:44:00,15:44:00,46,48,0,0
11,15:44:00,15:44:00,47,49,0,0
11,15:49:00,15:49:00,48,50,0,0
11,15:59:00,15:59:00,0,51,0,0
12,07:15:00,07:15:00,0,1,0,0
12,07:16:00,07:16:00,1,2,0,0
12,07:25:00,07:25:00,2,3,0,0
12,07:28:00,07:28:00,3,4,0,0
12,07:29:00,07:29:00,4,5,0,0
12,07:30:00,07:30:00,5,6,0,0
12,07:31:00,07:31:00,6,7,0,0
12,07:32:00,07:32:00,7,8,0,0
12,07:33:00,07:33:00,8,9,0,0
12,07:33:00,07:33:00,9,10,0,0
12,07:45:00,07:45:00,10,11,0,0
12,07:46:00,07:46:00,11,12,0,0
12,07:47:00,07:47:00,12,13,0,0
12,07:49:00,07:49:00,13,14,0,0
12,07:49:00,07:49:00,14,15,0,0
12,07:50:00,07:50:00,15,16,0,0
12,07:51:00,07:51:00,16,17,0,0
12,07:54:00,07:54:00,17,18,0,0
12,07:58:00,07:58:00,18,19,0,0
12,08:00:00,08:00:00,19,20,0,0
12,08:00:00,08:00:00,20,21,0,0
12,08:01:00,08:01:00,21,22,0,0
12,08:03:00,08:03:00,22,23,0,0
12,08:04:00,08:04:00,23,24,0,0
12,08:07:00,08:07:00,24,25,0,0
12,08:09:00,08:09:00,25,26,0,0
12,08:10:00,08:10:00,26,27,0,0
12,08:15:00,08:15:00,49,28,0,0
12,08:20:00,08:20:00,50,29,0,0
12,08:25:00,08:25:00,51,30,0,0
12,08:27:00,08:27:00,28,31,0,0
12,08:34:00,08:34:00,29,32,0,0
12,08:35:00,08:35:00,30,33,0,0
12,08:38:00,08:38:00,31,34,0,0
12,08:39:00,08:39:00,32,35,0,0
12,08:40:00,08:40:00,33,36,0,0
12,08:42:00,08:42:00,34,37,0,0
12,08:46:00,08:46:00,35,38,0,0
12,08:49:00,08:49:00,36,39,0,0
12,08:50:00,08:50:00,37,40,0,0
12,08:50:00,08:50:00,38,41,0,0
12,08:51:00,08:51:00,39,42,0,0
12,08:52:00,08:52:00,40,43,0,0
12,08:53:00,08:53:00,41,44,0,0
12,08:54:00,08:54:00,42,45,0,0
12,08:54:00,08:54:00,10,46,0,0
12,08:56:00,08:56:00,43,47,0,0
12,08:57:00,08:57:00,44,48,0,0
12,08:58:00,08:58:00,45,49,0,0
12,08:59:00,08:59:00,46,50,0,0
12,08:59:00,08:59:00,47,51,0,0
12,09:01:00,09:01:00,52,52,0,0
12,09:04:00,09:04:00,48,53,0,0
12,09:14:00,09:14:00,0,54,0,0
13,08:20:00,08:20:00,10,1,0,0
13,08:21:00,08:21:00,11,2,0,0
13,08:22:00,08:22:00,12,3,0,0
13,08:23:00,08:23:00,13,4,0,0
13,08:23:00,08:23:00,14,5,0,0
13,08:24:00,08:24:00,15,6,0,0
13,08:25:00,08:25:00,16,7,0,0
13,08:28:00,08:28:00,17,8,0,0
13,08:32:00,08:32:00,18,9,0,0
13,08:34:00,08:34:00,19,10,0,0
13,08:35:00,08:35:00,20,11,0,0
13,08:36:00,08:36:00,21,12,0,0
13,08:38:00,08:38:00,22,13,0,0
13,08:40:00,08:40:00,23,14,0,0
13,08:44:00,08:44:00,24,15,0,0
13,08:47:00,08:47:00,25,16,0,0
13,08:49:00,08:49:00,51,17,0,0
13,08:53:00,08:53:00,26,18,0,0
13,08:54:00,08:54:00,28,19,0,0
13,09:00:00,09:00:00,29,20,0,0
13,09:01:00,09:01:00,30,21,0,0
13,09:03:00,09:03:00,31,22,0,0
13,09:04:00,09:04:00,32,23,0,0
13,09:05:00,09:05:00,33,24,0,0
13,09:07:00,09:07:00,34,25,0,0
13,09:11:00,09:11:00,35,26,0,0
13,09:15:00,09:15:00,36,27,0,0
13,09:16:00,09:16:00,37,28,0,0
13,09:16:00,09:16:00,38,29,0,0
13,09:17:00,09:17:00,39,30,0,0
13,09:18:00,09:18:00,40,31,0,0
13,09:19:00,09:19:00,41,32,0,0
13,09:20:00,09:20:00,42,33,0,0
13,09:20:00,09:20:00,10,34,0,0
14,14:30:00,14:30:00,10,1,0,0
14,14:31:00,14:31:00,11,2,0,0
14,14:32:00,14:32:00,12,3,0,0
14,14:33:00,14:33:00,13,4,0,0
14,14:33:00,14:33:00,14,5,0,0
14,14:34:00,14:34:00,15,6,0,0
14,14:35:00,14:35:00,16,7,0,0
14,14:38:00,14:38:00,17,8,0,0
14,14:42:00,14:42:00,18,9,0,0
14,14:44:00,14:44:00,19,10,0,0
14,14:44:00,14:44:00,20,11,0,0
14,14:45:00,14:45:00,21,12,0,0
14,14:47:00,14:47:00,22,13,0,0
14,14:49:00,14:49:00,23,14,0,0
14,14:52:00,14:52:00,24,15,0,0
14,14:54:00,14:54:00,25,16,0,0
14,14:55:00,14:55:00,26,17,0,0
14,15:05:00,15:05:00,51,18,0,0
14,15:07:00,15:07:00,28,19,0,0
14,15:16:00,15:16:00,29,20,0,0
14,15:17:00,15:17:00,30,21,0,0
14,15:20:00,15:20:00,31,22,0,0
14,15:21:00,15:21:00,32,23,0,0
14,15:23:00,15:23:00,33,24,0,0
14,15:25:00,15:25:00,34,25,0,0
14,15:29:00,15:29:00,35,26,0,0
14,15:32:00,15:32:00,36,27,0,0
14,15:33:00,15:33:00,37,28,0,0
14,15:33:00,15:33:00,38,29,0,0
14,15:34:00,15:34:00,39,30,0,0
14,15:35:00,15:35:00,40,31,0,0
14,15:36:00,15:36:00,41,32,0,0
14,15:37:00,15:37:00,42,33,0,0
14,15:37:00,15:37:00,10,34,0,0
15,15:10:00,15:10:00,49,1,0,0
15,15:15:00,15:15:00,53,2,0,0
15,15:25:00,15:25:00,54,3,0,0
15,15:29:00,15:29:00,29,4,0,0
15,15:30:00,15:30:00,30,5,0,0
15,15:32:00,15:32:00,31,6,0,0
15,15:33:00,15:33:00,32,7,0,0
15,15:34:00,15:34:00,33,8,0,0
15,15:35:00,15:35:00,34,9,0,0
15,15:39:00,15:39:00,35,10,0,0
15,15:42:00,15:42:00,36,11,0,0
15,15:43:00,15:43:00,37,12,0,0
15,15:44:00,15:44:00,38,13,0,0
15,15:45:00,15:45:00,39,14,0,0
15,15:47:00,15:47:00,40,15,0,0
15,15:48:00,15:48:00,41,16,0,0
15,15:49:00,15:49:00,42,17,0,0
15,15:50:00,15:50:00,10,18,0,0
16,07:36:00,07:36:00,10,1,0,0
16,07:37:00,07:37:00,11,2,0,0
16,07:39:00,07:39:00,12,3,0,0
16,07:40:00,07:40:00,13,4,0,0
16,07:41:00,07:41:00,14,5,0,0
16,07:42:00,07:42:00,15,6,0,0
16,07:43:00,07:43:00,16,7,0,0
16,07:46:00,07:46:00,17,8,0,0
16,07:50:00,07:50:00,18,9,0,0
16,07:52:00,07:52:00,19,10,0,0
16,07:52:00,07:52:00,20,11,0,0
16,07:53:00,07:53:00,21,12,0,0
16,07:55:00,07:55:00,22,13,0,0
16,07:57:00,07:57:00,23,14,0,0
16,07:59:00,07:59:00,24,15,0,0
16,08:01:00,08:01:00,54,16,0,0
16,08:05:00,08:05:00,55,17,0,0
16,08:09:00,08:09:00,53,18,0,0
17,14:15:00,14:15:00,0,1,0,0
17,14:16:00,14:16:00,1,2,0,0
17,14:25:00,14:25:00,2,3,0,0
17,14:28:00,14:28:00,4,4,0,0
17,14:29:00,14:29:00,5,5,0,0
17,14:30:00,14:30:00,6,6,0,0
17,14:31:00,14:31:00,7,7,0,0
17,14:32:00,14:32:00,8,8,0,0
17,14:32:00,14:32:00,9,9,0,0
17,14:35:00,14:35:00,10,10,0,0
17,14:36:00,14:36:00,11,11,0,0
17,14:37:00,14:37:00,12,12,0,0
17,14:38:00,14:38:00,13,13,0,0
17,14:38:00,14:38:00,14,14,0,0
17,14:39:00,14:39:00,15,15,0,0
17,14:40:00,14:40:00,16,16,0,0
17,14:43:00,14:43:00,17,17,0,0
17,14:47:00,14:47:00,18,18,0,0
17,14:49:00,14:49:00,19,19,0,0
17,14:50:00,14:50:00,20,20,0,0
17,14:51:00,14:51:00,21,21,0,0
17,14:54:00,14:54:00,22,22,0,0
17,14:56:00,14:56:00,23,23,0,0
17,14:59:00,14:59:00,24,24,0,0
17,15:03:00,15:03:00,25,25,0,0
17,15:05:00,15:05:00,50,26,0,0
17,15:07:00,15:07:00,51,27,0,0
17,15:10:00,15:10:00,26,28,0,0
17,15:12:00,15:12:00,28,29,0,0
17,15:30:00,15:30:00,54,30,0,0
17,15:34:00,15:34:00,29,31,0,0
17,15:35:00,15:35:00,30,32,0,0
17,15:37:00,15:37:00,31,33,0,0
17,15:38:00,15:38:00,32,34,0,0
17,15:39:00,15:39:00,33,35,0,0
17,15:40:00,15:40:00,34,36,0,0
17,15:44:00,15:44:00,35,37,0,0
17,15:47:00,15:47:00,36,38,0,0
17,15:48:00,15:48:00,37,39,0,0
17,15:48:00,15:48:00,38,40,0,0
17,15:49:00,15:49:00,39,41,0,0
17,15:50:00,15:50:00,40,42,0,0
17,15:51:00,15:51:00,41,43,0,0
17,15:52:00,15:52:00,42,44,0,0
17,15:52:00,15:52:00,10,45,0,0
17,15:54:00,15:54:00,43,46,0,0
17,15:55:00,15:55:00,44,47,0,0
17,15:57:00,15:57:00,45,48,0,0
17,15:58:00,15:58:00,46,49,0,0
17,15:59:00,15:59:00,47,50,0,0
17,16:01:00,16:01:00,52,51,0,0
17,16:05:00,16:05:00,48,52,0,0
17,16:15:00,16:15:00,0,53,0,0
