stop_id,stop_code,stop_name,stop_desc,stop_lat,stop_lon,zone_id,stop_url,location_type,parent_station,platform_code
68,750075,Brinsmead Kamerunga Rd (Skyrail Base Station),,-16.848133,145.695279,3,http://translink.com.au/stop/750075/gtfs/,,,
69,750079,Cairns Western Art at Harley St,,-16.879794,145.690026,4,http://translink.com.au/stop/750079/gtfs/,,,
72,750119,Abbott St near Shields St,,-16.920457,145.776283,20,,,,
70,750218,Hoare St at Eureka St (Trinity Bay SHS),,-16.923863,145.752562,6,http://translink.com.au/stop/750218/gtfs/,,,
71,750219,Newton St at Cairns TAFE,,-16.922666,145.755999,6,http://translink.com.au/stop/750219/gtfs/,,,
66,750335,Cairns Western Art at Harley St,,-16.880496,145.690618,4,http://translink.com.au/stop/750335/gtfs/,,,
59,750489,Cairns Central Terminus,,-16.925276,145.771107,20,http://translink.com.au/stop/750489/gtfs/,,,
65,750523,Trinity Bay High near Hoare St (Hail n Ride),,-16.924112,145.752430,6,http://translink.com.au/stop/750523/gtfs/,,,
64,750600,Gatton St near Newton St (Hail n Ride),,-16.922677,145.757255,5,http://translink.com.au/stop/750600/gtfs/,,,
57,750641,Therwine St near Coondoo St (Hail n Ride),,-16.819678,145.633970,3,http://translink.com.au/stop/750641/gtfs/,,,
52,750642,Walsh St near Rankin St (Hail n Ride),,-16.995751,145.424125,3,http://translink.com.au/stop/750642/gtfs/,,,
47,750643,Main St near Vernon St (Hail n Ride),,-17.265842,145.475981,3,http://translink.com.au/stop/750643/gtfs/,,,
54,750644,Speewah Rd near Scenic Dr (Hail n Ride),,-16.870798,145.600013,3,http://translink.com.au/stop/750644/gtfs/,,,
63,750660,Kennedy Hwy near Main St (Hail n Ride),,-17.222526,145.478944,3,http://translink.com.au/stop/750660/gtfs/,,,
49,750661,Kennedy Hwy near Main St (Hail n Ride),,-17.222385,145.478791,3,http://translink.com.au/stop/750661/gtfs/,,,
50,750662,Hibiscus St near Banksia St (Hail n Ride),,-17.130661,145.426646,3,http://translink.com.au/stop/750662/gtfs/,,,
62,750663,Hibiscus St near Banksia St (Hail n Ride),,-17.130608,145.426815,3,http://translink.com.au/stop/750663/gtfs/,,,
67,750664,Kennedy Hwy at Smithfield Shopping Centre,,-16.838923,145.691128,3,http://translink.com.au/stop/750664/gtfs/,,,
60,750665,Kennedy Hwy near Canopys Edge Blvd,,-16.839005,145.688416,3,http://translink.com.au/stop/750665/gtfs/,,,
53,750666,Kennedy Rd near Koah Rd (Hail n Ride),,-16.894767,145.568382,3,http://translink.com.au/stop/750666/gtfs/,,,
56,750667,Kennedy Hwy near Greenhills Rd (Hail n Ride),,-16.828338,145.621424,3,http://translink.com.au/stop/750667/gtfs/,,,
55,750668,Kennedy Hwy near Warril Dr (Hail n Ride),,-16.831395,145.620820,3,http://translink.com.au/stop/750668/gtfs/,,,
61,750669,Kennedy Hwy near Fallon Rd (Hail n Ride),,-16.832446,145.620473,3,http://translink.com.au/stop/750669/gtfs/,,,
51,750670,Byrnes St at Mareeba Visitor Info (Hail n Ride),,-17.010876,145.424687,3,http://translink.com.au/stop/750670/gtfs/,,,
48,750671,Kennedy Hwy near Tate Rd (Hail n Ride),,-17.227747,145.478408,3,,,,
58,750672,Kennedy Hwy at Rainforestation Park (Hail n Ride),,-16.824138,145.651417,3,,,,
0,790000,Central Arcade,,-17.525470,146.030199,2,http://translink.com.au/stop/790000/gtfs/,,,
44,790001,Jodrell Street near Florence St,,-17.529947,146.045887,2,http://translink.com.au/stop/790001/gtfs/,,,
41,790004,Mourilyan Rd near Marty Street,,-17.538905,146.032667,2,http://translink.com.au/stop/790004/gtfs/,,,
40,790005,Mourilyan Rd at Rita Street,,-17.541995,146.032572,2,http://translink.com.au/stop/790005/gtfs/,,,
18,790014,Ash Street near Beech St,,-17.525965,146.011300,2,http://translink.com.au/stop/790014/gtfs/,,,
19,790015,Pindar Street near Laurie St,,-17.524470,146.003865,3,http://translink.com.au/stop/790015/gtfs/,,,
20,790016,Badilla Street near Laurie St,,-17.524080,146.001479,3,http://translink.com.au/stop/790016/gtfs/,,,
21,790017,Maple St at Goondi State School,,-17.522498,146.010052,2,http://translink.com.au/stop/790017/gtfs/,,,
25,790018,Palmerston Drive near Pine St,,-17.521599,146.011178,2,http://translink.com.au/stop/790018/gtfs/,,,
3,790019,Warrina St at Warrina Home,,-17.517450,146.018659,2,http://translink.com.au/stop/790019/gtfs/,,,
26,790020,Edith St at Anzac Park,,-17.524160,146.027290,2,http://translink.com.au/stop/790020/gtfs/,,,
8,790021,Emily Street near Glady St,,-17.518916,146.025588,2,http://translink.com.au/stop/790021/gtfs/,,,
9,790022,Rankin St at Innisfail Hospital,,-17.519232,146.029662,2,http://translink.com.au/stop/790022/gtfs/,,,
22,790024,Bel-Air Avenue near Bona Ave,,-17.520012,145.988544,3,http://translink.com.au/stop/790024/gtfs/,,,
23,790025,Belvedere Avenue near Boulter Cl,,-17.522591,145.988739,3,http://translink.com.au/stop/790025/gtfs/,,,
24,790026,Innisfail Sugarbowl Lanes at Lyons Road,,-17.518245,145.990457,3,http://translink.com.au/stop/790026/gtfs/,,,
35,790027,Elizabeth Street near William St,,-17.501051,146.076147,1,http://translink.com.au/stop/790027/gtfs/,,,
11,790028,Alexander Street near OReilly Cl,,-17.516847,146.038979,2,http://translink.com.au/stop/790028/gtfs/,,,
6,790030,Pine St near Velution St,,-17.521730,146.016953,2,http://translink.com.au/stop/790030/gtfs/,,,
46,790033,Martin St near Ryan St,,-17.527295,146.036517,2,http://translink.com.au/stop/790033/gtfs/,,,
45,790034,Martin St near Mary St,,-17.528253,146.038535,2,http://translink.com.au/stop/790034/gtfs/,,,
37,790035,Coronation Dr near Scheu St,,-17.531905,146.032174,2,http://translink.com.au/stop/790035/gtfs/,,,
1,790037,Rankin St at Innisfail Hospital,,-17.519202,146.029457,2,http://translink.com.au/stop/790037/gtfs/,,,
2,790038,Emily St at The Lakes Residential Village,,-17.519005,146.025548,2,http://translink.com.au/stop/790038/gtfs/,,,
36,790044,Mourilyan Rd at Water Tower,,-17.528848,146.034567,2,http://translink.com.au/stop/790044/gtfs/,,,
38,790045,Mourilyan Rd near Rita St,,-17.542361,146.032715,2,http://translink.com.au/stop/790045/gtfs/,,,
7,790051,Tulip St near Warrina St (Hail n Ride),,-17.518274,146.017611,2,,,,
10,790052,Aluart Rd near Colyer Cl,,-17.515062,146.038474,2,http://translink.com.au/stop/790052/gtfs/,,,
30,790053,Aluart Rd near Alexander St,,-17.515182,146.038841,2,http://translink.com.au/stop/790053/gtfs/,,,
29,790054,Alexander St near OReilly Cl,,-17.516938,146.038883,2,http://translink.com.au/stop/790054/gtfs/,,,
13,790055,Katoora St near Nelson St,,-17.522138,146.038966,2,http://translink.com.au/stop/790055/gtfs/,,,
27,790056,Katoora St near Herbert St,,-17.522248,146.037288,2,http://translink.com.au/stop/790056/gtfs/,,,
14,790057,Flying Rish Point Rd near Tierney St,,-17.518640,146.035889,2,http://translink.com.au/stop/790057/gtfs/,,,
17,790058,Flying Fish Point Rd near Riverside Cr,,-17.518285,146.033584,2,http://translink.com.au/stop/790058/gtfs/,,,
16,790059,Paul St near Callendar Dr,,-17.512870,146.030893,2,http://translink.com.au/stop/790059/gtfs/,,,
15,790061,Callendar Dr near Peter St,,-17.513681,146.027998,2,http://translink.com.au/stop/790061/gtfs/,,,
28,790063,Nelson St near Ripple St,,-17.520504,146.039743,2,http://translink.com.au/stop/790063/gtfs/,,,
12,790064,Nelson St near Mayflower St,,-17.519943,146.039860,2,http://translink.com.au/stop/790064/gtfs/,,,
31,790067,Elizabeth St near William St,,-17.501462,146.075979,1,http://translink.com.au/stop/790067/gtfs/,,,
33,790069,Maud St near Enid St,,-17.495395,146.074779,1,http://translink.com.au/stop/790069/gtfs/,,,
32,790071,Feldt St at Flying Fish Point,,-17.490769,146.076153,1,http://translink.com.au/stop/790071/gtfs/,,,
5,790082,Velution St near Palmerston Dr (Hail n Ride),,-17.524588,146.016204,2,http://translink.com.au/stop/790082/gtfs/,,,
4,790083,Velution St near Mahogany St (Hail n Ride),,-17.524326,146.016316,2,http://translink.com.au/stop/790083/gtfs/,,,
42,790088,Carmel St near Mourilyan Rd (Hail n Ride),,-17.535110,146.033108,2,http://translink.com.au/stop/790088/gtfs/,,,
39,790089,Monica St near Auburn St,,-17.543952,146.031899,2,http://translink.com.au/stop/790089/gtfs/,,,
43,790093,Ryan St near Scheu St,,-17.532216,146.036980,2,http://translink.com.au/stop/790093/gtfs/,,,
34,790095,George St near Elizabeth St,,-17.496227,146.076331,1,http://translink.com.au/stop/790095/gtfs/,,,
