trip_id,arrival_time,departure_time,stop_id,stop_sequence,pickup_type,drop_off_type
0,12:30:00,12:30:00,0,1,0,0
0,12:32:00,12:32:00,1,2,0,0
0,12:33:00,12:33:00,2,3,0,0
0,12:38:00,12:38:00,3,4,0,0
0,12:41:00,12:41:00,4,5,0,0
1,08:40:00,08:40:00,5,1,0,0
1,08:41:00,08:41:00,6,2,0,0
1,08:43:00,08:43:00,3,3,0,0
1,08:43:00,08:43:00,7,4,0,0
1,08:49:00,08:49:00,8,5,0,0
1,08:50:00,08:50:00,9,6,0,0
1,08:52:00,08:52:00,0,7,0,0
2,11:26:00,11:26:00,3,1,0,0
2,11:26:00,11:26:00,7,2,0,0
2,11:30:00,11:30:00,8,3,0,0
2,11:31:00,11:31:00,9,4,0,0
2,11:33:00,11:33:00,0,5,0,0
3,13:20:00,13:20:00,5,1,0,0
3,13:21:00,13:21:00,6,2,0,0
3,13:23:00,13:23:00,3,3,0,0
3,13:23:00,13:23:00,7,4,0,0
3,13:29:00,13:29:00,8,5,0,0
3,13:30:00,13:30:00,9,6,0,0
3,13:32:00,13:32:00,0,7,0,0
4,11:15:00,11:15:00,0,1,0,0
4,11:17:00,11:17:00,1,2,0,0
4,11:18:00,11:18:00,2,3,0,0
4,11:23:00,11:23:00,5,4,0,0
4,11:24:00,11:24:00,6,5,0,0
4,11:26:00,11:26:00,3,6,0,0
5,09:29:00,09:29:00,10,1,0,0
5,09:30:00,09:30:00,11,2,0,0
5,09:31:00,09:31:00,12,3,0,0
5,09:31:00,09:31:00,13,4,0,0
5,09:33:00,09:33:00,14,5,0,0
5,09:35:00,09:35:00,9,6,0,0
5,09:37:00,09:37:00,0,7,0,0
6,09:20:00,09:20:00,0,1,0,0
6,09:22:00,09:22:00,1,2,0,0
6,09:25:00,09:25:00,15,3,0,0
6,09:26:00,09:26:00,16,4,0,0
6,09:28:00,09:28:00,17,5,0,0
6,09:29:00,09:29:00,10,6,0,0
7,12:00:00,12:00:00,0,1,0,0
7,12:02:00,12:02:00,1,2,0,0
7,12:03:00,12:03:00,2,3,0,0
7,12:06:00,12:06:00,18,4,0,0
7,12:10:00,12:10:00,19,5,0,0
7,12:11:00,12:11:00,20,6,0,0
7,12:12:00,12:12:00,21,7,0,0
7,12:17:00,12:17:00,22,8,0,0
7,12:18:00,12:18:00,23,9,0,0
7,12:19:00,12:19:00,24,10,0,0
7,12:24:00,12:24:00,25,11,0,0
7,12:27:00,12:27:00,26,12,0,0
7,12:28:00,12:28:00,0,13,0,0
8,09:40:00,09:40:00,0,1,0,0
8,09:42:00,09:42:00,1,2,0,0
8,09:43:00,09:43:00,2,3,0,0
8,09:46:00,09:46:00,18,4,0,0
8,09:50:00,09:50:00,19,5,0,0
8,09:51:00,09:51:00,20,6,0,0
8,09:52:00,09:52:00,21,7,0,0
8,09:57:00,09:57:00,22,8,0,0
8,09:58:00,09:58:00,23,9,0,0
8,09:59:00,09:59:00,24,10,0,0
8,10:04:00,10:04:00,25,11,0,0
8,10:07:00,10:07:00,26,12,0,0
8,10:08:00,10:08:00,0,13,0,0
9,13:35:00,13:35:00,0,1,0,0
9,13:37:00,13:37:00,1,2,0,0
9,13:37:00,13:37:00,17,3,0,0
9,13:38:00,13:38:00,27,4,0,0
9,13:38:00,13:38:00,28,5,0,0
9,13:39:00,13:39:00,29,6,0,0
9,13:39:00,13:39:00,30,7,0,0
9,13:49:00,13:49:00,31,8,0,0
9,13:51:00,13:51:00,32,9,0,0
10,10:26:00,10:26:00,32,1,0,0
10,10:27:00,10:27:00,33,2,0,0
10,10:28:00,10:28:00,34,3,0,0
10,10:28:00,10:28:00,35,4,0,0
10,10:38:00,10:38:00,10,5,0,0
10,10:39:00,10:39:00,11,6,0,0
10,10:40:00,10:40:00,12,7,0,0
10,10:40:00,10:40:00,13,8,0,0
10,10:42:00,10:42:00,14,9,0,0
10,10:44:00,10:44:00,9,10,0,0
10,10:46:00,10:46:00,0,11,0,0
11,13:51:00,13:51:00,32,1,0,0
11,13:52:00,13:52:00,33,2,0,0
11,13:53:00,13:53:00,34,3,0,0
11,13:53:00,13:53:00,35,4,0,0
11,14:03:00,14:03:00,10,5,0,0
11,14:04:00,14:04:00,11,6,0,0
11,14:05:00,14:05:00,12,7,0,0
11,14:05:00,14:05:00,13,8,0,0
11,14:07:00,14:07:00,14,9,0,0
11,14:09:00,14:09:00,9,10,0,0
11,14:11:00,14:11:00,0,11,0,0
12,10:10:00,10:10:00,0,1,0,0
12,10:12:00,10:12:00,1,2,0,0
12,10:12:00,10:12:00,17,3,0,0
12,10:13:00,10:13:00,27,4,0,0
12,10:13:00,10:13:00,28,5,0,0
12,10:14:00,10:14:00,29,6,0,0
12,10:14:00,10:14:00,30,7,0,0
12,10:24:00,10:24:00,31,8,0,0
12,10:26:00,10:26:00,32,9,0,0
13,11:35:00,11:35:00,0,1,0,0
13,11:38:00,11:38:00,36,2,0,0
13,11:39:00,11:39:00,37,3,0,0
13,11:42:00,11:42:00,38,4,0,0
13,11:42:00,11:42:00,39,5,0,0
13,11:43:00,11:43:00,40,6,0,0
13,11:43:00,11:43:00,41,7,0,0
13,11:44:00,11:44:00,42,8,0,0
13,11:47:00,11:47:00,43,9,0,0
13,11:50:00,11:50:00,44,10,0,0
13,11:53:00,11:53:00,45,11,0,0
13,11:54:00,11:54:00,46,12,0,0
13,11:57:00,11:57:00,0,13,0,0
14,14:15:00,14:15:00,0,1,0,0
14,14:18:00,14:18:00,36,2,0,0
14,14:20:00,14:20:00,37,3,0,0
14,14:24:00,14:24:00,38,4,0,0
14,14:24:00,14:24:00,39,5,0,0
14,14:25:00,14:25:00,40,6,0,0
14,14:25:00,14:25:00,41,7,0,0
14,14:26:00,14:26:00,42,8,0,0
14,14:29:00,14:29:00,43,9,0,0
14,14:32:00,14:32:00,44,10,0,0
14,14:35:00,14:35:00,45,11,0,0
14,14:36:00,14:36:00,46,12,0,0
14,14:39:00,14:39:00,0,13,0,0
15,15:40:00,15:40:00,0,1,0,0
15,15:43:00,15:43:00,36,2,0,0
15,15:45:00,15:45:00,37,3,0,0
15,15:49:00,15:49:00,38,4,0,0
15,15:49:00,15:49:00,39,5,0,0
15,15:50:00,15:50:00,40,6,0,0
15,15:50:00,15:50:00,41,7,0,0
15,15:51:00,15:51:00,42,8,0,0
15,15:54:00,15:54:00,43,9,0,0
15,15:57:00,15:57:00,44,10,0,0
15,16:00:00,16:00:00,45,11,0,0
15,16:01:00,16:01:00,46,12,0,0
15,16:04:00,16:04:00,0,13,0,0
16,08:55:00,08:55:00,0,1,0,0
16,08:58:00,08:58:00,36,2,0,0
16,08:59:00,08:59:00,37,3,0,0
16,09:02:00,09:02:00,38,4,0,0
16,09:02:00,09:02:00,39,5,0,0
16,09:03:00,09:03:00,40,6,0,0
16,09:03:00,09:03:00,41,7,0,0
16,09:04:00,09:04:00,42,8,0,0
16,09:07:00,09:07:00,43,9,0,0
16,09:09:00,09:09:00,44,10,0,0
16,09:13:00,09:13:00,45,11,0,0
16,09:13:00,09:13:00,46,12,0,0
16,09:15:00,09:15:00,0,13,0,0
17,06:00:00,06:00:00,47,1,0,0
17,06:04:00,06:04:00,48,2,0,0
17,06:05:00,06:05:00,49,3,0,0
17,06:16:00,06:16:00,50,4,0,0
17,06:28:00,06:28:00,51,5,0,0
17,06:30:00,06:30:00,52,6,0,0
17,06:47:00,06:47:00,53,7,0,0
17,06:50:00,06:50:00,54,8,0,0
17,07:07:00,07:07:00,55,9,0,0
17,07:08:00,07:08:00,56,10,0,0
17,07:15:00,07:15:00,57,11,0,0
17,07:31:00,07:31:00,58,12,0,0
17,08:50:00,08:50:00,59,13,0,0
18,09:25:00,09:25:00,59,1,0,0
18,09:45:00,09:45:00,60,2,0,0
18,09:58:00,09:58:00,58,3,0,0
18,10:05:00,10:05:00,57,4,0,0
18,10:10:00,10:10:00,56,5,0,0
18,10:11:00,10:11:00,61,6,0,0
18,10:25:00,10:25:00,54,7,0,0
18,10:45:00,10:45:00,52,8,0,0
18,10:47:00,10:47:00,51,9,0,0
18,10:59:00,10:59:00,62,10,0,0
18,11:10:00,11:10:00,63,11,0,0
18,11:11:00,11:11:00,48,12,0,0
18,11:15:00,11:15:00,47,13,0,0
19,09:15:00,09:15:00,47,1,0,0
19,09:19:00,09:19:00,48,2,0,0
19,09:20:00,09:20:00,49,3,0,0
19,09:31:00,09:31:00,50,4,0,0
19,09:43:00,09:43:00,51,5,0,0
19,09:45:00,09:45:00,52,6,0,0
19,10:02:00,10:02:00,53,7,0,0
19,10:05:00,10:05:00,54,8,0,0
19,10:19:00,10:19:00,55,9,0,0
19,10:20:00,10:20:00,56,10,0,0
19,10:25:00,10:25:00,57,11,0,0
19,10:34:00,10:34:00,58,12,0,0
19,11:15:00,11:15:00,59,13,0,0
20,07:00:00,07:00:00,59,1,0,0
20,07:20:00,07:20:00,60,2,0,0
20,07:33:00,07:33:00,58,3,0,0
20,07:40:00,07:40:00,57,4,0,0
20,07:45:00,07:45:00,56,5,0,0
20,07:46:00,07:46:00,61,6,0,0
20,08:00:00,08:00:00,54,7,0,0
20,08:20:00,08:20:00,52,8,0,0
20,08:22:00,08:22:00,51,9,0,0
20,08:34:00,08:34:00,62,10,0,0
20,08:45:00,08:45:00,63,11,0,0
20,08:46:00,08:46:00,48,12,0,0
20,08:50:00,08:50:00,47,13,0,0
21,13:00:00,13:00:00,47,1,0,0
21,13:04:00,13:04:00,48,2,0,0
21,13:05:00,13:05:00,49,3,0,0
21,13:16:00,13:16:00,50,4,0,0
21,13:28:00,13:28:00,51,5,0,0
21,13:30:00,13:30:00,52,6,0,0
21,13:47:00,13:47:00,53,7,0,0
21,13:50:00,13:50:00,54,8,0,0
21,14:04:00,14:04:00,55,9,0,0
21,14:05:00,14:05:00,56,10,0,0
21,14:10:00,14:10:00,57,11,0,0
21,14:19:00,14:19:00,58,12,0,0
21,15:00:00,15:00:00,59,13,0,0
22,15:00:00,15:00:00,59,1,0,0
22,15:03:00,15:03:00,64,2,0,1
22,15:04:00,15:04:00,65,3,0,1
22,15:21:00,15:21:00,66,4,0,1
22,15:30:00,15:30:00,60,5,0,0
22,15:50:00,15:50:00,57,6,0,0
23,15:30:00,15:30:00,59,1,0,0
23,15:50:00,15:50:00,60,2,0,0
23,16:03:00,16:03:00,58,3,0,0
23,16:10:00,16:10:00,57,4,0,0
23,16:15:00,16:15:00,56,5,0,0
23,16:16:00,16:16:00,61,6,0,0
23,16:30:00,16:30:00,54,7,0,0
23,16:50:00,16:50:00,52,8,0,0
23,16:52:00,16:52:00,51,9,0,0
23,17:04:00,17:04:00,62,10,0,0
23,17:15:00,17:15:00,63,11,0,0
23,17:16:00,17:16:00,48,12,0,0
23,17:20:00,17:20:00,47,13,0,0
24,16:00:00,16:00:00,57,1,0,0
24,16:23:00,16:23:00,67,2,0,0
24,16:45:00,16:45:00,59,3,0,0
25,08:45:00,08:45:00,5,1,0,0
25,08:46:00,08:46:00,6,2,0,0
25,08:48:00,08:48:00,3,3,0,0
25,08:48:00,08:48:00,7,4,0,0
25,08:54:00,08:54:00,8,5,0,0
25,08:55:00,08:55:00,9,6,0,0
25,08:57:00,08:57:00,0,7,0,0
26,10:41:00,10:41:00,3,1,0,0
26,10:41:00,10:41:00,7,2,0,0
26,10:46:00,10:46:00,8,3,0,0
26,10:47:00,10:47:00,9,4,0,0
26,10:49:00,10:49:00,0,5,0,0
27,10:30:00,10:30:00,0,1,0,0
27,10:32:00,10:32:00,1,2,0,0
27,10:33:00,10:33:00,2,3,0,0
27,10:38:00,10:38:00,5,4,0,0
27,10:39:00,10:39:00,6,5,0,0
27,10:41:00,10:41:00,3,6,0,0
28,11:25:00,11:25:00,0,1,0,0
28,11:27:00,11:27:00,1,2,0,0
28,11:30:00,11:30:00,15,3,0,0
28,11:31:00,11:31:00,16,4,0,0
28,11:33:00,11:33:00,17,5,0,0
28,11:34:00,11:34:00,10,6,0,0
29,09:34:00,09:34:00,10,1,0,0
29,09:35:00,09:35:00,11,2,0,0
29,09:36:00,09:36:00,12,3,0,0
29,09:36:00,09:36:00,13,4,0,0
29,09:38:00,09:38:00,14,5,0,0
29,09:40:00,09:40:00,9,6,0,0
29,09:42:00,09:42:00,0,7,0,0
30,11:34:00,11:34:00,10,1,0,0
30,11:35:00,11:35:00,11,2,0,0
30,11:36:00,11:36:00,12,3,0,0
30,11:36:00,11:36:00,13,4,0,0
30,11:38:00,11:38:00,14,5,0,0
30,11:40:00,11:40:00,9,6,0,0
30,11:42:00,11:42:00,0,7,0,0
31,09:25:00,09:25:00,0,1,0,0
31,09:27:00,09:27:00,1,2,0,0
31,09:30:00,09:30:00,15,3,0,0
31,09:31:00,09:31:00,16,4,0,0
31,09:33:00,09:33:00,17,5,0,0
31,09:34:00,09:34:00,10,6,0,0
32,10:50:00,10:50:00,0,1,0,0
32,10:53:00,10:53:00,36,2,0,0
32,10:54:00,10:54:00,37,3,0,0
32,10:57:00,10:57:00,38,4,0,0
32,10:57:00,10:57:00,39,5,0,0
32,10:58:00,10:58:00,40,6,0,0
32,10:58:00,10:58:00,41,7,0,0
32,10:59:00,10:59:00,42,8,0,0
32,11:02:00,11:02:00,43,9,0,0
32,11:05:00,11:05:00,44,10,0,0
32,11:08:00,11:08:00,45,11,0,0
32,11:08:00,11:08:00,46,12,0,0
32,11:10:00,11:10:00,0,13,0,0
33,09:00:00,09:00:00,0,1,0,0
33,09:03:00,09:03:00,36,2,0,0
33,09:04:00,09:04:00,37,3,0,0
33,09:07:00,09:07:00,38,4,0,0
33,09:07:00,09:07:00,39,5,0,0
33,09:08:00,09:08:00,40,6,0,0
33,09:08:00,09:08:00,41,7,0,0
33,09:09:00,09:09:00,42,8,0,0
33,09:12:00,09:12:00,43,9,0,0
33,09:15:00,09:15:00,44,10,0,0
33,09:18:00,09:18:00,45,11,0,0
33,09:18:00,09:18:00,46,12,0,0
33,09:20:00,09:20:00,0,13,0,0
34,12:05:00,12:05:00,0,1,0,0
34,12:07:00,12:07:00,1,2,0,0
34,12:08:00,12:08:00,2,3,0,0
34,12:11:00,12:11:00,18,4,0,0
34,12:15:00,12:15:00,19,5,0,0
34,12:16:00,12:16:00,20,6,0,0
34,12:19:00,12:19:00,21,7,0,0
35,09:45:00,09:45:00,0,1,0,0
35,09:47:00,09:47:00,1,2,0,0
35,09:48:00,09:48:00,2,3,0,0
35,09:51:00,09:51:00,18,4,0,0
35,09:55:00,09:55:00,19,5,0,0
35,09:56:00,09:56:00,20,6,0,0
35,09:59:00,09:59:00,21,7,0,0
35,09:59:00,09:59:00,25,8,0,0
35,10:02:00,10:02:00,26,9,0,0
35,10:03:00,10:03:00,0,10,0,0
36,11:45:00,11:45:00,0,1,0,0
36,11:47:00,11:47:00,1,2,0,0
36,11:48:00,11:48:00,17,3,0,0
36,11:54:00,11:54:00,31,4,0,0
36,11:55:00,11:55:00,32,5,0,0
37,10:15:00,10:15:00,32,1,0,0
37,10:16:00,10:16:00,33,2,0,0
37,10:16:00,10:16:00,34,3,0,0
37,10:16:00,10:16:00,35,4,0,0
37,10:22:00,10:22:00,14,5,0,0
37,10:23:00,10:23:00,9,6,0,0
37,10:25:00,10:25:00,0,7,0,0
38,11:55:00,11:55:00,32,1,0,0
38,11:56:00,11:56:00,33,2,0,0
38,11:56:00,11:56:00,34,3,0,0
38,11:56:00,11:56:00,35,4,0,0
38,12:02:00,12:02:00,14,5,0,0
38,12:03:00,12:03:00,9,6,0,0
38,12:05:00,12:05:00,0,7,0,0
39,10:05:00,10:05:00,0,1,0,0
39,10:07:00,10:07:00,1,2,0,0
39,10:08:00,10:08:00,17,3,0,0
39,10:14:00,10:14:00,31,4,0,0
39,10:15:00,10:15:00,32,5,0,0
40,10:30:00,10:30:00,59,1,0,0
40,10:50:00,10:50:00,60,2,0,0
40,11:03:00,11:03:00,58,3,0,0
40,11:10:00,11:10:00,57,4,0,0
40,11:13:00,11:13:00,56,5,0,0
40,11:13:00,11:13:00,61,6,0,0
40,11:20:00,11:20:00,54,7,0,0
40,11:40:00,11:40:00,52,8,0,0
40,11:42:00,11:42:00,51,9,0,0
40,11:54:00,11:54:00,62,10,0,0
40,12:05:00,12:05:00,63,11,0,0
40,12:06:00,12:06:00,48,12,0,0
40,12:10:00,12:10:00,47,13,0,0
41,16:00:00,16:00:00,59,1,0,0
41,16:20:00,16:20:00,60,2,0,0
41,16:33:00,16:33:00,58,3,0,0
41,16:40:00,16:40:00,57,4,0,0
41,16:45:00,16:45:00,56,5,0,0
41,16:46:00,16:46:00,61,6,0,0
41,17:00:00,17:00:00,54,7,0,0
41,17:20:00,17:20:00,52,8,0,0
41,17:22:00,17:22:00,51,9,0,0
41,17:34:00,17:34:00,62,10,0,0
41,17:45:00,17:45:00,63,11,0,0
41,17:46:00,17:46:00,48,12,0,0
41,17:50:00,17:50:00,47,13,0,0
42,08:00:00,08:00:00,47,1,0,0
42,08:04:00,08:04:00,48,2,0,0
42,08:05:00,08:05:00,49,3,0,0
42,08:16:00,08:16:00,50,4,0,0
42,08:28:00,08:28:00,51,5,0,0
42,08:30:00,08:30:00,52,6,0,0
42,08:47:00,08:47:00,53,7,0,0
42,08:50:00,08:50:00,54,8,0,0
42,09:04:00,09:04:00,55,9,0,0
42,09:05:00,09:05:00,56,10,0,0
42,09:10:00,09:10:00,57,11,0,0
42,09:19:00,09:19:00,58,12,0,0
42,10:00:00,10:00:00,59,13,0,0
43,13:30:00,13:30:00,47,1,0,0
43,13:34:00,13:34:00,48,2,0,0
43,13:35:00,13:35:00,49,3,0,0
43,13:46:00,13:46:00,50,4,0,0
43,13:58:00,13:58:00,51,5,0,0
43,14:00:00,14:00:00,52,6,0,0
43,14:17:00,14:17:00,53,7,0,0
43,14:20:00,14:20:00,54,8,0,0
43,14:34:00,14:34:00,55,9,0,0
43,14:35:00,14:35:00,56,10,0,0
43,14:40:00,14:40:00,57,11,0,0
43,14:49:00,14:49:00,58,12,0,0
43,15:30:00,15:30:00,59,13,0,0
44,08:00:00,08:00:00,47,1,0,0
44,08:04:00,08:04:00,48,2,0,0
44,08:05:00,08:05:00,49,3,0,0
44,08:16:00,08:16:00,50,4,0,0
44,08:28:00,08:28:00,51,5,0,0
44,08:30:00,08:30:00,52,6,0,0
44,08:47:00,08:47:00,53,7,0,0
44,08:50:00,08:50:00,54,8,0,0
44,09:04:00,09:04:00,55,9,0,0
44,09:05:00,09:05:00,56,10,0,0
44,09:10:00,09:10:00,57,11,0,0
44,09:19:00,09:19:00,58,12,0,0
44,10:00:00,10:00:00,59,13,0,0
45,13:30:00,13:30:00,47,1,0,0
45,13:34:00,13:34:00,48,2,0,0
45,13:35:00,13:35:00,49,3,0,0
45,13:46:00,13:46:00,50,4,0,0
45,13:58:00,13:58:00,51,5,0,0
45,14:00:00,14:00:00,52,6,0,0
45,14:17:00,14:17:00,53,7,0,0
45,14:20:00,14:20:00,54,8,0,0
45,14:34:00,14:34:00,55,9,0,0
45,14:35:00,14:35:00,56,10,0,0
45,14:40:00,14:40:00,57,11,0,0
45,14:49:00,14:49:00,58,12,0,0
45,15:30:00,15:30:00,59,13,0,0
46,10:30:00,10:30:00,59,1,0,0
46,10:50:00,10:50:00,60,2,0,0
46,11:03:00,11:03:00,58,3,0,0
46,11:10:00,11:10:00,57,4,0,0
46,11:13:00,11:13:00,56,5,0,0
46,11:13:00,11:13:00,61,6,0,0
46,11:20:00,11:20:00,54,7,0,0
46,11:40:00,11:40:00,52,8,0,0
46,11:42:00,11:42:00,51,9,0,0
46,11:54:00,11:54:00,62,10,0,0
46,12:05:00,12:05:00,63,11,0,0
46,12:06:00,12:06:00,48,12,0,0
46,12:10:00,12:10:00,47,13,0,0
47,16:00:00,16:00:00,59,1,0,0
47,16:20:00,16:20:00,60,2,0,0
47,16:33:00,16:33:00,58,3,0,0
47,16:40:00,16:40:00,57,4,0,0
47,16:45:00,16:45:00,56,5,0,0
47,16:46:00,16:46:00,61,6,0,0
47,17:00:00,17:00:00,54,7,0,0
47,17:20:00,17:20:00,52,8,0,0
47,17:22:00,17:22:00,51,9,0,0
47,17:34:00,17:34:00,62,10,0,0
47,17:45:00,17:45:00,63,11,0,0
47,17:46:00,17:46:00,48,12,0,0
47,17:50:00,17:50:00,47,13,0,0
48,12:30:00,12:30:00,0,1,0,0
48,12:32:00,12:32:00,1,2,0,0
48,12:33:00,12:33:00,2,3,0,0
48,12:38:00,12:38:00,3,4,0,0
48,12:41:00,12:41:00,4,5,0,0
49,08:40:00,08:40:00,5,1,0,0
49,08:41:00,08:41:00,6,2,0,0
49,08:43:00,08:43:00,3,3,0,0
49,08:43:00,08:43:00,7,4,0,0
49,08:49:00,08:49:00,8,5,0,0
49,08:50:00,08:50:00,9,6,0,0
49,08:52:00,08:52:00,0,7,0,0
50,11:26:00,11:26:00,3,1,0,0
50,11:26:00,11:26:00,7,2,0,0
50,11:30:00,11:30:00,8,3,0,0
50,11:31:00,11:31:00,9,4,0,0
50,11:33:00,11:33:00,0,5,0,0
51,13:20:00,13:20:00,5,1,0,0
51,13:21:00,13:21:00,6,2,0,0
51,13:23:00,13:23:00,3,3,0,0
51,13:23:00,13:23:00,7,4,0,0
51,13:29:00,13:29:00,8,5,0,0
51,13:30:00,13:30:00,9,6,0,0
51,13:32:00,13:32:00,0,7,0,0
52,11:15:00,11:15:00,0,1,0,0
52,11:17:00,11:17:00,1,2,0,0
52,11:18:00,11:18:00,2,3,0,0
52,11:23:00,11:23:00,5,4,0,0
52,11:24:00,11:24:00,6,5,0,0
52,11:26:00,11:26:00,3,6,0,0
53,09:29:00,09:29:00,10,1,0,0
53,09:30:00,09:30:00,11,2,0,0
53,09:31:00,09:31:00,12,3,0,0
53,09:31:00,09:31:00,13,4,0,0
53,09:33:00,09:33:00,14,5,0,0
53,09:35:00,09:35:00,9,6,0,0
53,09:37:00,09:37:00,0,7,0,0
54,09:20:00,09:20:00,0,1,0,0
54,09:22:00,09:22:00,1,2,0,0
54,09:25:00,09:25:00,15,3,0,0
54,09:26:00,09:26:00,16,4,0,0
54,09:28:00,09:28:00,17,5,0,0
54,09:29:00,09:29:00,10,6,0,0
55,12:00:00,12:00:00,0,1,0,0
55,12:02:00,12:02:00,1,2,0,0
55,12:03:00,12:03:00,2,3,0,0
55,12:06:00,12:06:00,18,4,0,0
55,12:10:00,12:10:00,19,5,0,0
55,12:11:00,12:11:00,20,6,0,0
55,12:12:00,12:12:00,21,7,0,0
55,12:17:00,12:17:00,22,8,0,0
55,12:18:00,12:18:00,23,9,0,0
55,12:19:00,12:19:00,24,10,0,0
55,12:24:00,12:24:00,25,11,0,0
55,12:27:00,12:27:00,26,12,0,0
55,12:28:00,12:28:00,0,13,0,0
56,09:40:00,09:40:00,0,1,0,0
56,09:42:00,09:42:00,1,2,0,0
56,09:43:00,09:43:00,2,3,0,0
56,09:46:00,09:46:00,18,4,0,0
56,09:50:00,09:50:00,19,5,0,0
56,09:51:00,09:51:00,20,6,0,0
56,09:52:00,09:52:00,21,7,0,0
56,09:57:00,09:57:00,22,8,0,0
56,09:58:00,09:58:00,23,9,0,0
56,09:59:00,09:59:00,24,10,0,0
56,10:04:00,10:04:00,25,11,0,0
56,10:07:00,10:07:00,26,12,0,0
56,10:08:00,10:08:00,0,13,0,0
57,13:35:00,13:35:00,0,1,0,0
57,13:37:00,13:37:00,1,2,0,0
57,13:37:00,13:37:00,17,3,0,0
57,13:38:00,13:38:00,27,4,0,0
57,13:38:00,13:38:00,28,5,0,0
57,13:39:00,13:39:00,29,6,0,0
57,13:39:00,13:39:00,30,7,0,0
57,13:49:00,13:49:00,31,8,0,0
57,13:51:00,13:51:00,32,9,0,0
58,10:26:00,10:26:00,32,1,0,0
58,10:27:00,10:27:00,33,2,0,0
58,10:28:00,10:28:00,34,3,0,0
58,10:28:00,10:28:00,35,4,0,0
58,10:38:00,10:38:00,10,5,0,0
58,10:39:00,10:39:00,11,6,0,0
58,10:40:00,10:40:00,12,7,0,0
58,10:40:00,10:40:00,13,8,0,0
58,10:42:00,10:42:00,14,9,0,0
58,10:44:00,10:44:00,9,10,0,0
58,10:46:00,10:46:00,0,11,0,0
59,13:51:00,13:51:00,32,1,0,0
59,13:52:00,13:52:00,33,2,0,0
59,13:53:00,13:53:00,34,3,0,0
59,13:53:00,13:53:00,35,4,0,0
59,14:03:00,14:03:00,10,5,0,0
59,14:04:00,14:04:00,11,6,0,0
59,14:05:00,14:05:00,12,7,0,0
59,14:05:00,14:05:00,13,8,0,0
59,14:07:00,14:07:00,14,9,0,0
59,14:09:00,14:09:00,9,10,0,0
59,14:11:00,14:11:00,0,11,0,0
60,10:10:00,10:10:00,0,1,0,0
60,10:12:00,10:12:00,1,2,0,0
60,10:12:00,10:12:00,17,3,0,0
60,10:13:00,10:13:00,27,4,0,0
60,10:13:00,10:13:00,28,5,0,0
60,10:14:00,10:14:00,29,6,0,0
60,10:14:00,10:14:00,30,7,0,0
60,10:24:00,10:24:00,31,8,0,0
60,10:26:00,10:26:00,32,9,0,0
61,11:35:00,11:35:00,0,1,0,0
61,11:38:00,11:38:00,36,2,0,0
61,11:39:00,11:39:00,37,3,0,0
61,11:42:00,11:42:00,38,4,0,0
61,11:42:00,11:42:00,39,5,0,0
61,11:43:00,11:43:00,40,6,0,0
61,11:43:00,11:43:00,41,7,0,0
61,11:44:00,11:44:00,42,8,0,0
61,11:47:00,11:47:00,43,9,0,0
61,11:50:00,11:50:00,44,10,0,0
61,11:53:00,11:53:00,45,11,0,0
61,11:54:00,11:54:00,46,12,0,0
61,11:57:00,11:57:00,0,13,0,0
62,14:15:00,14:15:00,0,1,0,0
62,14:18:00,14:18:00,36,2,0,0
62,14:20:00,14:20:00,37,3,0,0
62,14:24:00,14:24:00,38,4,0,0
62,14:24:00,14:24:00,39,5,0,0
62,14:25:00,14:25:00,40,6,0,0
62,14:25:00,14:25:00,41,7,0,0
62,14:26:00,14:26:00,42,8,0,0
62,14:29:00,14:29:00,43,9,0,0
62,14:32:00,14:32:00,44,10,0,0
62,14:35:00,14:35:00,45,11,0,0
62,14:36:00,14:36:00,46,12,0,0
62,14:39:00,14:39:00,0,13,0,0
63,15:40:00,15:40:00,0,1,0,0
63,15:43:00,15:43:00,36,2,0,0
63,15:45:00,15:45:00,37,3,0,0
63,15:49:00,15:49:00,38,4,0,0
63,15:49:00,15:49:00,39,5,0,0
63,15:50:00,15:50:00,40,6,0,0
63,15:50:00,15:50:00,41,7,0,0
63,15:51:00,15:51:00,42,8,0,0
63,15:54:00,15:54:00,43,9,0,0
63,15:57:00,15:57:00,44,10,0,0
63,16:00:00,16:00:00,45,11,0,0
63,16:01:00,16:01:00,46,12,0,0
63,16:04:00,16:04:00,0,13,0,0
64,08:55:00,08:55:00,0,1,0,0
64,08:58:00,08:58:00,36,2,0,0
64,08:59:00,08:59:00,37,3,0,0
64,09:02:00,09:02:00,38,4,0,0
64,09:02:00,09:02:00,39,5,0,0
64,09:03:00,09:03:00,40,6,0,0
64,09:03:00,09:03:00,41,7,0,0
64,09:04:00,09:04:00,42,8,0,0
64,09:07:00,09:07:00,43,9,0,0
64,09:09:00,09:09:00,44,10,0,0
64,09:13:00,09:13:00,45,11,0,0
64,09:13:00,09:13:00,46,12,0,0
64,09:15:00,09:15:00,0,13,0,0
65,07:00:00,07:00:00,59,1,0,0
65,07:20:00,07:20:00,60,2,0,0
65,07:33:00,07:33:00,58,3,0,0
65,07:40:00,07:40:00,57,4,0,0
65,07:45:00,07:45:00,56,5,0,0
65,07:46:00,07:46:00,61,6,0,0
65,08:00:00,08:00:00,54,7,0,0
65,08:20:00,08:20:00,52,8,0,0
65,08:22:00,08:22:00,51,9,0,0
65,08:34:00,08:34:00,62,10,0,0
65,08:45:00,08:45:00,63,11,0,0
65,08:46:00,08:46:00,48,12,0,0
65,08:50:00,08:50:00,47,13,0,0
66,09:25:00,09:25:00,59,1,0,0
66,09:45:00,09:45:00,60,2,0,0
66,09:58:00,09:58:00,58,3,0,0
66,10:05:00,10:05:00,57,4,0,0
66,10:10:00,10:10:00,56,5,0,0
66,10:11:00,10:11:00,61,6,0,0
66,10:25:00,10:25:00,54,7,0,0
66,10:45:00,10:45:00,52,8,0,0
66,10:47:00,10:47:00,51,9,0,0
66,10:59:00,10:59:00,62,10,0,0
66,11:10:00,11:10:00,63,11,0,0
66,11:11:00,11:11:00,48,12,0,0
66,11:15:00,11:15:00,47,13,0,0
67,15:30:00,15:30:00,59,1,0,0
67,15:50:00,15:50:00,60,2,0,0
67,16:03:00,16:03:00,58,3,0,0
67,16:10:00,16:10:00,57,4,0,0
67,16:15:00,16:15:00,56,5,0,0
67,16:16:00,16:16:00,61,6,0,0
67,16:30:00,16:30:00,54,7,0,0
67,16:50:00,16:50:00,52,8,0,0
67,16:52:00,16:52:00,51,9,0,0
67,17:04:00,17:04:00,62,10,0,0
67,17:15:00,17:15:00,63,11,0,0
67,17:16:00,17:16:00,48,12,0,0
67,17:20:00,17:20:00,47,13,0,0
68,06:00:00,06:00:00,47,1,0,0
68,06:04:00,06:04:00,48,2,0,0
68,06:05:00,06:05:00,49,3,0,0
68,06:16:00,06:16:00,50,4,0,0
68,06:28:00,06:28:00,51,5,0,0
68,06:30:00,06:30:00,52,6,0,0
68,06:47:00,06:47:00,53,7,0,0
68,06:50:00,06:50:00,54,8,0,0
68,07:07:00,07:07:00,55,9,0,0
68,07:08:00,07:08:00,56,10,0,0
68,07:15:00,07:15:00,57,11,0,0
68,08:01:00,08:01:00,68,12,0,0
68,08:12:00,08:12:00,69,13,0,0
68,08:37:00,08:37:00,70,14,0,0
68,08:39:00,08:39:00,71,15,0,0
68,08:46:00,08:46:00,72,16,0,0
68,08:50:00,08:50:00,59,17,0,0
69,09:15:00,09:15:00,47,1,0,0
69,09:19:00,09:19:00,48,2,0,0
69,09:20:00,09:20:00,49,3,0,0
69,09:31:00,09:31:00,50,4,0,0
69,09:43:00,09:43:00,51,5,0,0
69,09:45:00,09:45:00,52,6,0,0
69,10:02:00,10:02:00,53,7,0,0
69,10:05:00,10:05:00,54,8,0,0
69,10:19:00,10:19:00,55,9,0,0
69,10:20:00,10:20:00,56,10,0,0
69,10:25:00,10:25:00,57,11,0,0
69,10:34:00,10:34:00,58,12,0,0
69,11:15:00,11:15:00,59,13,0,0
70,13:00:00,13:00:00,47,1,0,0
70,13:04:00,13:04:00,48,2,0,0
70,13:05:00,13:05:00,49,3,0,0
70,13:16:00,13:16:00,50,4,0,0
70,13:28:00,13:28:00,51,5,0,0
70,13:30:00,13:30:00,52,6,0,0
70,13:47:00,13:47:00,53,7,0,0
70,13:50:00,13:50:00,54,8,0,0
70,14:04:00,14:04:00,55,9,0,0
70,14:05:00,14:05:00,56,10,0,0
70,14:10:00,14:10:00,57,11,0,0
70,14:19:00,14:19:00,58,12,0,0
70,15:00:00,15:00:00,59,13,0,0
71,15:00:00,15:00:00,59,1,0,0
71,15:03:00,15:03:00,64,2,0,1
71,15:04:00,15:04:00,65,3,0,1
71,15:21:00,15:21:00,66,4,0,1
71,15:30:00,15:30:00,60,5,0,0
71,15:50:00,15:50:00,57,6,0,0
72,16:00:00,16:00:00,57,1,0,0
72,16:23:00,16:23:00,67,2,0,0
72,16:45:00,16:45:00,59,3,0,0
