trip_id,arrival_time,departure_time,stop_id,stop_sequence,pickup_type,drop_off_type
0,13:00:00,13:00:00,0,1,0,0
0,13:02:00,13:02:00,1,2,0,0
0,13:04:00,13:04:00,2,3,0,0
0,13:06:00,13:06:00,3,4,0,0
0,13:06:00,13:06:00,4,5,0,0
0,13:07:00,13:07:00,5,6,0,0
0,13:11:00,13:11:00,6,7,0,0
0,13:12:00,13:12:00,7,8,0,0
0,13:13:00,13:13:00,8,9,0,0
0,13:14:00,13:14:00,9,10,0,0
0,13:14:00,13:14:00,10,11,0,0
0,13:15:00,13:15:00,11,12,0,0
0,13:16:00,13:16:00,12,13,0,0
0,13:18:00,13:18:00,13,14,0,0
0,13:20:00,13:20:00,14,15,0,0
1,09:00:00,09:00:00,0,1,0,0
1,09:02:00,09:02:00,1,2,0,0
1,09:04:00,09:04:00,2,3,0,0
1,09:06:00,09:06:00,3,4,0,0
1,09:06:00,09:06:00,4,5,0,0
1,09:07:00,09:07:00,5,6,0,0
1,09:11:00,09:11:00,6,7,0,0
1,09:12:00,09:12:00,7,8,0,0
1,09:13:00,09:13:00,8,9,0,0
1,09:14:00,09:14:00,9,10,0,0
1,09:14:00,09:14:00,10,11,0,0
1,09:15:00,09:15:00,11,12,0,0
1,09:16:00,09:16:00,12,13,0,0
1,09:18:00,09:18:00,13,14,0,0
1,09:20:00,09:20:00,14,15,0,0
2,11:00:00,11:00:00,0,1,0,0
2,11:02:00,11:02:00,1,2,0,0
2,11:04:00,11:04:00,2,3,0,0
2,11:06:00,11:06:00,3,4,0,0
2,11:06:00,11:06:00,4,5,0,0
2,11:07:00,11:07:00,5,6,0,0
2,11:11:00,11:11:00,6,7,0,0
2,11:12:00,11:12:00,7,8,0,0
2,11:13:00,11:13:00,8,9,0,0
2,11:14:00,11:14:00,9,10,0,0
2,11:14:00,11:14:00,10,11,0,0
2,11:15:00,11:15:00,11,12,0,0
2,11:16:00,11:16:00,12,13,0,0
2,11:18:00,11:18:00,13,14,0,0
2,11:20:00,11:20:00,14,15,0,0
3,14:30:00,14:30:00,0,1,0,0
3,14:32:00,14:32:00,1,2,0,0
3,14:33:00,14:33:00,15,3,0,0
3,14:34:00,14:34:00,16,4,0,0
3,14:35:00,14:35:00,17,5,0,0
3,14:36:00,14:36:00,18,6,0,0
3,14:37:00,14:37:00,19,7,0,0
3,14:38:00,14:38:00,20,8,0,0
3,14:40:00,14:40:00,21,9,0,0
3,14:40:00,14:40:00,22,10,0,0
3,14:40:00,14:40:00,23,11,0,0
3,14:41:00,14:41:00,24,12,0,0
3,14:42:00,14:42:00,25,13,0,0
3,14:43:00,14:43:00,26,14,0,0
3,14:44:00,14:44:00,27,15,0,0
3,14:46:00,14:46:00,14,16,0,0
4,09:30:00,09:30:00,0,1,0,0
4,09:32:00,09:32:00,1,2,0,0
4,09:33:00,09:33:00,15,3,0,0
4,09:34:00,09:34:00,16,4,0,0
4,09:35:00,09:35:00,17,5,0,0
4,09:36:00,09:36:00,18,6,0,0
4,09:37:00,09:37:00,19,7,0,0
4,09:38:00,09:38:00,20,8,0,0
4,09:40:00,09:40:00,21,9,0,0
4,09:40:00,09:40:00,22,10,0,0
4,09:40:00,09:40:00,23,11,0,0
4,09:41:00,09:41:00,24,12,0,0
4,09:42:00,09:42:00,25,13,0,0
4,09:43:00,09:43:00,26,14,0,0
4,09:44:00,09:44:00,27,15,0,0
4,09:46:00,09:46:00,14,16,0,0
5,11:00:00,11:00:00,0,1,0,0
5,11:02:00,11:02:00,1,2,0,0
5,11:03:00,11:03:00,15,3,0,0
5,11:04:00,11:04:00,16,4,0,0
5,11:05:00,11:05:00,17,5,0,0
5,11:06:00,11:06:00,18,6,0,0
5,11:07:00,11:07:00,19,7,0,0
5,11:08:00,11:08:00,20,8,0,0
5,11:10:00,11:10:00,21,9,0,0
5,11:10:00,11:10:00,22,10,0,0
5,11:10:00,11:10:00,23,11,0,0
5,11:11:00,11:11:00,24,12,0,0
5,11:12:00,11:12:00,25,13,0,0
5,11:13:00,11:13:00,26,14,0,0
5,11:14:00,11:14:00,27,15,0,0
5,11:16:00,11:16:00,14,16,0,0
6,13:30:00,13:30:00,14,1,0,0
6,13:31:00,13:31:00,28,2,0,0
6,13:33:00,13:33:00,29,3,0,0
6,13:34:00,13:34:00,30,4,0,0
6,13:35:00,13:35:00,31,5,0,0
6,13:37:00,13:37:00,32,6,0,0
6,13:38:00,13:38:00,33,7,0,0
6,13:40:00,13:40:00,34,8,0,0
6,13:40:00,13:40:00,35,9,0,0
6,13:42:00,13:42:00,36,10,0,0
6,13:43:00,13:43:00,37,11,0,0
6,13:47:00,13:47:00,38,12,0,0
6,13:49:00,13:49:00,39,13,0,0
6,13:52:00,13:52:00,0,14,0,0
6,13:55:00,13:55:00,14,15,0,0
7,09:30:00,09:30:00,14,1,0,0
7,09:31:00,09:31:00,28,2,0,0
7,09:33:00,09:33:00,29,3,0,0
7,09:34:00,09:34:00,30,4,0,0
7,09:35:00,09:35:00,31,5,0,0
7,09:37:00,09:37:00,32,6,0,0
7,09:38:00,09:38:00,33,7,0,0
7,09:40:00,09:40:00,34,8,0,0
7,09:40:00,09:40:00,35,9,0,0
7,09:42:00,09:42:00,36,10,0,0
7,09:43:00,09:43:00,37,11,0,0
7,09:47:00,09:47:00,38,12,0,0
7,09:49:00,09:49:00,39,13,0,0
7,09:52:00,09:52:00,0,14,0,0
7,09:55:00,09:55:00,14,15,0,0
8,11:30:00,11:30:00,14,1,0,0
8,11:31:00,11:31:00,28,2,0,0
8,11:33:00,11:33:00,29,3,0,0
8,11:34:00,11:34:00,30,4,0,0
8,11:35:00,11:35:00,31,5,0,0
8,11:37:00,11:37:00,32,6,0,0
8,11:38:00,11:38:00,33,7,0,0
8,11:40:00,11:40:00,34,8,0,0
8,11:40:00,11:40:00,35,9,0,0
8,11:42:00,11:42:00,36,10,0,0
8,11:43:00,11:43:00,37,11,0,0
8,11:47:00,11:47:00,38,12,0,0
8,11:49:00,11:49:00,39,13,0,0
8,11:52:00,11:52:00,0,14,0,0
8,11:55:00,11:55:00,14,15,0,0
9,10:00:00,10:00:00,14,1,0,0
9,10:01:00,10:01:00,28,2,0,0
9,10:04:00,10:04:00,40,3,0,0
9,10:08:00,10:08:00,41,4,0,0
9,10:10:00,10:10:00,42,5,0,0
9,10:11:00,10:11:00,43,6,0,0
9,10:13:00,10:13:00,44,7,0,0
9,10:14:00,10:14:00,45,8,0,0
9,10:16:00,10:16:00,29,9,0,0
9,10:17:00,10:17:00,30,10,0,0
9,10:19:00,10:19:00,27,11,0,0
9,10:21:00,10:21:00,46,12,0,0
9,10:22:00,10:22:00,0,13,0,0
10,11:30:00,11:30:00,14,1,0,0
10,11:31:00,11:31:00,28,2,0,0
10,11:34:00,11:34:00,40,3,0,0
10,11:38:00,11:38:00,41,4,0,0
10,11:40:00,11:40:00,42,5,0,0
10,11:41:00,11:41:00,43,6,0,0
10,11:43:00,11:43:00,44,7,0,0
10,11:44:00,11:44:00,45,8,0,0
10,11:46:00,11:46:00,29,9,0,0
10,11:47:00,11:47:00,30,10,0,0
10,11:49:00,11:49:00,27,11,0,0
10,11:51:00,11:51:00,28,12,0,0
11,14:00:00,14:00:00,14,1,0,0
11,14:01:00,14:01:00,28,2,0,0
11,14:03:00,14:03:00,29,3,0,0
11,14:04:00,14:04:00,47,4,0,0
11,14:05:00,14:05:00,48,5,0,0
11,14:06:00,14:06:00,49,6,0,0
11,14:07:00,14:07:00,50,7,0,0
11,14:09:00,14:09:00,51,8,0,0
11,14:12:00,14:12:00,52,9,0,0
11,14:13:00,14:13:00,53,10,0,0
11,14:14:00,14:14:00,54,11,0,0
11,14:15:00,14:15:00,55,12,0,0
12,10:00:00,10:00:00,14,1,0,0
12,10:01:00,10:01:00,28,2,0,0
12,10:03:00,10:03:00,29,3,0,0
12,10:04:00,10:04:00,47,4,0,0
12,10:05:00,10:05:00,48,5,0,0
12,10:06:00,10:06:00,49,6,0,0
12,10:07:00,10:07:00,50,7,0,0
12,10:09:00,10:09:00,51,8,0,0
12,10:12:00,10:12:00,52,9,0,0
12,10:13:00,10:13:00,53,10,0,0
12,10:14:00,10:14:00,54,11,0,0
12,10:15:00,10:15:00,55,12,0,0
13,12:00:00,12:00:00,14,1,0,0
13,12:01:00,12:01:00,28,2,0,0
13,12:03:00,12:03:00,29,3,0,0
13,12:04:00,12:04:00,47,4,0,0
13,12:05:00,12:05:00,48,5,0,0
13,12:06:00,12:06:00,49,6,0,0
13,12:07:00,12:07:00,50,7,0,0
13,12:09:00,12:09:00,51,8,0,0
13,12:12:00,12:12:00,52,9,0,0
13,12:13:00,12:13:00,53,10,0,0
13,12:14:00,12:14:00,54,11,0,0
13,12:15:00,12:15:00,55,12,0,0
14,15:40:00,15:40:00,56,1,0,0
14,15:41:00,15:41:00,57,2,0,0
14,16:05:00,16:05:00,58,3,0,0
14,16:07:00,16:07:00,59,4,0,0
14,16:09:00,16:09:00,60,5,0,0
14,16:30:00,16:30:00,61,6,0,0
15,13:20:00,13:20:00,0,1,0,0
15,13:23:00,13:23:00,50,2,0,0
15,13:45:00,13:45:00,62,3,0,0
15,13:45:00,13:45:00,63,4,0,0
15,14:25:00,14:25:00,61,5,0,0
15,14:35:00,14:35:00,64,6,0,0
15,14:47:00,14:47:00,60,7,0,0
15,15:35:00,15:35:00,65,8,0,0
16,07:09:00,07:09:00,65,1,0,0
16,07:18:00,07:18:00,56,2,0,0
16,07:18:00,07:18:00,57,3,0,0
16,07:36:00,07:36:00,58,4,0,0
16,07:36:00,07:36:00,66,5,0,0
16,07:38:00,07:38:00,67,6,0,0
16,07:38:00,07:38:00,59,7,0,0
16,07:39:00,07:39:00,68,8,0,0
16,07:40:00,07:40:00,60,9,0,0
16,07:50:00,07:50:00,64,10,0,0
16,08:00:00,08:00:00,61,11,0,0
16,08:25:00,08:25:00,69,12,0,0
16,08:25:00,08:25:00,70,13,0,0
16,08:45:00,08:45:00,34,14,0,0
16,08:45:00,08:45:00,35,15,0,0
16,08:47:00,08:47:00,36,16,0,0
16,08:48:00,08:48:00,71,17,0,0
16,08:50:00,08:50:00,50,18,0,0
16,09:00:00,09:00:00,0,19,0,0
17,14:16:00,14:16:00,55,1,0,0
17,14:27:00,14:27:00,72,2,0,0
17,14:30:00,14:30:00,73,3,0,0
17,14:31:00,14:31:00,74,4,0,0
17,14:32:00,14:32:00,75,5,0,0
17,14:32:00,14:32:00,76,6,0,0
17,14:32:00,14:32:00,77,7,0,0
17,14:33:00,14:33:00,78,8,0,0
17,14:36:00,14:36:00,79,9,0,0
17,14:37:00,14:37:00,80,10,0,0
17,14:38:00,14:38:00,81,11,0,0
17,14:40:00,14:40:00,50,12,0,0
17,14:45:00,14:45:00,0,13,0,0
18,10:16:00,10:16:00,55,1,0,0
18,10:27:00,10:27:00,72,2,0,0
18,10:30:00,10:30:00,73,3,0,0
18,10:31:00,10:31:00,74,4,0,0
18,10:32:00,10:32:00,75,5,0,0
18,10:32:00,10:32:00,76,6,0,0
18,10:32:00,10:32:00,77,7,0,0
18,10:33:00,10:33:00,78,8,0,0
18,10:36:00,10:36:00,79,9,0,0
18,10:37:00,10:37:00,80,10,0,0
18,10:38:00,10:38:00,81,11,0,0
18,10:40:00,10:40:00,50,12,0,0
18,10:45:00,10:45:00,0,13,0,0
19,12:16:00,12:16:00,55,1,0,0
19,12:27:00,12:27:00,72,2,0,0
19,12:30:00,12:30:00,73,3,0,0
19,12:31:00,12:31:00,74,4,0,0
19,12:32:00,12:32:00,75,5,0,0
19,12:32:00,12:32:00,76,6,0,0
19,12:32:00,12:32:00,77,7,0,0
19,12:33:00,12:33:00,78,8,0,0
19,12:36:00,12:36:00,79,9,0,0
19,12:37:00,12:37:00,80,10,0,0
19,12:38:00,12:38:00,81,11,0,0
19,12:40:00,12:40:00,50,12,0,0
19,12:45:00,12:45:00,0,13,0,0
20,14:00:00,14:00:00,0,1,0,0
20,14:04:00,14:04:00,82,2,0,0
20,14:05:00,14:05:00,83,3,0,0
20,14:06:00,14:06:00,84,4,0,0
20,14:07:00,14:07:00,85,5,0,0
20,14:08:00,14:08:00,86,6,0,0
20,14:09:00,14:09:00,87,7,0,0
20,14:11:00,14:11:00,88,8,0,0
20,14:13:00,14:13:00,89,9,0,0
20,14:13:00,14:13:00,90,10,0,0
20,14:14:00,14:14:00,91,11,0,0
20,14:15:00,14:15:00,92,12,0,0
20,14:16:00,14:16:00,93,13,0,0
20,14:16:00,14:16:00,94,14,0,0
20,14:17:00,14:17:00,95,15,0,0
20,14:20:00,14:20:00,0,16,0,0
21,16:00:00,16:00:00,0,1,0,0
21,16:04:00,16:04:00,82,2,0,0
21,16:05:00,16:05:00,83,3,0,0
21,16:06:00,16:06:00,84,4,0,0
21,16:07:00,16:07:00,85,5,0,0
21,16:08:00,16:08:00,86,6,0,0
21,16:09:00,16:09:00,87,7,0,0
21,16:11:00,16:11:00,88,8,0,0
21,16:13:00,16:13:00,89,9,0,0
21,16:13:00,16:13:00,90,10,0,0
21,16:14:00,16:14:00,91,11,0,0
21,16:15:00,16:15:00,92,12,0,0
21,16:16:00,16:16:00,93,13,0,0
21,16:16:00,16:16:00,94,14,0,0
21,16:17:00,16:17:00,95,15,0,0
21,16:20:00,16:20:00,0,16,0,0
22,09:00:00,09:00:00,0,1,0,0
22,09:04:00,09:04:00,82,2,0,0
22,09:05:00,09:05:00,83,3,0,0
22,09:06:00,09:06:00,84,4,0,0
22,09:07:00,09:07:00,85,5,0,0
22,09:08:00,09:08:00,86,6,0,0
22,09:09:00,09:09:00,87,7,0,0
22,09:11:00,09:11:00,88,8,0,0
22,09:13:00,09:13:00,89,9,0,0
22,09:13:00,09:13:00,90,10,0,0
22,09:14:00,09:14:00,91,11,0,0
22,09:15:00,09:15:00,92,12,0,0
22,09:16:00,09:16:00,93,13,0,0
22,09:16:00,09:16:00,94,14,0,0
22,09:17:00,09:17:00,95,15,0,0
22,09:20:00,09:20:00,0,16,0,0
23,10:30:00,10:30:00,0,1,0,0
23,10:34:00,10:34:00,82,2,0,0
23,10:35:00,10:35:00,83,3,0,0
23,10:36:00,10:36:00,84,4,0,0
23,10:37:00,10:37:00,85,5,0,0
23,10:38:00,10:38:00,86,6,0,0
23,10:39:00,10:39:00,87,7,0,0
23,10:41:00,10:41:00,88,8,0,0
23,10:43:00,10:43:00,89,9,0,0
23,10:43:00,10:43:00,90,10,0,0
23,10:44:00,10:44:00,91,11,0,0
23,10:45:00,10:45:00,92,12,0,0
23,10:46:00,10:46:00,93,13,0,0
23,10:46:00,10:46:00,94,14,0,0
23,10:47:00,10:47:00,95,15,0,0
23,10:50:00,10:50:00,0,16,0,0
24,08:32:00,08:32:00,0,1,0,0
24,08:33:00,08:33:00,1,2,0,0
24,08:34:00,08:34:00,2,3,0,0
24,08:36:00,08:36:00,3,4,0,0
24,08:36:00,08:36:00,4,5,0,0
24,08:37:00,08:37:00,5,6,0,0
24,08:40:00,08:40:00,96,7,0,0
24,08:42:00,08:42:00,6,8,0,0
24,08:42:00,08:42:00,7,9,0,0
24,08:42:00,08:42:00,8,10,0,0
24,08:43:00,08:43:00,17,11,0,0
24,08:43:00,08:43:00,18,12,0,0
24,08:47:00,08:47:00,32,13,0,0
24,08:48:00,08:48:00,33,14,0,0
24,08:50:00,08:50:00,34,15,0,0
24,08:50:00,08:50:00,35,16,0,0
24,08:52:00,08:52:00,36,17,0,0
24,08:53:00,08:53:00,71,18,0,0
24,08:55:00,08:55:00,0,19,0,0
25,16:00:00,16:00:00,0,1,0,0
25,16:02:00,16:02:00,14,2,0,0
25,16:04:00,16:04:00,28,3,0,0
25,16:05:00,16:05:00,29,4,0,0
25,16:06:00,16:06:00,47,5,0,0
25,16:06:00,16:06:00,48,6,0,0
25,16:07:00,16:07:00,49,7,0,0
25,16:08:00,16:08:00,50,8,0,0
25,16:11:00,16:11:00,52,9,0,0
25,16:12:00,16:12:00,53,10,0,0
25,16:13:00,16:13:00,54,11,0,0
25,16:15:00,16:15:00,55,12,0,0
25,16:17:00,16:17:00,72,13,0,0
25,16:17:00,16:17:00,73,14,0,0
25,16:18:00,16:18:00,74,15,0,0
25,16:19:00,16:19:00,75,16,0,0
25,16:19:00,16:19:00,76,17,0,0
25,16:20:00,16:20:00,78,18,0,0
25,16:23:00,16:23:00,41,19,0,0
25,16:25:00,16:25:00,42,20,0,0
25,16:26:00,16:26:00,43,21,0,0
25,16:28:00,16:28:00,44,22,0,0
25,16:29:00,16:29:00,45,23,0,0
25,16:32:00,16:32:00,0,24,0,0
26,16:32:00,16:32:00,0,1,0,0
26,16:33:00,16:33:00,1,2,0,0
26,16:34:00,16:34:00,2,3,0,0
26,16:36:00,16:36:00,3,4,0,0
26,16:36:00,16:36:00,4,5,0,0
26,16:37:00,16:37:00,5,6,0,0
26,16:40:00,16:40:00,96,7,0,0
26,16:42:00,16:42:00,6,8,0,0
26,16:42:00,16:42:00,7,9,0,0
26,16:42:00,16:42:00,8,10,0,0
26,16:43:00,16:43:00,17,11,0,0
26,16:43:00,16:43:00,18,12,0,0
26,16:47:00,16:47:00,32,13,0,0
26,16:48:00,16:48:00,33,14,0,0
26,16:50:00,16:50:00,34,15,0,0
26,16:50:00,16:50:00,35,16,0,0
26,16:52:00,16:52:00,36,17,0,0
26,16:53:00,16:53:00,71,18,0,0
26,16:55:00,16:55:00,0,19,0,0
27,08:02:00,08:02:00,14,1,0,0
27,08:04:00,08:04:00,28,2,0,0
27,08:05:00,08:05:00,29,3,0,0
27,08:06:00,08:06:00,47,4,0,0
27,08:06:00,08:06:00,48,5,0,0
27,08:07:00,08:07:00,49,6,0,0
27,08:08:00,08:08:00,50,7,0,0
27,08:11:00,08:11:00,52,8,0,0
27,08:12:00,08:12:00,53,9,0,0
27,08:13:00,08:13:00,54,10,0,0
27,08:15:00,08:15:00,55,11,0,0
27,08:17:00,08:17:00,72,12,0,0
27,08:17:00,08:17:00,73,13,0,0
27,08:18:00,08:18:00,74,14,0,0
27,08:19:00,08:19:00,75,15,0,0
27,08:19:00,08:19:00,76,16,0,0
27,08:20:00,08:20:00,78,17,0,0
27,08:23:00,08:23:00,41,18,0,0
27,08:25:00,08:25:00,42,19,0,0
27,08:26:00,08:26:00,43,20,0,0
27,08:28:00,08:28:00,44,21,0,0
27,08:29:00,08:29:00,45,22,0,0
27,08:32:00,08:32:00,0,23,0,0
28,10:30:00,10:30:00,0,1,0,0
28,10:34:00,10:34:00,82,2,0,0
28,10:35:00,10:35:00,83,3,0,0
28,10:36:00,10:36:00,84,4,0,0
28,10:37:00,10:37:00,85,5,0,0
28,10:38:00,10:38:00,86,6,0,0
28,10:39:00,10:39:00,87,7,0,0
28,10:41:00,10:41:00,88,8,0,0
28,10:43:00,10:43:00,89,9,0,0
28,10:43:00,10:43:00,90,10,0,0
28,10:44:00,10:44:00,91,11,0,0
28,10:45:00,10:45:00,92,12,0,0
28,10:46:00,10:46:00,93,13,0,0
28,10:46:00,10:46:00,94,14,0,0
28,10:47:00,10:47:00,95,15,0,0
28,10:50:00,10:50:00,0,16,0,0
29,09:00:00,09:00:00,0,1,0,0
29,09:04:00,09:04:00,82,2,0,0
29,09:05:00,09:05:00,83,3,0,0
29,09:06:00,09:06:00,84,4,0,0
29,09:07:00,09:07:00,85,5,0,0
29,09:08:00,09:08:00,86,6,0,0
29,09:09:00,09:09:00,87,7,0,0
29,09:11:00,09:11:00,88,8,0,0
29,09:13:00,09:13:00,89,9,0,0
29,09:13:00,09:13:00,90,10,0,0
29,09:14:00,09:14:00,91,11,0,0
29,09:15:00,09:15:00,92,12,0,0
29,09:16:00,09:16:00,93,13,0,0
29,09:16:00,09:16:00,94,14,0,0
29,09:17:00,09:17:00,95,15,0,0
29,09:20:00,09:20:00,0,16,0,0
30,08:32:00,08:32:00,0,1,0,0
30,08:33:00,08:33:00,1,2,0,0
30,08:34:00,08:34:00,2,3,0,0
30,08:36:00,08:36:00,3,4,0,0
30,08:36:00,08:36:00,4,5,0,0
30,08:37:00,08:37:00,5,6,0,0
30,08:40:00,08:40:00,96,7,0,0
30,08:42:00,08:42:00,6,8,0,0
30,08:42:00,08:42:00,7,9,0,0
30,08:42:00,08:42:00,8,10,0,0
30,08:43:00,08:43:00,17,11,0,0
30,08:43:00,08:43:00,18,12,0,0
30,08:47:00,08:47:00,32,13,0,0
30,08:48:00,08:48:00,33,14,0,0
30,08:50:00,08:50:00,34,15,0,0
30,08:50:00,08:50:00,35,16,0,0
30,08:52:00,08:52:00,36,17,0,0
30,08:53:00,08:53:00,71,18,0,0
30,08:55:00,08:55:00,0,19,0,0
31,09:30:00,09:30:00,0,1,0,0
31,09:32:00,09:32:00,14,2,0,0
31,09:34:00,09:34:00,28,3,0,0
31,09:35:00,09:35:00,29,4,0,0
31,09:36:00,09:36:00,47,5,0,0
31,09:36:00,09:36:00,48,6,0,0
31,09:37:00,09:37:00,49,7,0,0
31,09:38:00,09:38:00,50,8,0,0
31,09:41:00,09:41:00,52,9,0,0
31,09:42:00,09:42:00,53,10,0,0
31,09:43:00,09:43:00,54,11,0,0
31,09:45:00,09:45:00,55,12,0,0
31,09:47:00,09:47:00,72,13,0,0
31,09:47:00,09:47:00,73,14,0,0
31,09:48:00,09:48:00,74,15,0,0
31,09:49:00,09:49:00,75,16,0,0
31,09:49:00,09:49:00,76,17,0,0
31,09:50:00,09:50:00,78,18,0,0
31,09:53:00,09:53:00,41,19,0,0
31,09:55:00,09:55:00,42,20,0,0
31,09:56:00,09:56:00,43,21,0,0
31,09:58:00,09:58:00,44,22,0,0
31,09:59:00,09:59:00,45,23,0,0
31,10:02:00,10:02:00,0,24,0,0
32,10:02:00,10:02:00,0,1,0,0
32,10:03:00,10:03:00,1,2,0,0
32,10:04:00,10:04:00,2,3,0,0
32,10:06:00,10:06:00,3,4,0,0
32,10:06:00,10:06:00,4,5,0,0
32,10:07:00,10:07:00,5,6,0,0
32,10:10:00,10:10:00,96,7,0,0
32,10:12:00,10:12:00,6,8,0,0
32,10:12:00,10:12:00,7,9,0,0
32,10:12:00,10:12:00,8,10,0,0
32,10:13:00,10:13:00,17,11,0,0
32,10:13:00,10:13:00,18,12,0,0
32,10:17:00,10:17:00,32,13,0,0
32,10:18:00,10:18:00,33,14,0,0
32,10:20:00,10:20:00,34,15,0,0
32,10:20:00,10:20:00,35,16,0,0
32,10:22:00,10:22:00,36,17,0,0
32,10:23:00,10:23:00,71,18,0,0
32,10:25:00,10:25:00,0,19,0,0
33,11:00:00,11:00:00,0,1,0,0
33,11:02:00,11:02:00,14,2,0,0
33,11:04:00,11:04:00,28,3,0,0
33,11:05:00,11:05:00,29,4,0,0
33,11:06:00,11:06:00,47,5,0,0
33,11:06:00,11:06:00,48,6,0,0
33,11:07:00,11:07:00,49,7,0,0
33,11:08:00,11:08:00,50,8,0,0
33,11:11:00,11:11:00,52,9,0,0
33,11:12:00,11:12:00,53,10,0,0
33,11:13:00,11:13:00,54,11,0,0
33,11:15:00,11:15:00,55,12,0,0
33,11:17:00,11:17:00,72,13,0,0
33,11:17:00,11:17:00,73,14,0,0
33,11:18:00,11:18:00,74,15,0,0
33,11:19:00,11:19:00,75,16,0,0
33,11:19:00,11:19:00,76,17,0,0
33,11:20:00,11:20:00,78,18,0,0
33,11:23:00,11:23:00,41,19,0,0
33,11:25:00,11:25:00,42,20,0,0
33,11:26:00,11:26:00,43,21,0,0
33,11:28:00,11:28:00,44,22,0,0
33,11:29:00,11:29:00,45,23,0,0
33,11:32:00,11:32:00,0,24,0,0
34,11:32:00,11:32:00,0,1,0,0
34,11:33:00,11:33:00,1,2,0,0
34,11:34:00,11:34:00,2,3,0,0
34,11:36:00,11:36:00,3,4,0,0
34,11:36:00,11:36:00,4,5,0,0
34,11:37:00,11:37:00,5,6,0,0
34,11:40:00,11:40:00,96,7,0,0
34,11:42:00,11:42:00,6,8,0,0
34,11:42:00,11:42:00,7,9,0,0
34,11:42:00,11:42:00,8,10,0,0
34,11:43:00,11:43:00,17,11,0,0
34,11:43:00,11:43:00,18,12,0,0
34,11:47:00,11:47:00,32,13,0,0
34,11:48:00,11:48:00,33,14,0,0
34,11:50:00,11:50:00,34,15,0,0
34,11:50:00,11:50:00,35,16,0,0
34,11:52:00,11:52:00,36,17,0,0
34,11:53:00,11:53:00,71,18,0,0
34,11:55:00,11:55:00,0,19,0,0
35,08:00:00,08:00:00,0,1,0,0
35,08:02:00,08:02:00,14,2,0,0
35,08:04:00,08:04:00,28,3,0,0
35,08:05:00,08:05:00,29,4,0,0
35,08:06:00,08:06:00,47,5,0,0
35,08:06:00,08:06:00,48,6,0,0
35,08:07:00,08:07:00,49,7,0,0
35,08:08:00,08:08:00,50,8,0,0
35,08:11:00,08:11:00,52,9,0,0
35,08:12:00,08:12:00,53,10,0,0
35,08:13:00,08:13:00,54,11,0,0
35,08:15:00,08:15:00,55,12,0,0
35,08:17:00,08:17:00,72,13,0,0
35,08:17:00,08:17:00,73,14,0,0
35,08:18:00,08:18:00,74,15,0,0
35,08:19:00,08:19:00,75,16,0,0
35,08:19:00,08:19:00,76,17,0,0
35,08:20:00,08:20:00,78,18,0,0
35,08:23:00,08:23:00,41,19,0,0
35,08:25:00,08:25:00,42,20,0,0
35,08:26:00,08:26:00,43,21,0,0
35,08:28:00,08:28:00,44,22,0,0
35,08:29:00,08:29:00,45,23,0,0
35,08:32:00,08:32:00,0,24,0,0
36,11:00:00,11:00:00,0,1,0,0
36,11:02:00,11:02:00,1,2,0,0
36,11:04:00,11:04:00,2,3,0,0
36,11:06:00,11:06:00,3,4,0,0
36,11:06:00,11:06:00,4,5,0,0
36,11:07:00,11:07:00,5,6,0,0
36,11:11:00,11:11:00,6,7,0,0
36,11:12:00,11:12:00,7,8,0,0
36,11:13:00,11:13:00,8,9,0,0
36,11:14:00,11:14:00,9,10,0,0
36,11:14:00,11:14:00,10,11,0,0
36,11:15:00,11:15:00,11,12,0,0
36,11:16:00,11:16:00,12,13,0,0
36,11:18:00,11:18:00,13,14,0,0
36,11:20:00,11:20:00,14,15,0,0
37,13:00:00,13:00:00,0,1,0,0
37,13:02:00,13:02:00,1,2,0,0
37,13:04:00,13:04:00,2,3,0,0
37,13:06:00,13:06:00,3,4,0,0
37,13:06:00,13:06:00,4,5,0,0
37,13:07:00,13:07:00,5,6,0,0
37,13:11:00,13:11:00,6,7,0,0
37,13:12:00,13:12:00,7,8,0,0
37,13:13:00,13:13:00,8,9,0,0
37,13:14:00,13:14:00,9,10,0,0
37,13:14:00,13:14:00,10,11,0,0
37,13:15:00,13:15:00,11,12,0,0
37,13:16:00,13:16:00,12,13,0,0
37,13:18:00,13:18:00,13,14,0,0
37,13:20:00,13:20:00,14,15,0,0
38,09:00:00,09:00:00,0,1,0,0
38,09:02:00,09:02:00,1,2,0,0
38,09:04:00,09:04:00,2,3,0,0
38,09:06:00,09:06:00,3,4,0,0
38,09:06:00,09:06:00,4,5,0,0
38,09:07:00,09:07:00,5,6,0,0
38,09:11:00,09:11:00,6,7,0,0
38,09:12:00,09:12:00,7,8,0,0
38,09:13:00,09:13:00,8,9,0,0
38,09:14:00,09:14:00,9,10,0,0
38,09:14:00,09:14:00,10,11,0,0
38,09:15:00,09:15:00,11,12,0,0
38,09:16:00,09:16:00,12,13,0,0
38,09:18:00,09:18:00,13,14,0,0
38,09:20:00,09:20:00,14,15,0,0
39,11:00:00,11:00:00,0,1,0,0
39,11:02:00,11:02:00,1,2,0,0
39,11:03:00,11:03:00,15,3,0,0
39,11:04:00,11:04:00,16,4,0,0
39,11:05:00,11:05:00,17,5,0,0
39,11:06:00,11:06:00,18,6,0,0
39,11:07:00,11:07:00,19,7,0,0
39,11:08:00,11:08:00,20,8,0,0
39,11:10:00,11:10:00,21,9,0,0
39,11:10:00,11:10:00,22,10,0,0
39,11:10:00,11:10:00,23,11,0,0
39,11:11:00,11:11:00,24,12,0,0
39,11:12:00,11:12:00,25,13,0,0
39,11:13:00,11:13:00,26,14,0,0
39,11:14:00,11:14:00,27,15,0,0
39,11:16:00,11:16:00,14,16,0,0
40,14:30:00,14:30:00,0,1,0,0
40,14:32:00,14:32:00,1,2,0,0
40,14:33:00,14:33:00,15,3,0,0
40,14:34:00,14:34:00,16,4,0,0
40,14:35:00,14:35:00,17,5,0,0
40,14:36:00,14:36:00,18,6,0,0
40,14:37:00,14:37:00,19,7,0,0
40,14:38:00,14:38:00,20,8,0,0
40,14:40:00,14:40:00,21,9,0,0
40,14:40:00,14:40:00,22,10,0,0
40,14:40:00,14:40:00,23,11,0,0
40,14:41:00,14:41:00,24,12,0,0
40,14:42:00,14:42:00,25,13,0,0
40,14:43:00,14:43:00,26,14,0,0
40,14:44:00,14:44:00,27,15,0,0
40,14:46:00,14:46:00,14,16,0,0
41,09:30:00,09:30:00,0,1,0,0
41,09:32:00,09:32:00,1,2,0,0
41,09:33:00,09:33:00,15,3,0,0
41,09:34:00,09:34:00,16,4,0,0
41,09:35:00,09:35:00,17,5,0,0
41,09:36:00,09:36:00,18,6,0,0
41,09:37:00,09:37:00,19,7,0,0
41,09:38:00,09:38:00,20,8,0,0
41,09:40:00,09:40:00,21,9,0,0
41,09:40:00,09:40:00,22,10,0,0
41,09:40:00,09:40:00,23,11,0,0
41,09:41:00,09:41:00,24,12,0,0
41,09:42:00,09:42:00,25,13,0,0
41,09:43:00,09:43:00,26,14,0,0
41,09:44:00,09:44:00,27,15,0,0
41,09:46:00,09:46:00,14,16,0,0
42,11:30:00,11:30:00,14,1,0,0
42,11:31:00,11:31:00,28,2,0,0
42,11:33:00,11:33:00,29,3,0,0
42,11:34:00,11:34:00,30,4,0,0
42,11:35:00,11:35:00,31,5,0,0
42,11:37:00,11:37:00,32,6,0,0
42,11:38:00,11:38:00,33,7,0,0
42,11:40:00,11:40:00,34,8,0,0
42,11:40:00,11:40:00,35,9,0,0
42,11:42:00,11:42:00,36,10,0,0
42,11:43:00,11:43:00,37,11,0,0
42,11:47:00,11:47:00,38,12,0,0
42,11:49:00,11:49:00,39,13,0,0
42,11:52:00,11:52:00,0,14,0,0
42,11:55:00,11:55:00,14,15,0,0
43,13:30:00,13:30:00,14,1,0,0
43,13:31:00,13:31:00,28,2,0,0
43,13:33:00,13:33:00,29,3,0,0
43,13:34:00,13:34:00,30,4,0,0
43,13:35:00,13:35:00,31,5,0,0
43,13:37:00,13:37:00,32,6,0,0
43,13:38:00,13:38:00,33,7,0,0
43,13:40:00,13:40:00,34,8,0,0
43,13:40:00,13:40:00,35,9,0,0
43,13:42:00,13:42:00,36,10,0,0
43,13:43:00,13:43:00,37,11,0,0
43,13:47:00,13:47:00,38,12,0,0
43,13:49:00,13:49:00,39,13,0,0
43,13:52:00,13:52:00,0,14,0,0
43,13:55:00,13:55:00,14,15,0,0
44,09:30:00,09:30:00,14,1,0,0
44,09:31:00,09:31:00,28,2,0,0
44,09:33:00,09:33:00,29,3,0,0
44,09:34:00,09:34:00,30,4,0,0
44,09:35:00,09:35:00,31,5,0,0
44,09:37:00,09:37:00,32,6,0,0
44,09:38:00,09:38:00,33,7,0,0
44,09:40:00,09:40:00,34,8,0,0
44,09:40:00,09:40:00,35,9,0,0
44,09:42:00,09:42:00,36,10,0,0
44,09:43:00,09:43:00,37,11,0,0
44,09:47:00,09:47:00,38,12,0,0
44,09:49:00,09:49:00,39,13,0,0
44,09:52:00,09:52:00,0,14,0,0
44,09:55:00,09:55:00,14,15,0,0
45,11:30:00,11:30:00,14,1,0,0
45,11:31:00,11:31:00,28,2,0,0
45,11:34:00,11:34:00,40,3,0,0
45,11:38:00,11:38:00,41,4,0,0
45,11:40:00,11:40:00,42,5,0,0
45,11:41:00,11:41:00,43,6,0,0
45,11:43:00,11:43:00,44,7,0,0
45,11:44:00,11:44:00,45,8,0,0
45,11:46:00,11:46:00,29,9,0,0
45,11:47:00,11:47:00,30,10,0,0
45,11:49:00,11:49:00,27,11,0,0
45,11:51:00,11:51:00,28,12,0,0
46,10:00:00,10:00:00,14,1,0,0
46,10:01:00,10:01:00,28,2,0,0
46,10:04:00,10:04:00,40,3,0,0
46,10:08:00,10:08:00,41,4,0,0
46,10:10:00,10:10:00,42,5,0,0
46,10:11:00,10:11:00,43,6,0,0
46,10:13:00,10:13:00,44,7,0,0
46,10:14:00,10:14:00,45,8,0,0
46,10:16:00,10:16:00,29,9,0,0
46,10:17:00,10:17:00,30,10,0,0
46,10:19:00,10:19:00,27,11,0,0
46,10:21:00,10:21:00,46,12,0,0
46,10:22:00,10:22:00,0,13,0,0
47,12:00:00,12:00:00,14,1,0,0
47,12:01:00,12:01:00,28,2,0,0
47,12:03:00,12:03:00,29,3,0,0
47,12:04:00,12:04:00,47,4,0,0
47,12:05:00,12:05:00,48,5,0,0
47,12:06:00,12:06:00,49,6,0,0
47,12:07:00,12:07:00,50,7,0,0
47,12:09:00,12:09:00,51,8,0,0
47,12:12:00,12:12:00,52,9,0,0
47,12:13:00,12:13:00,53,10,0,0
47,12:14:00,12:14:00,54,11,0,0
47,12:15:00,12:15:00,55,12,0,0
48,14:00:00,14:00:00,14,1,0,0
48,14:01:00,14:01:00,28,2,0,0
48,14:03:00,14:03:00,29,3,0,0
48,14:04:00,14:04:00,47,4,0,0
48,14:05:00,14:05:00,48,5,0,0
48,14:06:00,14:06:00,49,6,0,0
48,14:07:00,14:07:00,50,7,0,0
48,14:09:00,14:09:00,51,8,0,0
48,14:12:00,14:12:00,52,9,0,0
48,14:13:00,14:13:00,53,10,0,0
48,14:14:00,14:14:00,54,11,0,0
48,14:15:00,14:15:00,55,12,0,0
49,10:00:00,10:00:00,14,1,0,0
49,10:01:00,10:01:00,28,2,0,0
49,10:03:00,10:03:00,29,3,0,0
49,10:04:00,10:04:00,47,4,0,0
49,10:05:00,10:05:00,48,5,0,0
49,10:06:00,10:06:00,49,6,0,0
49,10:07:00,10:07:00,50,7,0,0
49,10:09:00,10:09:00,51,8,0,0
49,10:12:00,10:12:00,52,9,0,0
49,10:13:00,10:13:00,53,10,0,0
49,10:14:00,10:14:00,54,11,0,0
49,10:15:00,10:15:00,55,12,0,0
50,16:40:00,16:40:00,56,1,0,0
50,16:41:00,16:41:00,57,2,0,0
50,17:05:00,17:05:00,58,3,0,0
50,17:07:00,17:07:00,59,4,0,0
50,17:09:00,17:09:00,60,5,0,0
50,17:20:00,17:20:00,61,6,0,0
51,13:20:00,13:20:00,0,1,0,0
51,13:23:00,13:23:00,50,2,0,0
51,13:45:00,13:45:00,62,3,0,0
51,13:45:00,13:45:00,63,4,0,0
51,14:25:00,14:25:00,61,5,0,0
51,14:35:00,14:35:00,64,6,0,0
51,14:47:00,14:47:00,60,7,0,0
51,15:35:00,15:35:00,65,8,0,0
52,07:09:00,07:09:00,65,1,0,0
52,07:18:00,07:18:00,56,2,0,0
52,07:18:00,07:18:00,57,3,0,0
52,07:36:00,07:36:00,58,4,0,0
52,07:36:00,07:36:00,66,5,0,0
52,07:38:00,07:38:00,67,6,0,0
52,07:38:00,07:38:00,59,7,0,0
52,07:39:00,07:39:00,68,8,0,0
52,07:40:00,07:40:00,60,9,0,0
52,07:50:00,07:50:00,64,10,0,0
52,08:00:00,08:00:00,61,11,0,0
52,08:25:00,08:25:00,69,12,0,0
52,08:25:00,08:25:00,70,13,0,0
52,08:45:00,08:45:00,34,14,0,0
52,08:45:00,08:45:00,35,15,0,0
52,08:47:00,08:47:00,36,16,0,0
52,08:48:00,08:48:00,71,17,0,0
52,08:50:00,08:50:00,50,18,0,0
52,09:00:00,09:00:00,0,19,0,0
53,12:16:00,12:16:00,55,1,0,0
53,12:27:00,12:27:00,72,2,0,0
53,12:30:00,12:30:00,73,3,0,0
53,12:31:00,12:31:00,74,4,0,0
53,12:32:00,12:32:00,75,5,0,0
53,12:32:00,12:32:00,76,6,0,0
53,12:32:00,12:32:00,77,7,0,0
53,12:33:00,12:33:00,78,8,0,0
53,12:36:00,12:36:00,79,9,0,0
53,12:37:00,12:37:00,80,10,0,0
53,12:38:00,12:38:00,81,11,0,0
53,12:40:00,12:40:00,50,12,0,0
53,12:45:00,12:45:00,0,13,0,0
54,14:16:00,14:16:00,55,1,0,0
54,14:27:00,14:27:00,72,2,0,0
54,14:30:00,14:30:00,73,3,0,0
54,14:31:00,14:31:00,74,4,0,0
54,14:32:00,14:32:00,75,5,0,0
54,14:32:00,14:32:00,76,6,0,0
54,14:32:00,14:32:00,77,7,0,0
54,14:33:00,14:33:00,78,8,0,0
54,14:36:00,14:36:00,79,9,0,0
54,14:37:00,14:37:00,80,10,0,0
54,14:38:00,14:38:00,81,11,0,0
54,14:40:00,14:40:00,50,12,0,0
54,14:45:00,14:45:00,0,13,0,0
55,10:16:00,10:16:00,55,1,0,0
55,10:27:00,10:27:00,72,2,0,0
55,10:30:00,10:30:00,73,3,0,0
55,10:31:00,10:31:00,74,4,0,0
55,10:32:00,10:32:00,75,5,0,0
55,10:32:00,10:32:00,76,6,0,0
55,10:32:00,10:32:00,77,7,0,0
55,10:33:00,10:33:00,78,8,0,0
55,10:36:00,10:36:00,79,9,0,0
55,10:37:00,10:37:00,80,10,0,0
55,10:38:00,10:38:00,81,11,0,0
55,10:40:00,10:40:00,50,12,0,0
55,10:45:00,10:45:00,0,13,0,0
56,10:30:00,10:30:00,0,1,0,0
56,10:34:00,10:34:00,82,2,0,0
56,10:35:00,10:35:00,83,3,0,0
56,10:36:00,10:36:00,84,4,0,0
56,10:37:00,10:37:00,85,5,0,0
56,10:38:00,10:38:00,86,6,0,0
56,10:39:00,10:39:00,87,7,0,0
56,10:41:00,10:41:00,88,8,0,0
56,10:43:00,10:43:00,89,9,0,0
56,10:43:00,10:43:00,90,10,0,0
56,10:44:00,10:44:00,91,11,0,0
56,10:45:00,10:45:00,92,12,0,0
56,10:46:00,10:46:00,93,13,0,0
56,10:46:00,10:46:00,94,14,0,0
56,10:47:00,10:47:00,95,15,0,0
56,10:50:00,10:50:00,0,16,0,0
57,14:00:00,14:00:00,0,1,0,0
57,14:04:00,14:04:00,82,2,0,0
57,14:05:00,14:05:00,83,3,0,0
57,14:06:00,14:06:00,84,4,0,0
57,14:07:00,14:07:00,85,5,0,0
57,14:08:00,14:08:00,86,6,0,0
57,14:09:00,14:09:00,87,7,0,0
57,14:11:00,14:11:00,88,8,0,0
57,14:13:00,14:13:00,89,9,0,0
57,14:13:00,14:13:00,90,10,0,0
57,14:14:00,14:14:00,91,11,0,0
57,14:15:00,14:15:00,92,12,0,0
57,14:16:00,14:16:00,93,13,0,0
57,14:16:00,14:16:00,94,14,0,0
57,14:17:00,14:17:00,95,15,0,0
57,14:20:00,14:20:00,0,16,0,0
58,16:00:00,16:00:00,0,1,0,0
58,16:04:00,16:04:00,82,2,0,0
58,16:05:00,16:05:00,83,3,0,0
58,16:06:00,16:06:00,84,4,0,0
58,16:07:00,16:07:00,85,5,0,0
58,16:08:00,16:08:00,86,6,0,0
58,16:09:00,16:09:00,87,7,0,0
58,16:11:00,16:11:00,88,8,0,0
58,16:13:00,16:13:00,89,9,0,0
58,16:13:00,16:13:00,90,10,0,0
58,16:14:00,16:14:00,91,11,0,0
58,16:15:00,16:15:00,92,12,0,0
58,16:16:00,16:16:00,93,13,0,0
58,16:16:00,16:16:00,94,14,0,0
58,16:17:00,16:17:00,95,15,0,0
58,16:20:00,16:20:00,0,16,0,0
59,09:00:00,09:00:00,0,1,0,0
59,09:04:00,09:04:00,82,2,0,0
59,09:05:00,09:05:00,83,3,0,0
59,09:06:00,09:06:00,84,4,0,0
59,09:07:00,09:07:00,85,5,0,0
59,09:08:00,09:08:00,86,6,0,0
59,09:09:00,09:09:00,87,7,0,0
59,09:11:00,09:11:00,88,8,0,0
59,09:13:00,09:13:00,89,9,0,0
59,09:13:00,09:13:00,90,10,0,0
59,09:14:00,09:14:00,91,11,0,0
59,09:15:00,09:15:00,92,12,0,0
59,09:16:00,09:16:00,93,13,0,0
59,09:16:00,09:16:00,94,14,0,0
59,09:17:00,09:17:00,95,15,0,0
59,09:20:00,09:20:00,0,16,0,0
60,16:32:00,16:32:00,0,1,0,0
60,16:33:00,16:33:00,1,2,0,0
60,16:34:00,16:34:00,2,3,0,0
60,16:36:00,16:36:00,3,4,0,0
60,16:36:00,16:36:00,4,5,0,0
60,16:37:00,16:37:00,5,6,0,0
60,16:40:00,16:40:00,96,7,0,0
60,16:42:00,16:42:00,6,8,0,0
60,16:42:00,16:42:00,7,9,0,0
60,16:42:00,16:42:00,8,10,0,0
60,16:43:00,16:43:00,17,11,0,0
60,16:43:00,16:43:00,18,12,0,0
60,16:47:00,16:47:00,32,13,0,0
60,16:48:00,16:48:00,33,14,0,0
60,16:50:00,16:50:00,34,15,0,0
60,16:50:00,16:50:00,35,16,0,0
60,16:52:00,16:52:00,36,17,0,0
60,16:53:00,16:53:00,71,18,0,0
60,16:55:00,16:55:00,0,19,0,0
61,16:00:00,16:00:00,0,1,0,0
61,16:02:00,16:02:00,14,2,0,0
61,16:04:00,16:04:00,28,3,0,0
61,16:05:00,16:05:00,29,4,0,0
61,16:06:00,16:06:00,47,5,0,0
61,16:06:00,16:06:00,48,6,0,0
61,16:07:00,16:07:00,49,7,0,0
61,16:08:00,16:08:00,50,8,0,0
61,16:11:00,16:11:00,52,9,0,0
61,16:12:00,16:12:00,53,10,0,0
61,16:13:00,16:13:00,54,11,0,0
61,16:15:00,16:15:00,55,12,0,0
61,16:17:00,16:17:00,72,13,0,0
61,16:17:00,16:17:00,73,14,0,0
61,16:18:00,16:18:00,74,15,0,0
61,16:19:00,16:19:00,75,16,0,0
61,16:19:00,16:19:00,76,17,0,0
61,16:20:00,16:20:00,78,18,0,0
61,16:23:00,16:23:00,41,19,0,0
61,16:25:00,16:25:00,42,20,0,0
61,16:26:00,16:26:00,43,21,0,0
61,16:28:00,16:28:00,44,22,0,0
61,16:29:00,16:29:00,45,23,0,0
61,16:32:00,16:32:00,0,24,0,0
