trip_id,arrival_time,departure_time,stop_id,stop_sequence,pickup_type,drop_off_type
0,05:30:00,05:30:00,0,1,0,0
0,05:55:00,05:55:00,1,2,0,0
1,06:30:00,06:30:00,0,1,0,0
1,06:55:00,06:55:00,1,2,0,0
2,08:45:00,08:45:00,0,1,0,0
2,09:10:00,09:10:00,1,2,0,0
3,09:30:00,09:30:00,0,1,0,0
3,09:55:00,09:55:00,1,2,0,0
4,10:30:00,10:30:00,0,1,0,0
4,10:55:00,10:55:00,1,2,0,0
5,12:55:00,12:55:00,0,1,0,0
5,13:20:00,13:20:00,1,2,0,0
6,14:15:00,14:15:00,0,1,0,0
6,14:40:00,14:40:00,1,2,0,0
7,16:30:00,16:30:00,0,1,0,0
7,16:55:00,16:55:00,1,2,0,0
8,18:00:00,18:00:00,0,1,0,0
8,18:25:00,18:25:00,1,2,0,0
9,06:00:00,06:00:00,1,1,0,0
9,06:25:00,06:25:00,0,2,0,0
10,07:10:00,07:10:00,1,1,0,0
10,07:35:00,07:35:00,0,2,0,0
11,09:25:00,09:25:00,1,1,0,0
11,09:50:00,09:50:00,0,2,0,0
12,10:15:00,10:15:00,1,1,0,0
12,10:40:00,10:40:00,0,2,0,0
13,11:10:00,11:10:00,1,1,0,0
13,11:35:00,11:35:00,0,2,0,0
14,13:35:00,13:35:00,1,1,0,0
14,14:00:00,14:00:00,0,2,0,0
15,15:00:00,15:00:00,1,1,0,0
15,15:25:00,15:25:00,0,2,0,0
16,17:10:00,17:10:00,1,1,0,0
16,17:35:00,17:35:00,0,2,0,0
17,18:40:00,18:40:00,1,1,0,0
17,19:05:00,19:05:00,0,2,0,0
18,20:30:00,20:30:00,0,1,0,0
18,20:55:00,20:55:00,1,2,0,0
19,21:00:00,21:00:00,1,1,0,0
19,21:25:00,21:25:00,0,2,0,0
20,06:30:00,06:30:00,0,1,0,0
20,06:55:00,06:55:00,1,2,0,0
21,08:45:00,08:45:00,0,1,0,0
21,09:10:00,09:10:00,1,2,0,0
22,10:30:00,10:30:00,0,1,0,0
22,10:55:00,10:55:00,1,2,0,0
23,12:55:00,12:55:00,0,1,0,0
23,13:20:00,13:20:00,1,2,0,0
24,14:15:00,14:15:00,0,1,0,0
24,14:40:00,14:40:00,1,2,0,0
25,16:30:00,16:30:00,0,1,0,0
25,16:55:00,16:55:00,1,2,0,0
26,18:00:00,18:00:00,0,1,0,0
26,18:25:00,18:25:00,1,2,0,0
27,07:10:00,07:10:00,1,1,0,0
27,07:35:00,07:35:00,0,2,0,0
28,09:25:00,09:25:00,1,1,0,0
28,09:50:00,09:50:00,0,2,0,0
29,11:10:00,11:10:00,1,1,0,0
29,11:35:00,11:35:00,0,2,0,0
30,13:35:00,13:35:00,1,1,0,0
30,14:00:00,14:00:00,0,2,0,0
31,15:00:00,15:00:00,1,1,0,0
31,15:25:00,15:25:00,0,2,0,0
32,17:10:00,17:10:00,1,1,0,0
32,17:35:00,17:35:00,0,2,0,0
33,18:40:00,18:40:00,1,1,0,0
33,19:05:00,19:05:00,0,2,0,0
34,20:30:00,20:30:00,0,1,0,0
34,20:55:00,20:55:00,1,2,0,0
35,21:00:00,21:00:00,1,1,0,0
35,21:25:00,21:25:00,0,2,0,0
36,05:30:00,05:30:00,0,1,0,0
36,05:55:00,05:55:00,1,2,0,0
37,06:30:00,06:30:00,0,1,0,0
37,06:55:00,06:55:00,1,2,0,0
38,07:05:00,07:05:00,0,1,0,0
38,07:30:00,07:30:00,1,2,0,0
39,07:45:00,07:45:00,0,1,0,0
39,08:10:00,08:10:00,1,2,0,0
40,09:30:00,09:30:00,0,1,0,0
40,09:55:00,09:55:00,1,2,0,0
41,12:55:00,12:55:00,0,1,0,0
41,13:20:00,13:20:00,1,2,0,0
42,14:15:00,14:15:00,0,1,0,0
42,14:40:00,14:40:00,1,2,0,0
43,15:45:00,15:45:00,0,1,0,0
43,16:10:00,16:10:00,1,2,0,0
44,16:30:00,16:30:00,0,1,0,0
44,16:55:00,16:55:00,1,2,0,0
45,17:25:00,17:25:00,0,1,0,0
45,17:50:00,17:50:00,1,2,0,0
46,18:00:00,18:00:00,0,1,0,0
46,18:25:00,18:25:00,1,2,0,0
47,06:00:00,06:00:00,1,1,0,0
47,06:25:00,06:25:00,0,2,0,0
48,07:10:00,07:10:00,1,1,0,0
48,07:35:00,07:35:00,0,2,0,0
49,07:50:00,07:50:00,1,1,0,0
49,08:15:00,08:15:00,0,2,0,0
50,08:25:00,08:25:00,1,1,0,0
50,08:50:00,08:50:00,0,2,0,0
51,10:15:00,10:15:00,1,1,0,0
51,10:40:00,10:40:00,0,2,0,0
52,13:35:00,13:35:00,1,1,0,0
52,14:00:00,14:00:00,0,2,0,0
53,15:00:00,15:00:00,1,1,0,0
53,15:25:00,15:25:00,0,2,0,0
54,16:25:00,16:25:00,1,1,0,0
54,16:50:00,16:50:00,0,2,0,0
55,17:10:00,17:10:00,1,1,0,0
55,17:35:00,17:35:00,0,2,0,0
56,18:00:00,18:00:00,1,1,0,0
56,18:25:00,18:25:00,0,2,0,0
57,18:40:00,18:40:00,1,1,0,0
57,19:05:00,19:05:00,0,2,0,0
58,20:30:00,20:30:00,0,1,0,0
58,20:55:00,20:55:00,1,2,0,0
59,21:00:00,21:00:00,1,1,0,0
59,21:25:00,21:25:00,0,2,0,0
