stop_id,stop_code,stop_name,stop_desc,stop_lat,stop_lon,zone_id,stop_url,location_type,parent_station,platform_code
6,810000,River St near Macallister St,,-21.138922,149.184023,2,http://translink.com.au/stop/810000/gtfs/,,,
108,810001,Caneland Central,,-21.139041,149.176989,2,http://translink.com.au/stop/810001/gtfs/,,,
7,810002,Caneland Central,,-21.139325,149.176929,2,http://translink.com.au/stop/810002/gtfs/,,,
35,810003,Gregory Street near Gregory Lane,,-21.141803,149.184629,2,http://translink.com.au/stop/810003/gtfs/,,,
72,810006,Alfred St near Sydney St,,-21.145345,149.186226,2,http://translink.com.au/stop/810006/gtfs/,,,
82,810007,Shakespeare Street East near Prospect St,,-21.147872,149.189343,2,http://translink.com.au/stop/810007/gtfs/,,,
83,810008,Shakespeare St near Goldsmith St,,-21.148568,149.194672,2,http://translink.com.au/stop/810008/gtfs/,,,
84,810009,Creal St East near East Gordon St,,-21.146895,149.199141,2,http://translink.com.au/stop/810009/gtfs/,,,
86,810010,Hoey Street near Nott St,,-21.151729,149.199655,2,http://translink.com.au/stop/810010/gtfs/,,,
87,810011,Evan St at Scanlan Street,,-21.152673,149.195081,2,http://translink.com.au/stop/810011/gtfs/,,,
88,810012,Macarthur Street East near Ready St,,-21.153351,149.189388,2,http://translink.com.au/stop/810012/gtfs/,,,
100,810013,Macarthur St West near Ready St,,-21.153325,149.189302,2,http://translink.com.au/stop/810013/gtfs/,,,
89,810014,Goldsmith St at McLean Street,,-21.157624,149.192426,2,http://translink.com.au/stop/810014/gtfs/,,,
90,810015,Kippen Street near Hart St,,-21.158209,149.190930,2,http://translink.com.au/stop/810015/gtfs/,,,
91,810016,Scott Street near Rolston St,,-21.161106,149.189858,2,http://translink.com.au/stop/810016/gtfs/,,,
92,810017,Bridge Rd at Hart Street,,-21.163486,149.190814,2,http://translink.com.au/stop/810017/gtfs/,,,
93,810018,Goldsmith St at Keelan Street,,-21.166376,149.191202,1,http://translink.com.au/stop/810018/gtfs/,,,
94,810019,Petrie Street near Beverley St,,-21.167856,149.193374,1,http://translink.com.au/stop/810019/gtfs/,,,
95,810020,Beverley St at Bridge Road,,-21.164541,149.194725,1,http://translink.com.au/stop/810020/gtfs/,,,
96,810021,Bridge Rd near Keelan Street,,-21.163933,149.192919,2,http://translink.com.au/stop/810021/gtfs/,,,
99,810023,Goldsmith Street South near Kippen St,,-21.157890,149.192249,2,http://translink.com.au/stop/810023/gtfs/,,,
102,810024,Evan St at Hoey Street,,-21.154227,149.198140,2,http://translink.com.au/stop/810024/gtfs/,,,
104,810025,Rae Street near Dalrymple St,,-21.148786,149.200277,2,http://translink.com.au/stop/810025/gtfs/,,,
105,810026,Creal St West near East Gordon St,,-21.147064,149.199117,2,http://translink.com.au/stop/810026/gtfs/,,,
75,810028,Shakespeare St at Wellington Street,,-21.146738,149.179547,2,http://translink.com.au/stop/810028/gtfs/,,,
38,810029,Shakespeare Street West near Ford St,,-21.145288,149.167686,2,http://translink.com.au/stop/810029/gtfs/,,,
39,810030,Holland St at Schaefer Street,,-21.148209,149.163844,2,http://translink.com.au/stop/810030/gtfs/,,,
40,810031,Holland St at Milne Lane,,-21.149713,149.162421,2,http://translink.com.au/stop/810031/gtfs/,,,
0,810033,Bridge Rd at Mackay Base Hospital,,-21.146038,149.156715,2,http://translink.com.au/stop/810033/gtfs/,,,
1,810036,Lagoon St at Holland Street,,-21.154066,149.157634,1,http://translink.com.au/stop/810036/gtfs/,,,
232,810045,Milton St at Griffin Street,,-21.148093,149.177092,2,http://translink.com.au/stop/810045/gtfs/,,,
149,810047,Penn St at Milton Street,,-21.154379,149.177085,2,http://translink.com.au/stop/810047/gtfs/,,,
151,810048,Dennis Street near Black St,,-21.158373,149.179857,2,http://translink.com.au/stop/810048/gtfs/,,,
210,810051,Paradise St at Ulanda Drive,,-21.162442,149.166618,1,http://translink.com.au/stop/810051/gtfs/,,,
152,810053,Napier St near Ivana Court,,-21.165836,149.168037,1,http://translink.com.au/stop/810053/gtfs/,,,
153,810054,Napier St near Absolon Street,,-21.167108,149.166830,1,http://translink.com.au/stop/810054/gtfs/,,,
145,810058,Kippen St at Dennis Street,,-21.156721,149.179520,2,http://translink.com.au/stop/810058/gtfs/,,,
146,810059,Penn Street near Milton St,,-21.154264,149.177100,2,http://translink.com.au/stop/810059/gtfs/,,,
147,810060,Kenilworth Street near Evan St,,-21.151904,149.180103,2,http://translink.com.au/stop/810060/gtfs/,,,
50,810062,Shakespeare St at Wellington Street,,-21.146714,149.180498,2,http://translink.com.au/stop/810062/gtfs/,,,
111,810063,Grendon Street near Palmer St,,-21.124823,149.188750,2,http://translink.com.au/stop/810063/gtfs/,,,
113,810064,Grendon St near Ernest St,,-21.119366,149.189534,3,http://translink.com.au/stop/810064/gtfs/,,,
114,810065,Hamilton St near Gaylard Street,,-21.118826,149.192195,3,http://translink.com.au/stop/810065/gtfs/,,,
109,810066,Evans Ave near Harbour Rd,,-21.127441,149.189602,2,http://translink.com.au/stop/810066/gtfs/,,,
115,810067,Harbour Rd at Slade Point Road,,-21.113331,149.206674,3,http://translink.com.au/stop/810067/gtfs/,,,
116,810068,Slade Point Rd near David Muir Street,,-21.090205,149.212418,3,http://translink.com.au/stop/810068/gtfs/,,,
117,810069,Slade Point Rd at Jansen Street,,-21.086036,149.212945,3,http://translink.com.au/stop/810069/gtfs/,,,
118,810070,Slade Point Rd near Teal Street,,-21.082153,149.213434,3,http://translink.com.au/stop/810070/gtfs/,,,
119,810071,Slade Point Rd at Finch Street,,-21.078279,149.213983,3,http://translink.com.au/stop/810071/gtfs/,,,
120,810072,Slade Point Rd at Swallow Street,,-21.075287,149.214417,3,http://translink.com.au/stop/810072/gtfs/,,,
121,810073,Ocean Ave at Blackwood Street,,-21.071284,149.218664,3,http://translink.com.au/stop/810073/gtfs/,,,
122,810075,Amhurst St at Michael Moohin Drive,,-21.073634,149.222346,3,http://translink.com.au/stop/810075/gtfs/,,,
123,810078,Pacific Esp at Lamberts Lookout,,-21.070437,149.226987,3,http://translink.com.au/stop/810078/gtfs/,,,
124,810079,Gannet Drive near Heron St,,-21.066636,149.223717,3,http://translink.com.au/stop/810079/gtfs/,,,
125,810080,Ocean Ave at Snipe Street,,-21.067133,149.222315,3,http://translink.com.au/stop/810080/gtfs/,,,
126,810081,Ocean Ave at Blackwood Street,,-21.071586,149.218589,3,http://translink.com.au/stop/810081/gtfs/,,,
127,810082,Wren Street near Ocean Ave,,-21.072832,149.218278,3,http://translink.com.au/stop/810082/gtfs/,,,
129,810083,Slade Point Rd at Finch Street,,-21.079235,149.213956,3,http://translink.com.au/stop/810083/gtfs/,,,
130,810084,Slade Point Rd at Teal Street,,-21.082346,149.213508,3,http://translink.com.au/stop/810084/gtfs/,,,
131,810085,Slade Point Rd at Jansen Street,,-21.083955,149.213297,3,http://translink.com.au/stop/810085/gtfs/,,,
132,810086,Slade Point Rd near David Muir Street,,-21.089860,149.212581,3,http://translink.com.au/stop/810086/gtfs/,,,
26,810087,Oak St at Andrew Court,,-21.096962,149.184626,3,http://translink.com.au/stop/810087/gtfs/,,,
67,810088,Celeber Dr at Barnfield Drive,,-21.097184,149.178049,3,http://translink.com.au/stop/810088/gtfs/,,,
68,810089,Celeber Dr at Parkview Court,,-21.098858,149.175073,3,http://translink.com.au/stop/810089/gtfs/,,,
76,810090,Nebo Rd at Bagley Street,,-21.148912,149.171359,2,http://translink.com.au/stop/810090/gtfs/,,,
77,810091,Nebo Rd at Adrian Lane,,-21.153570,149.166920,2,http://translink.com.au/stop/810091/gtfs/,,,
78,810092,Nebo Rd at Edmonds St,,-21.156024,149.164587,1,http://translink.com.au/stop/810092/gtfs/,,,
79,810093,Nebo Rd at Keith Hamilton Street,,-21.159002,149.161750,1,http://translink.com.au/stop/810093/gtfs/,,,
219,810097,Anzac St at Broad Street,,-21.421106,149.215744,9,http://translink.com.au/stop/810097/gtfs/,,,
220,810098,Anzac St at Hospital Street,,-21.420579,149.211131,9,http://translink.com.au/stop/810098/gtfs/,,,
221,810099,Leslie St near Swayne St (Hail n Ride),,-21.422602,149.210538,9,http://translink.com.au/stop/810099/gtfs/,,,
222,810100,Leslie St at Nolan Street,,-21.422851,149.212600,9,http://translink.com.au/stop/810100/gtfs/,,,
223,810103,Broad St near Johnston St,,-21.422428,149.216953,9,http://translink.com.au/stop/810103/gtfs/,,,
224,810104,Bruce Hwy near Breen St,,-21.418245,149.215684,9,http://translink.com.au/stop/810104/gtfs/,,,
236,810105,Peak Down Hwy at Kellys Road,,-21.160989,149.059423,11,http://translink.com.au/stop/810105/gtfs/,,,
237,810106,Camerons Road near James Muscat Dr,,-21.165626,149.051558,11,http://translink.com.au/stop/810106/gtfs/,,,
235,810109,Creek St near Dutton St,,-21.160849,149.065582,11,http://translink.com.au/stop/810109/gtfs/,,,
249,810110,Creek St at Dutton Street,,-21.160782,149.065702,11,http://translink.com.au/stop/810110/gtfs/,,,
251,810111,Creek St at Anne Street,,-21.162282,149.067530,11,http://translink.com.au/stop/810111/gtfs/,,,
252,810112,Dane St at Dutton Street,,-21.162856,149.069217,11,http://translink.com.au/stop/810112/gtfs/,,,
246,810114,Alexandra St near Augusta Street,,-21.158882,148.863599,15,http://translink.com.au/stop/810114/gtfs/,,,
255,810115,Anzac Ave near Old Hampden Rd (Hail n Ride),,-21.142329,148.936832,13,http://translink.com.au/stop/810115/gtfs/,,,
261,810116,Mackay-Eungella Rd near Pleystowe Station Rd (HnR),,-21.144958,149.040629,11,http://translink.com.au/stop/810116/gtfs/,,,
240,810117,Mackay-Eungella Rd near Pleystowe Station Rd (HnR),,-21.145047,149.040482,11,,,,
43,810119,Boundary Rd at Bernborough Avenue,,-21.173162,149.143979,1,http://translink.com.au/stop/810119/gtfs/,,,
44,810120,Boundary Rd at Muller Park,,-21.173840,149.149538,1,http://translink.com.au/stop/810120/gtfs/,,,
46,810121,Nebo Rd at Keith Hamilton Street,,-21.158811,149.161630,1,http://translink.com.au/stop/810121/gtfs/,,,
47,810122,Nebo Rd near Bridge Road,,-21.154627,149.165618,1,http://translink.com.au/stop/810122/gtfs/,,,
48,810123,Nebo Rd at Schaefer Street,,-21.152370,149.167773,2,http://translink.com.au/stop/810123/gtfs/,,,
49,810124,Nebo Rd at Duncan Street,,-21.147410,149.172492,2,http://translink.com.au/stop/810124/gtfs/,,,
160,810125,Tolcher St near Pioneer St,,-21.111668,149.151030,3,http://translink.com.au/stop/810125/gtfs/,,,
156,810127,Davey Street near Herrigan St,,-21.115794,149.145453,2,http://translink.com.au/stop/810127/gtfs/,,,
158,810128,Schapers Rd near Windsor St,,-21.112858,149.146970,2,http://translink.com.au/stop/810128/gtfs/,,,
159,810129,Tolcher Street near Cowley Ct,,-21.111595,149.151240,3,http://translink.com.au/stop/810129/gtfs/,,,
54,810130,Mt Pleasant Shopping Centre,,-21.118074,149.159802,3,http://translink.com.au/stop/810130/gtfs/,,,
55,810131,Charles Hodge Avenue near Badila Crt,,-21.119513,149.162438,2,http://translink.com.au/stop/810131/gtfs/,,,
57,810132,Norris Rd at Raymond Croker Avenue,,-21.114076,149.168100,3,http://translink.com.au/stop/810132/gtfs/,,,
58,810133,Norris Rd near Scriha Street,,-21.111955,149.168390,3,http://translink.com.au/stop/810133/gtfs/,,,
59,810134,Beaconsfield Rd at Norris Road,,-21.106593,149.169627,3,http://translink.com.au/stop/810134/gtfs/,,,
60,810135,Beaconsfield Rd at Deguara Drive,,-21.104389,149.168439,3,http://translink.com.au/stop/810135/gtfs/,,,
61,810138,Nadina Street near Eaglemount Rd,,-21.092092,149.171602,3,http://translink.com.au/stop/810138/gtfs/,,,
62,810139,Broomdykes Dr at Kirkconnell Street,,-21.087850,149.174007,3,http://translink.com.au/stop/810139/gtfs/,,,
63,810140,Broomdykes Dr at Argyle Court,,-21.087337,149.177265,3,http://translink.com.au/stop/810140/gtfs/,,,
64,810141,Broomdykes Dr at Bankswood Street,,-21.090692,149.177032,3,http://translink.com.au/stop/810141/gtfs/,,,
65,810142,Eaglemount Road near Hargreaves St,,-21.092621,149.178934,3,http://translink.com.au/stop/810142/gtfs/,,,
70,810143,Annie Wood Avenue near Bona Vista Dr,,-21.117322,149.164887,3,http://translink.com.au/stop/810143/gtfs/,,,
16,810144,Bedford Rd at Eaglemount Road,,-21.093862,149.180991,3,http://translink.com.au/stop/810144/gtfs/,,,
17,810145,Bedford Rd near Paperbark Way,,-21.087627,149.181860,3,http://translink.com.au/stop/810145/gtfs/,,,
19,810146,Nadarmi Drive near Banksia Ave,,-21.082131,149.187296,3,http://translink.com.au/stop/810146/gtfs/,,,
20,810147,Banksia Ave at Jacaranda Street,,-21.079650,149.188527,3,http://translink.com.au/stop/810147/gtfs/,,,
21,810148,Cabbage Tree Road near Wattle St,,-21.078971,149.191436,3,http://translink.com.au/stop/810148/gtfs/,,,
22,810149,Wattle Street near Forest Ct,,-21.082432,149.191370,3,http://translink.com.au/stop/810149/gtfs/,,,
23,810150,Banksia Ave at Fernleigh Avenue,,-21.086108,149.187815,3,http://translink.com.au/stop/810150/gtfs/,,,
24,810151,Maple Dr at Norfolk Drive,,-21.087844,149.188272,3,http://translink.com.au/stop/810151/gtfs/,,,
25,810152,Maple Dr at Amanda Drive,,-21.094131,149.187505,3,http://translink.com.au/stop/810152/gtfs/,,,
27,810153,Bedford Rd at Grace Deguara Drive,,-21.099781,149.181318,3,http://translink.com.au/stop/810153/gtfs/,,,
28,810154,Bedford Rd at Coles Road,,-21.106795,149.181990,3,http://translink.com.au/stop/810154/gtfs/,,,
29,810155,Glenpark St at Green Street,,-21.117124,149.179829,3,http://translink.com.au/stop/810155/gtfs/,,,
30,810156,High St at Hill Street,,-21.118208,149.178107,3,http://translink.com.au/stop/810156/gtfs/,,,
31,810157,High St at Valley Street,,-21.117425,149.174037,3,http://translink.com.au/stop/810157/gtfs/,,,
32,810158,Valley St at Malcomson Street,,-21.121857,149.173224,2,http://translink.com.au/stop/810158/gtfs/,,,
194,810163,Mackay Shoal Point Rd near Homestead Bay Avenue,,-21.021839,149.154689,4,http://translink.com.au/stop/810163/gtfs/,,,
195,810164,Fisher St near Waverley Street,,-21.025457,149.156494,4,http://translink.com.au/stop/810164/gtfs/,,,
196,810165,Waverley St at St Bees Avenue,,-21.029463,149.158768,4,http://translink.com.au/stop/810165/gtfs/,,,
197,810166,Waverley St at Symons Avenue,,-21.032971,149.161668,4,http://translink.com.au/stop/810166/gtfs/,,,
198,810167,Bucasia Esplanade at Walters Ave,,-21.036293,149.166439,4,http://translink.com.au/stop/810167/gtfs/,,,
199,810168,Edmonds St at Dolphin Drive,,-21.037639,149.164441,4,http://translink.com.au/stop/810168/gtfs/,,,
200,810169,Edmonds St at Downie Avenue,,-21.034981,149.161996,4,http://translink.com.au/stop/810169/gtfs/,,,
201,810170,Downie Avenue near Old Shoal Point Rd,,-21.036270,149.158506,4,http://translink.com.au/stop/810170/gtfs/,,,
173,810171,Mackay Bucasia Rd near Wallmans Rd,,-21.065222,149.157052,4,http://translink.com.au/stop/810171/gtfs/,,,
182,810172,Sologinkin Road near Kidston Ave,,-21.066063,149.154440,4,http://translink.com.au/stop/810172/gtfs/,,,
183,810173,George Fordyce Dr at Marzan Street,,-21.068340,149.153890,4,http://translink.com.au/stop/810173/gtfs/,,,
206,810174,Mackay Bucasia Rd near Rosewood Drive,,-21.067055,149.157092,4,http://translink.com.au/stop/810174/gtfs/,,,
154,810175,Willetts Rd at Mackay Mater Hospital,,-21.130665,149.165442,2,http://translink.com.au/stop/810175/gtfs/,,,
9,810176,Malcomson St near Hannaford St,,-21.122060,149.170359,2,http://translink.com.au/stop/810176/gtfs/,,,
164,810177,Malcomson St near Willis Street,,-21.123350,149.180420,2,http://translink.com.au/stop/810177/gtfs/,,,
165,810178,Malcomson St at Harvey Street,,-21.123820,149.184410,2,http://translink.com.au/stop/810178/gtfs/,,,
139,810179,Evans Ave at Barnes Creek Road,,-21.127479,149.189836,2,http://translink.com.au/stop/810179/gtfs/,,,
12,810180,Glenpark St at Green Street,,-21.117072,149.179614,3,http://translink.com.au/stop/810180/gtfs/,,,
140,810183,River St near Third Lane,,-21.139192,149.185916,2,http://translink.com.au/stop/810183/gtfs/,,,
41,810184,Service Rd near Bernborough Avenue (CQU),,-21.177511,149.142493,1,http://translink.com.au/stop/810184/gtfs/,,,
167,810185,Mulherin Dr at Mackay Harbour,,-21.111889,149.223413,3,http://translink.com.au/stop/810185/gtfs/,,,
133,810186,Harbour Rd near Ron Searle Drive,,-21.113572,149.206817,3,http://translink.com.au/stop/810186/gtfs/,,,
134,810187,Hamilton St at Gaylard Street,,-21.118961,149.192332,3,http://translink.com.au/stop/810187/gtfs/,,,
135,810188,Grendon Street near Ernest St,,-21.119273,149.189694,3,http://translink.com.au/stop/810188/gtfs/,,,
137,810189,Grendon St near Evans St (Hail n Ride),,-21.124818,149.188859,2,http://translink.com.au/stop/810189/gtfs/,,,
245,810190,Mackay-Eungella Rd near Mirani Boldon Road,,-21.153436,148.914188,14,http://translink.com.au/stop/810190/gtfs/,,,
191,810191,Shoal Point Rd near Volute St,,-21.005003,149.152951,4,http://translink.com.au/stop/810191/gtfs/,,,
202,810192,Bucas Dr near Geoffrey Thomas Dr,,-21.043214,149.153149,4,http://translink.com.au/stop/810192/gtfs/,,,
174,810193,Eimeo Rd near Melanie Street,,-21.054196,149.170799,4,http://translink.com.au/stop/810193/gtfs/,,,
211,810196,Bruce Hwy near Gorman St (Hail n Ride),,-21.221478,149.147971,5,,,,
214,810197,Bruce Hwy near Hay Point Rd (Hail n Ride),,-21.320711,149.191920,7,http://translink.com.au/stop/810197/gtfs/,,,
225,810199,Bruce Hwy near Hay Point Rd (Hail n Ride),,-21.321068,149.191869,7,http://translink.com.au/stop/810199/gtfs/,,,
228,810200,Bruce Hwy near Gorman St,,-21.222650,149.148185,5,http://translink.com.au/stop/810200/gtfs/,,,
52,810201,Sydney St near Alfred St (Hail n Ride),,-21.146446,149.186275,2,http://translink.com.au/stop/810201/gtfs/,,,
15,810204,Bedford Rd near John St (Hail n Ride),,-21.095896,149.180650,3,http://translink.com.au/stop/810204/gtfs/,,,
175,810212,Camilleri St near Eimeo Rd (Hail n Ride),,-21.045431,149.177356,4,http://translink.com.au/stop/810212/gtfs/,,,
213,810218,Bruce Hwy near Dunnrock Road,,-21.257543,149.144848,6,http://translink.com.au/stop/810218/gtfs/,,,
212,810219,Bruce Hwy near McEwans Beach Rd (Hail n Ride),,-21.235038,149.147539,5,,,,
260,810221,Mackay-Eungella Rd near Pleystowe Connection (HnR),,-21.142989,149.025423,12,http://translink.com.au/stop/810221/gtfs/,,,
253,810222,Peak Downs Hwy near Weigands Rd (Hail n Ride),,-21.162920,149.099149,10,http://translink.com.au/stop/810222/gtfs/,,,
250,810225,Creek St near Anne St (Hail n Ride),,-21.161596,149.066700,11,http://translink.com.au/stop/810225/gtfs/,,,
254,810228,Peak Downs Hwy near Sextons Rd,,-21.165634,149.120696,10,http://translink.com.au/stop/810228/gtfs/,,,
258,810230,Mackay-Eungella Rd near Rocky Waterholes Rd,,-21.139738,148.991808,12,http://translink.com.au/stop/810230/gtfs/,,,
180,810233,Old Eimeo Road near Mackay Bucasia Rd,,-21.060031,149.159624,4,http://translink.com.au/stop/810233/gtfs/,,,
262,810237,Camerons Rd near Pugsley St,,-21.160402,149.052249,11,http://translink.com.au/stop/810237/gtfs/,,,
259,810244,Mackay-Eungella Rd near Rocky Waterholes Rd (HnR),,-21.140350,148.997961,12,,,,
103,810247,Hoey St at Nott St,,-21.151712,149.199496,2,http://translink.com.au/stop/810247/gtfs/,,,
144,810249,Dennis St near Black St,,-21.158338,149.179706,2,http://translink.com.au/stop/810249/gtfs/,,,
10,810250,Valley St near Malcomson St (Hail n Ride),,-21.121890,149.173061,2,http://translink.com.au/stop/810250/gtfs/,,,
13,810251,Bedford Rd near Somerset Rd (Hail n Ride),,-21.107002,149.181672,3,http://translink.com.au/stop/810251/gtfs/,,,
66,810253,Bedford Rd near John Ct (Hail n Ride),,-21.095914,149.180887,3,http://translink.com.au/stop/810253/gtfs/,,,
69,810254,Norris Rd at Raymond Croker Ave,,-21.114519,149.168183,3,http://translink.com.au/stop/810254/gtfs/,,,
179,810255,Eimeo Rd near Eulbertie Ave (Hail n Ride),,-21.054289,149.170993,4,http://translink.com.au/stop/810255/gtfs/,,,
193,810256,Shoal Point Rd near Volute St,,-21.005224,149.153063,4,http://translink.com.au/stop/810256/gtfs/,,,
189,810257,Fisher St near Cook St (Hail n Ride),,-21.025627,149.156558,4,http://translink.com.au/stop/810257/gtfs/,,,
187,810258,Downie Ave near Old Shoal Point Rd (Hail n Ride),,-21.036286,149.158368,4,http://translink.com.au/stop/810258/gtfs/,,,
80,810259,Boundary Rd at Shopping Centre,,-21.174224,149.151209,1,http://translink.com.au/stop/810259/gtfs/,,,
234,810260,Peak Downs Hwy near Weigands Rd (Hail n Ride),,-21.163047,149.099199,10,http://translink.com.au/stop/810260/gtfs/,,,
45,810262,Nebo Rd near Ram Chandra Pl (Hail n Ride),,-21.165753,149.154344,1,http://translink.com.au/stop/810262/gtfs/,,,
226,810263,Bruce Hwy near Dunnrock Rd (Hail n Ride),,-21.257244,149.144737,6,,,,
227,810264,Bruce Hwy near McEwans Beach Rd (Hail n Ride),,-21.235727,149.147229,5,,,,
233,810266,Peak Downs Hwy near Peri Rd (Hail n Ride),,-21.165802,149.120649,10,http://translink.com.au/stop/810266/gtfs/,,,
241,810267,Mackay-Eungella Rd near Pleystowe Connection (HnR),,-21.143123,149.025479,12,,,,
34,810280,River Street near St Patricks College,,-21.138725,149.183801,2,http://translink.com.au/stop/810280/gtfs/,,,
215,810294,Broad Street at Sarina State School,,-21.422500,149.217510,9,http://translink.com.au/stop/810294/gtfs/,,,
217,810297,Brooks Rd near Hoey St (Hail n Ride),,-21.416282,149.222352,9,http://translink.com.au/stop/810297/gtfs/,,,
141,810304,Mackay Airport,,-21.176484,149.181710,1,http://translink.com.au/stop/810304/gtfs/,,,
4,810305,Milton Street near Shakespeare St,,-21.145950,149.177428,2,http://translink.com.au/stop/810305/gtfs/,,,
37,810306,Milton Street near Alfred St,,-21.144730,149.177841,2,http://translink.com.au/stop/810306/gtfs/,,,
243,810307,Anzac Ave near Tolcher Lane,,-21.144062,148.960118,13,http://translink.com.au/stop/810307/gtfs/,,,
257,810308,Anzac Ave near Marcam St (Hail n Ride),,-21.137720,148.963168,13,http://translink.com.au/stop/810308/gtfs/,,,
242,810309,Anzac Ave near Marcam St (Hail n Ride),,-21.138767,148.962828,13,http://translink.com.au/stop/810309/gtfs/,,,
128,810311,Slade Point Rd at Robin Street,,-21.075474,149.214501,3,http://translink.com.au/stop/810311/gtfs/,,,
18,810312,Nadarmi Dr at MacKillop School,,-21.081813,149.185017,3,http://translink.com.au/stop/810312/gtfs/,,,
107,810319,Shakespeare St at Prospect Street,,-21.148107,149.190011,2,http://translink.com.au/stop/810319/gtfs/,,,
106,810320,Shakespeare St at Gold Street,,-21.148504,149.192943,2,http://translink.com.au/stop/810320/gtfs/,,,
98,810321,Kippen St at Hart Street,,-21.158050,149.190841,2,http://translink.com.au/stop/810321/gtfs/,,,
138,810324,Evans Ave at Grendon Street,,-21.125724,149.188693,2,http://translink.com.au/stop/810324/gtfs/,,,
110,810325,Evans Ave near Grendon Street,,-21.126019,149.188674,2,http://translink.com.au/stop/810325/gtfs/,,,
218,810327,Petersen Street near Place Ave,,-21.411623,149.224637,9,http://translink.com.au/stop/810327/gtfs/,,,
5,810328,Gregory Street near Gregory Lane,,-21.141677,149.184473,2,http://translink.com.au/stop/810328/gtfs/,,,
238,810331,Luscombe St near Barlow St,,-21.160657,149.053525,11,http://translink.com.au/stop/810331/gtfs/,,,
216,810332,Hoey St near East St,,-21.422896,149.220351,9,http://translink.com.au/stop/810332/gtfs/,,,
229,810334,Farrellys Lane at Caterpillar Drive,,-21.185499,149.153000,1,http://translink.com.au/stop/810334/gtfs/,,,
157,810338,Schapers Rd near Royal Bvd,,-21.112567,149.144952,2,http://translink.com.au/stop/810338/gtfs/,,,
161,810339,Schapers Rd near Royal Bvd,,-21.112730,149.145245,2,http://translink.com.au/stop/810339/gtfs/,,,
178,810340,Chenoweth Dr at Bondi Road,,-21.054571,149.183992,4,http://translink.com.au/stop/810340/gtfs/,,,
181,810341,Mackay Bucasia Rd at Northern Beaches Bowls (HnR),,-21.064537,149.157454,4,http://translink.com.au/stop/810341/gtfs/,,,
71,810342,Charles Hodge Ave near Trojan Crt,,-21.119399,149.162208,2,http://translink.com.au/stop/810342/gtfs/,,,
51,810343,Shakespeare St at Sydney Street,,-21.147325,149.185076,2,http://translink.com.au/stop/810343/gtfs/,,,
74,810344,Shakespeare St at Romeo St,,-21.147425,149.184866,2,http://translink.com.au/stop/810344/gtfs/,,,
33,810345,Malcomson St at Greenfields Blvd,,-21.120488,149.157430,3,http://translink.com.au/stop/810345/gtfs/,,,
8,810346,Malcomson St at Greenfields Boulevard,,-21.120333,149.157636,3,http://translink.com.au/stop/810346/gtfs/,,,
81,810347,Boundary Rd at CQ University,,-21.173091,149.141378,1,http://translink.com.au/stop/810347/gtfs/,,,
42,810348,Boundary Rd at CQ University,,-21.172986,149.141257,1,http://translink.com.au/stop/810348/gtfs/,,,
207,810352,Royal Sands Blvd at Shoal Point Rd (Hail n Ride),,-21.023651,149.154067,4,http://translink.com.au/stop/810352/gtfs/,,,
170,810355,Norwood Pde at Kerrisdale Crescent,,-21.083250,149.160164,3,http://translink.com.au/stop/810355/gtfs/,,,
239,810356,Barlow St near Camerons Rd (Hail n Ride),,-21.162325,149.051957,11,http://translink.com.au/stop/810356/gtfs/,,,
247,810357,Clive Rogers Dr near Mackay Eungella Rd (HnR),,-21.161494,148.879195,15,http://translink.com.au/stop/810357/gtfs/,,,
172,810358,Sologinkin Rd near Kidston Ave (Hail n Ride),,-21.066008,149.154983,4,,,,
171,810359,George Fordyce Dr at Anthony Vella St (HnR),,-21.068481,149.153862,4,,,,
192,810360,Denman Ave near O Brien Esp (Hail n Ride),,-21.002182,149.156019,4,http://translink.com.au/stop/810360/gtfs/,,,
142,810361,Napier St near Absolon St (Hail n Ride),,-21.167043,149.166733,1,,,,
150,810362,Kippen St near Dennis Street,,-21.156501,149.179000,2,http://translink.com.au/stop/810362/gtfs/,,,
3,810363,Holland St at Schaefer Street,,-21.148054,149.163831,2,http://translink.com.au/stop/810363/gtfs/,,,
36,810366,Alfred St at Macalister Street,,-21.145200,149.183000,2,http://translink.com.au/stop/810366/gtfs/,,,
162,810367,Davey St at Herrigan Street,,-21.115740,149.145561,2,http://translink.com.au/stop/810367/gtfs/,,,
14,810368,Bedford Rd at Grace Deguara Drive,,-21.099296,149.181050,3,http://translink.com.au/stop/810368/gtfs/,,,
190,810369,Mackay Shoal Point Rd at Seychelles Road,,-21.011999,149.151350,4,http://translink.com.au/stop/810369/gtfs/,,,
208,810370,Milton St at George Street,,-21.149036,149.177177,2,http://translink.com.au/stop/810370/gtfs/,,,
177,810371,Bourke St at Belbin St,,-21.052484,149.189848,4,http://translink.com.au/stop/810371/gtfs/,,,
184,810373,Avalon Dr near Moreton Dr (Hail n Ride),,-21.051391,149.163509,4,http://translink.com.au/stop/810373/gtfs/,,,
204,810374,Avalon Dr near Moreton Dr (Hail n Ride),,-21.051140,149.161829,4,http://translink.com.au/stop/810374/gtfs/,,,
244,810375,Anzac Ave near Daly St,,-21.144990,148.945932,13,http://translink.com.au/stop/810375/gtfs/,,,
256,810376,Anzac Ave near Daly St,,-21.144707,148.945495,13,http://translink.com.au/stop/810376/gtfs/,,,
97,810377,Scott St near Rolston St,,-21.160986,149.189748,2,http://translink.com.au/stop/810377/gtfs/,,,
112,810378,Grendon St at Petersen St,,-21.121344,149.189243,3,http://translink.com.au/stop/810378/gtfs/,,,
136,810379,Grendon St at King St,,-21.121540,149.189348,3,http://translink.com.au/stop/810379/gtfs/,,,
168,810380,Malcomson St at Harvey Street,,-21.124020,149.184330,2,http://translink.com.au/stop/810380/gtfs/,,,
169,810381,Malcomson St near Willis Street,,-21.123550,149.180460,2,http://translink.com.au/stop/810381/gtfs/,,,
53,810675,Alfred St near Sydney St,,-21.145484,149.186156,2,http://translink.com.au/stop/810675/gtfs/,,,
73,810676,Sydney St near Alfred St,,-21.145863,149.186564,2,http://translink.com.au/stop/810676/gtfs/,,,
148,810678,Kenilworth St near Evan St,,-21.151310,149.180306,2,http://translink.com.au/stop/810678/gtfs/,,,
2,810679,Holland St at Milne Lane,,-21.149110,149.162803,2,http://translink.com.au/stop/810679/gtfs/,,,
176,810680,Slater Ave near Sunseeker Crt,,-21.051137,149.185761,4,http://translink.com.au/stop/810680/gtfs/,,,
11,810681,High St at Valley St,,-21.117372,149.174091,3,http://translink.com.au/stop/810681/gtfs/,,,
101,810682,Evan St at Scanlan St,,-21.152494,149.194956,2,http://translink.com.au/stop/810682/gtfs/,,,
56,810683,Annie Wood Ave near Raymond Croker Ave,,-21.115486,149.165268,3,http://translink.com.au/stop/810683/gtfs/,,,
155,810684,Heaths Rd at Valetta Way,,-21.129371,149.153499,2,http://translink.com.au/stop/810684/gtfs/,,,
163,810685,Heaths Rd at Hewett Way,,-21.129345,149.154038,2,http://translink.com.au/stop/810685/gtfs/,,,
143,810687,Napier St at Ivana Court,,-21.165862,149.167854,1,http://translink.com.au/stop/810687/gtfs/,,,
230,810688,Paradise St at Ulanda Dr,,-21.162585,149.166258,1,http://translink.com.au/stop/810688/gtfs/,,,
186,810689,Bucas Dr at Geoffrey Thomas Dr,,-21.043327,149.152873,4,http://translink.com.au/stop/810689/gtfs/,,,
85,810690,Rae Street at Dalrymple St,,-21.148577,149.200585,2,http://translink.com.au/stop/810690/gtfs/,,,
209,810691,Paradise Rd at Harney St,,-21.155356,149.173398,2,http://translink.com.au/stop/810691/gtfs/,,,
231,810692,Paradise Rd at Harney St,,-21.155359,149.173111,2,http://translink.com.au/stop/810692/gtfs/,,,
188,810693,Edmonds St at Dolphin Dr,,-21.037509,149.164475,4,http://translink.com.au/stop/810693/gtfs/,,,
248,810694,Camerons Rd near Peak Downs Hwy,,-21.165538,149.051669,11,http://translink.com.au/stop/810694/gtfs/,,,
205,810695,McHugh St near Bedwell Crt,,-21.055293,149.163864,4,http://translink.com.au/stop/810695/gtfs/,,,
203,810696,Bucas Dr near Jenvey Ct (Hail n Ride),,-21.043596,149.156487,4,http://translink.com.au/stop/810696/gtfs/,,,
185,810697,Bucas Dr near Jenvey Ct (Hail n Ride),,-21.043724,149.156483,4,http://translink.com.au/stop/810697/gtfs/,,,
166,810704,Mulherin Dr at Mackay Harbour,,-21.112541,149.222910,3,http://translink.com.au/stop/810704/gtfs/,,,
