route_id,route_short_name,route_long_name,route_desc,route_type,route_url,route_color,route_text_color
0,500S,Gladstone Loop,,3,,71BF5B,000000
1,501S,Gladstone Loop,,3,,71BF5B,000000
2,500,Gladstone Loop,,3,,71BF5B,000000
3,501,Gladstone Loop,,3,,71BF5B,000000
4,502,Kin Kora - Clinton,,3,,71BF5B,000000
5,503,Kin Kora - Kirkwood,,3,,71BF5B,000000
6,504,Kin Kora - New Auckland,,3,,71BF5B,000000
7,505,Kin Kora - Glen Eden via Telina,,3,,71BF5B,000000
8,506,Stockland Gladstone - Little Creek,,3,,71BF5B,000000
9,550,Kin Kora - Boyne Is and Tannum Sands via Telina,,3,,71BF5B,000000
