stop_id,stop_code,stop_name,stop_desc,stop_lat,stop_lon,zone_id,stop_url,location_type,parent_station,platform_code
39,860004,Withers St near Blair St,,-23.339848,150.503576,2,http://translink.com.au/stop/860004/gtfs/,,,
40,860005,Hollingsworth St at Power Street,,-23.347492,150.504810,2,http://translink.com.au/stop/860005/gtfs/,,,
41,860006,Hollingsworth St near Richardson Rd (Hail n Ride),,-23.351478,150.504459,2,http://translink.com.au/stop/860006/gtfs/,,,
42,860007,Haynes St near Snelling St,,-23.353197,150.505537,2,http://translink.com.au/stop/860007/gtfs/,,,
43,860008,Glenmore Rd near MacAlister St,,-23.356431,150.504986,2,http://translink.com.au/stop/860008/gtfs/,,,
44,860009,Glenmore Rd near Highway St,,-23.358891,150.505625,2,http://translink.com.au/stop/860009/gtfs/,,,
46,860010,Main St near Haynes St,,-23.358064,150.508798,2,http://translink.com.au/stop/860010/gtfs/,,,
47,860011,Main St near Edgar St,,-23.356758,150.510821,2,http://translink.com.au/stop/860011/gtfs/,,,
48,860012,Main St near Bertram St,,-23.354713,150.513938,2,http://translink.com.au/stop/860012/gtfs/,,,
49,860013,Main St near Alexandra St (Hail n Ride),,-23.353785,150.515352,2,http://translink.com.au/stop/860013/gtfs/,,,
50,860014,Main St near Alexandra St,,-23.353140,150.516328,2,http://translink.com.au/stop/860014/gtfs/,,,
51,860015,Main St near Twigg St,,-23.350729,150.520029,2,http://translink.com.au/stop/860015/gtfs/,,,
53,860018,Musgrave St near Richmond St,,-23.359395,150.523449,1,http://translink.com.au/stop/860018/gtfs/,,,
54,860019,Musgrave St near Edington St,,-23.361870,150.523046,1,http://translink.com.au/stop/860019/gtfs/,,,
55,860020,Musgrave St near Burnett St,,-23.364200,150.522638,1,http://translink.com.au/stop/860020/gtfs/,,,
56,860021,Musgrave St near Armstrong St,,-23.366127,150.522307,1,http://translink.com.au/stop/860021/gtfs/,,,
57,860022,Musgrave St near Bernard St,,-23.370390,150.520033,1,http://translink.com.au/stop/860022/gtfs/,,,
58,860023,Fitzroy St near East St,,-23.376384,150.512295,1,http://translink.com.au/stop/860023/gtfs/,,,
59,860025,Kern Arcade,,-23.379999,150.513222,1,http://translink.com.au/stop/860025/gtfs/,,,
60,860026,Derby St near Murray St,,-23.386531,150.508435,3,http://translink.com.au/stop/860026/gtfs/,,,
61,860027,Derby St near Talford St,,-23.388364,150.505514,3,http://translink.com.au/stop/860027/gtfs/,,,
62,860028,Derby St at Allenstown Shopping Centre,,-23.389879,150.503087,3,http://translink.com.au/stop/860028/gtfs/,,,
63,860029,Upper Dawson Rd near Caroline St (Hail n Ride),,-23.390668,150.502678,3,http://translink.com.au/stop/860029/gtfs/,,,
64,860030,Upper Dawson Rd near Margaret St,,-23.391794,150.502461,3,http://translink.com.au/stop/860030/gtfs/,,,
65,860031,Upper Dawson Rd near Ferguson St (Hail n Ride),,-23.399792,150.501161,3,http://translink.com.au/stop/860031/gtfs/,,,
66,860032,Upper Dawson Rd near Wakefield St (Hail n Ride),,-23.404634,150.500328,3,http://translink.com.au/stop/860032/gtfs/,,,
67,860033,Blackall St near Kennedy Lane (Hail n Ride),,-23.407899,150.497273,3,http://translink.com.au/stop/860033/gtfs/,,,
0,860034,Blackall St near Kennedy Lane,,-23.407818,150.497368,3,http://translink.com.au/stop/860034/gtfs/,,,
1,860035,Upper Dawson Rd near Private St,,-23.404083,150.500311,3,http://translink.com.au/stop/860035/gtfs/,,,
2,860036,Upper Dawson Rd near Brecknell St,,-23.401284,150.500784,3,http://translink.com.au/stop/860036/gtfs/,,,
3,860037,Upper Dawson Rd near Ferguson St (Hail n Ride),,-23.399899,150.501029,3,http://translink.com.au/stop/860037/gtfs/,,,
4,860038,Upper Dawson Rd near Parnell St,,-23.394541,150.501886,3,http://translink.com.au/stop/860038/gtfs/,,,
5,860039,Upper Dawson Rd near Larnach St (Hail n Ride),,-23.392966,150.502149,3,http://translink.com.au/stop/860039/gtfs/,,,
6,860040,Upper Dawson Rd near Caroline St (Hail n Ride),,-23.391151,150.502437,3,http://translink.com.au/stop/860040/gtfs/,,,
7,860041,Derby St at Allenstown Shopping Centre,,-23.389660,150.503079,3,http://translink.com.au/stop/860041/gtfs/,,,
8,860042,Derby St near Talford St,,-23.388414,150.505048,3,http://translink.com.au/stop/860042/gtfs/,,,
9,860043,Derby St near Hay St,,-23.387504,150.506495,3,http://translink.com.au/stop/860043/gtfs/,,,
10,860044,Derby St near Murray St,,-23.386211,150.508564,3,http://translink.com.au/stop/860044/gtfs/,,,
11,860045,Derby St near Alma St (Hail n Ride),,-23.383176,150.513427,3,http://translink.com.au/stop/860045/gtfs/,,,
155,860047,William St near East St (Hail n Ride),,-23.380122,150.514286,1,http://translink.com.au/stop/860047/gtfs/,,,
13,860049,Queen Elizabeth Dr near Brown St,,-23.371144,150.519136,1,http://translink.com.au/stop/860049/gtfs/,,,
14,860050,Queen Elizabeth Dr near Kirkellen St,,-23.368726,150.520801,1,http://translink.com.au/stop/860050/gtfs/,,,
15,860051,Musgrave St near Armstrong St,,-23.366225,150.521972,1,http://translink.com.au/stop/860051/gtfs/,,,
16,860052,Musgrave St near Burnett St,,-23.363383,150.522459,1,http://translink.com.au/stop/860052/gtfs/,,,
17,860053,Musgrave St near Miles St,,-23.360643,150.522924,1,http://translink.com.au/stop/860053/gtfs/,,,
20,860056,Yaamba Rd near Moores Creek Rd,,-23.350486,150.523753,2,http://translink.com.au/stop/860056/gtfs/,,,
21,860057,Main St near Pearce St,,-23.350643,150.520366,2,http://translink.com.au/stop/860057/gtfs/,,,
22,860058,Main St near Alexandra St,,-23.353298,150.516290,2,http://translink.com.au/stop/860058/gtfs/,,,
23,860059,Main St near Bertram St (Hail n Ride),,-23.354796,150.514037,2,http://translink.com.au/stop/860059/gtfs/,,,
24,860060,Main St near White St,,-23.356867,150.510893,2,http://translink.com.au/stop/860060/gtfs/,,,
25,860061,Main St near St Josephs Primary (Hail n Ride),,-23.357785,150.509464,2,http://translink.com.au/stop/860061/gtfs/,,,
26,860062,Main St at Park Avenue State School,,-23.359588,150.506675,2,http://translink.com.au/stop/860062/gtfs/,,,
28,860063,Glenmore Rd near Macalister St,,-23.355799,150.504760,2,http://translink.com.au/stop/860063/gtfs/,,,
29,860064,Haynes St near Ingram St (Hail n Ride),,-23.353151,150.505371,2,http://translink.com.au/stop/860064/gtfs/,,,
30,860065,Hollingsworth St near Haynes St (Hail n Ride),,-23.351336,150.504344,2,http://translink.com.au/stop/860065/gtfs/,,,
31,860066,Hollingsworth St near Mcillwraith St,,-23.347271,150.504711,2,http://translink.com.au/stop/860066/gtfs/,,,
32,860067,Hollingsworth St near Farm St (Hail n Ride),,-23.342376,150.505152,2,http://translink.com.au/stop/860067/gtfs/,,,
89,860068,High St near Ford St (Hail n Ride),,-23.358467,150.526246,1,http://translink.com.au/stop/860068/gtfs/,,,
90,860069,High St near Moore St,,-23.358956,150.529866,2,http://translink.com.au/stop/860069/gtfs/,,,
91,860070,Berserker St near Clifton St,,-23.356946,150.530822,2,http://translink.com.au/stop/860070/gtfs/,,,
92,860071,Berserker St near Robinson St,,-23.352005,150.531555,2,http://translink.com.au/stop/860071/gtfs/,,,
93,860072,Berserker St near Kerrigan St,,-23.345339,150.532630,2,http://translink.com.au/stop/860072/gtfs/,,,
94,860073,Kerrigan St near Dean St (Hail n Ride),,-23.345117,150.537064,2,http://translink.com.au/stop/860073/gtfs/,,,
95,860074,Dean St near Hyde St,,-23.342499,150.538037,2,http://translink.com.au/stop/860074/gtfs/,,,
96,860075,Frenchville Rd near Eichelberger St (Hail n Ride),,-23.341484,150.539508,2,http://translink.com.au/stop/860075/gtfs/,,,
97,860076,Frenchville Rd at Frenchville School,,-23.342122,150.544481,2,http://translink.com.au/stop/860076/gtfs/,,,
98,860077,Murphy St near Flanagan St,,-23.345023,150.544038,2,http://translink.com.au/stop/860077/gtfs/,,,
267,860078,Perrier Ave near Merrill Ave (Hail n Ride),,-23.346708,150.543636,2,http://translink.com.au/stop/860078/gtfs/,,,
244,860079,Duthie Ave near Flowers Ave,,-23.348150,150.542824,2,http://translink.com.au/stop/860079/gtfs/,,,
250,860080,Duthie Ave near Honour St (Hail n Ride),,-23.350212,150.541398,2,http://translink.com.au/stop/860080/gtfs/,,,
242,860081,Duthie Ave near Duthie Park,,-23.354040,150.542269,2,http://translink.com.au/stop/860081/gtfs/,,,
243,860082,Marsh Ave near Ferricks Ave (Hail n Ride),,-23.353292,150.543017,2,http://translink.com.au/stop/860082/gtfs/,,,
99,860084,Thozet Rd near Zervos Ave,,-23.353180,150.546327,2,http://translink.com.au/stop/860084/gtfs/,,,
100,860086,Wiltshire St near Saunders St,,-23.359174,150.547534,2,http://translink.com.au/stop/860086/gtfs/,,,
101,860087,Dempsey St near Fisher St (Hail n Ride),,-23.360836,150.546019,2,http://translink.com.au/stop/860087/gtfs/,,,
102,860088,Duthie Ave near Dunbar St,,-23.363808,150.544581,2,http://translink.com.au/stop/860088/gtfs/,,,
103,860089,Thozet Rd near McDougall St,,-23.367386,150.544054,2,http://translink.com.au/stop/860089/gtfs/,,,
104,860090,Thozet Rd near Lakes Creek Road,,-23.372697,150.543262,2,http://translink.com.au/stop/860090/gtfs/,,,
105,860091,Lakes Creek Rd near Tucker St,,-23.373568,150.538539,2,http://translink.com.au/stop/860091/gtfs/,,,
106,860092,Lakes Creek Rd at Berserker,,-23.372558,150.530534,2,http://translink.com.au/stop/860092/gtfs/,,,
107,860093,Lakes Creek Rd near Nobbs St,,-23.372556,150.526301,2,http://translink.com.au/stop/860093/gtfs/,,,
108,860094,Lakes Creek Rd near Goodsall St,,-23.372918,150.521561,1,http://translink.com.au/stop/860094/gtfs/,,,
156,860095,East St near South St,,-23.384881,150.518448,3,http://translink.com.au/stop/860095/gtfs/,,,
157,860096,East St near Arthur St,,-23.388356,150.520978,3,http://translink.com.au/stop/860096/gtfs/,,,
158,860097,Wood St near East St,,-23.390541,150.522191,3,http://translink.com.au/stop/860097/gtfs/,,,
159,860098,Wood St near Campbell St,,-23.393753,150.517049,3,http://translink.com.au/stop/860098/gtfs/,,,
149,860101,Wood St near East St (Hail n Ride),,-23.390460,150.521961,3,http://translink.com.au/stop/860101/gtfs/,,,
150,860102,East St near Arthur St (Hail n Ride),,-23.388848,150.521088,3,http://translink.com.au/stop/860102/gtfs/,,,
151,860103,East St near South St,,-23.385417,150.518608,3,http://translink.com.au/stop/860103/gtfs/,,,
68,860104,Bridge St near Musgrave St (Hail n Ride),,-23.372462,150.520356,1,http://translink.com.au/stop/860104/gtfs/,,,
69,860105,Lakes Creek Rd near Bawden St,,-23.372425,150.530543,2,http://translink.com.au/stop/860105/gtfs/,,,
70,860106,Lakes Creek Rd near Water St (Hail n Ride),,-23.372967,150.534988,2,http://translink.com.au/stop/860106/gtfs/,,,
71,860107,Lakes Creek Rd near Thozet Rd,,-23.373831,150.541781,2,http://translink.com.au/stop/860107/gtfs/,,,
72,860108,Thozet Rd near Williamson St,,-23.372789,150.543132,2,http://translink.com.au/stop/860108/gtfs/,,,
73,860109,Thozet Rd near Rockonia Rd,,-23.366848,150.544026,2,http://translink.com.au/stop/860109/gtfs/,,,
74,860110,Thozet Rd near Dunbar St,,-23.364407,150.544420,2,http://translink.com.au/stop/860110/gtfs/,,,
75,860111,Dempsey St near Fisher St (Hail n Ride),,-23.360696,150.545593,2,http://translink.com.au/stop/860111/gtfs/,,,
76,860112,Wiltshire St at Mt Archer Primary,,-23.358483,150.547538,2,http://translink.com.au/stop/860112/gtfs/,,,
77,860114,Thozet Rd at Duthie Park,,-23.354019,150.546067,2,http://translink.com.au/stop/860114/gtfs/,,,
237,860116,Marsh Ave at Duthie Park,,-23.353149,150.543211,2,http://translink.com.au/stop/860116/gtfs/,,,
238,860117,Duthie Ave near Philip Ave (Hail n Ride),,-23.353888,150.540595,2,http://translink.com.au/stop/860117/gtfs/,,,
236,860119,Duthie Ave near Flowers Ave,,-23.348061,150.542780,2,http://translink.com.au/stop/860119/gtfs/,,,
78,860120,Murphy St near Flanagan St,,-23.345160,150.543852,2,http://translink.com.au/stop/860120/gtfs/,,,
79,860121,Frenchville Rd near Schmidt St,,-23.342220,150.544305,2,http://translink.com.au/stop/860121/gtfs/,,,
80,860122,Frenchville Rd near Eichelberger St (Hail n Ride),,-23.341652,150.539899,2,http://translink.com.au/stop/860122/gtfs/,,,
81,860123,Dean St near Venables St,,-23.342211,150.538286,2,http://translink.com.au/stop/860123/gtfs/,,,
82,860124,Kerrigan St near Dean St,,-23.345003,150.535237,2,http://translink.com.au/stop/860124/gtfs/,,,
83,860125,Berserker St at Nth Rockhampton,,-23.345262,150.532751,2,http://translink.com.au/stop/860125/gtfs/,,,
84,860126,Berserker St at North Rockhampton High,,-23.352090,150.531652,2,http://translink.com.au/stop/860126/gtfs/,,,
85,860127,Berserker St near Wooster St,,-23.357186,150.530915,2,http://translink.com.au/stop/860127/gtfs/,,,
87,860128,High St at Bauhinia House,,-23.359092,150.530030,2,http://translink.com.au/stop/860128/gtfs/,,,
88,860129,High St near Ford St,,-23.358561,150.526200,1,http://translink.com.au/stop/860129/gtfs/,,,
37,860130,Farm St at Glenmore School (Hail n Ride),,-23.337724,150.514485,2,http://translink.com.au/stop/860130/gtfs/,,,
186,860131,Scott St near Richardson Rd,,-23.342313,150.518483,2,http://translink.com.au/stop/860131/gtfs/,,,
187,860132,Richardson Rd near Menzies St,,-23.344898,150.515227,2,http://translink.com.au/stop/860132/gtfs/,,,
188,860133,Alexandra St near Richardson Rd,,-23.347715,150.511405,2,http://translink.com.au/stop/860133/gtfs/,,,
189,860134,Alexandra St near Henderson St,,-23.352265,150.514885,2,http://translink.com.au/stop/860134/gtfs/,,,
190,860135,Murray St near Denham St (Hail n Ride),,-23.382908,150.505425,3,http://translink.com.au/stop/860135/gtfs/,,,
191,860136,Murray St near Cambridge St (Hail n Ride),,-23.378154,150.501952,3,http://translink.com.au/stop/860136/gtfs/,,,
192,860137,Murray St near North St (Hail n Ride),,-23.374773,150.499506,3,http://translink.com.au/stop/860137/gtfs/,,,
142,860138,North St near Quarry St,,-23.379065,150.493607,3,http://translink.com.au/stop/860138/gtfs/,,,
253,860139,Hunter St near Jardine St (Hail n Ride),,-23.381095,150.488692,3,http://translink.com.au/stop/860139/gtfs/,,,
254,860140,Hunter St near Gorle St (Hail n Ride),,-23.380666,150.485530,3,http://translink.com.au/stop/860140/gtfs/,,,
256,860141,Pearson St near Western St,,-23.376679,150.485933,3,http://translink.com.au/stop/860141/gtfs/,,,
257,860142,Pearson St near Jardine St,,-23.377165,150.489608,3,http://translink.com.au/stop/860142/gtfs/,,,
258,860143,Jardine St near Heath St,,-23.372772,150.490516,3,http://translink.com.au/stop/860143/gtfs/,,,
259,860144,Jardine St near McKelligett St (Hail n Ride),,-23.368430,150.491266,3,http://translink.com.au/stop/860144/gtfs/,,,
260,860145,Wandal Rd near Cran St,,-23.367540,150.488755,3,http://translink.com.au/stop/860145/gtfs/,,,
262,860147,Lion Creek Rd near Cran St,,-23.365358,150.487723,3,http://translink.com.au/stop/860147/gtfs/,,,
263,860148,Lion Creek Rd near Luck Ave,,-23.364248,150.493989,3,http://translink.com.au/stop/860148/gtfs/,,,
264,860149,Lion Creek Rd at New Exhibition Rd,,-23.364717,150.497435,3,http://translink.com.au/stop/860149/gtfs/,,,
265,860150,New Exhibition Rd at Show Grounds,,-23.368380,150.498632,3,http://translink.com.au/stop/860150/gtfs/,,,
152,860152,Murray St near Rundle St (Hail n Ride),,-23.373212,150.498340,3,http://translink.com.au/stop/860152/gtfs/,,,
153,860153,Baden Powell St near Wandal Rd (Hail n Ride),,-23.369343,150.498359,3,http://translink.com.au/stop/860153/gtfs/,,,
195,860154,Lion Creek Rd near Pershing Street,,-23.364523,150.494851,3,http://translink.com.au/stop/860154/gtfs/,,,
196,860155,Lion Creek Rd near Cran St,,-23.365448,150.487876,3,http://translink.com.au/stop/860155/gtfs/,,,
197,860156,Lion Creek Rd at Barry St,,-23.366736,150.485182,3,http://translink.com.au/stop/860156/gtfs/,,,
198,860157,Wandal Rd near Bracher St (Hail n Ride),,-23.367457,150.488867,3,http://translink.com.au/stop/860157/gtfs/,,,
199,860158,Jardine St near McKelligett St (Hail n Ride),,-23.368498,150.491358,3,http://translink.com.au/stop/860158/gtfs/,,,
200,860159,Jardine St near Heath St (Hail n Ride),,-23.372676,150.490646,3,http://translink.com.au/stop/860159/gtfs/,,,
201,860160,Pearson St near Jardine St (Hail n Ride),,-23.377232,150.489459,3,http://translink.com.au/stop/860160/gtfs/,,,
202,860161,Pearson St near Western St,,-23.376763,150.485868,3,http://translink.com.au/stop/860161/gtfs/,,,
203,860162,Hunter St near Fenlon St,,-23.380496,150.485818,3,http://translink.com.au/stop/860162/gtfs/,,,
204,860163,Hunter St near Jardine St (Hail n Ride),,-23.380925,150.488833,3,http://translink.com.au/stop/860163/gtfs/,,,
114,860164,North St near Millroy St,,-23.378885,150.493488,3,http://translink.com.au/stop/860164/gtfs/,,,
205,860165,Murray St near North St (Hail n Ride),,-23.374672,150.499636,3,http://translink.com.au/stop/860165/gtfs/,,,
206,860166,Murray St near Cambridge St (Hail n Ride),,-23.377663,150.501830,3,http://translink.com.au/stop/860166/gtfs/,,,
207,860167,Murray St near Denham St (Hail n Ride),,-23.382856,150.505643,3,http://translink.com.au/stop/860167/gtfs/,,,
208,860168,Alexandra St near Henderson St,,-23.352130,150.514544,2,http://translink.com.au/stop/860168/gtfs/,,,
209,860169,Alexandra St near Richardson Rd (Hail n Ride),,-23.347827,150.511249,2,http://translink.com.au/stop/860169/gtfs/,,,
210,860170,Richardson Rd near Mercer St,,-23.343840,150.516656,2,http://translink.com.au/stop/860170/gtfs/,,,
211,860171,Scott St near Stenlake Ave,,-23.342288,150.518304,2,http://translink.com.au/stop/860171/gtfs/,,,
213,860172,McLaughlin St at Glenmore School,,-23.337253,150.513202,2,http://translink.com.au/stop/860172/gtfs/,,,
129,860173,Farm St at Glenmore Shops,,-23.334461,150.520945,2,http://translink.com.au/stop/860173/gtfs/,,,
247,860175,Richardson Rd near Barrett St,,-23.336512,150.528004,2,http://translink.com.au/stop/860175/gtfs/,,,
132,860177,Norman Rd near German St,,-23.337364,150.535935,2,http://translink.com.au/stop/860177/gtfs/,,,
133,860178,Dean St near Kerrigan St,,-23.345643,150.537746,2,http://translink.com.au/stop/860178/gtfs/,,,
134,860179,Dean St near Honour St,,-23.349185,150.537175,2,http://translink.com.au/stop/860179/gtfs/,,,
135,860180,Dean St near Robinson St (Hail n Ride),,-23.351919,150.536771,2,http://translink.com.au/stop/860180/gtfs/,,,
136,860181,Dean St near High St (Hail n Ride),,-23.359319,150.535639,2,http://translink.com.au/stop/860181/gtfs/,,,
137,860182,High St near Clanfield St,,-23.359637,150.534361,2,http://translink.com.au/stop/860182/gtfs/,,,
138,860183,Denham St at West St,,-23.383710,150.504882,3,http://translink.com.au/stop/860183/gtfs/,,,
139,860184,Denham St near Canning St (Hail n Ride),,-23.385905,150.501345,3,http://translink.com.au/stop/860184/gtfs/,,,
140,860185,Canning St at TAFE,,-23.383972,150.499166,3,http://translink.com.au/stop/860185/gtfs/,,,
141,860186,Canning St near Voss St (Hail n Ride),,-23.378419,150.495051,3,http://translink.com.au/stop/860186/gtfs/,,,
143,860187,Agnes St at Grammar School,,-23.385074,150.493573,3,http://translink.com.au/stop/860187/gtfs/,,,
145,860189,Agnes St near Penlington St,,-23.392782,150.494993,3,http://translink.com.au/stop/860189/gtfs/,,,
146,860190,Agnes St near Ward St (Hail n Ride),,-23.396805,150.494867,3,http://translink.com.au/stop/860190/gtfs/,,,
251,860192,Spencer St near Bishop St (Hail n Ride),,-23.398460,150.495244,3,http://translink.com.au/stop/860192/gtfs/,,,
109,860193,Spencer St at Botanic Gardens,,-23.398114,150.492403,3,http://translink.com.au/stop/860193/gtfs/,,,
110,860194,Agnes St near Ward St (Hail n Ride),,-23.397228,150.494665,3,http://translink.com.au/stop/860194/gtfs/,,,
111,860196,Agnes St near Bellevue Terrace,,-23.388336,150.495343,3,http://translink.com.au/stop/860196/gtfs/,,,
112,860197,Agnes St near Archer St,,-23.386049,150.493426,3,http://translink.com.au/stop/860197/gtfs/,,,
113,860198,Agnes St near North St,,-23.379919,150.492532,3,http://translink.com.au/stop/860198/gtfs/,,,
115,860199,Canning St near North St,,-23.378263,150.495175,3,http://translink.com.au/stop/860199/gtfs/,,,
116,860200,Canning St near Fitzroy St,,-23.383953,150.499365,3,http://translink.com.au/stop/860200/gtfs/,,,
117,860202,Denham St near Canning St (Hail n Ride),,-23.385757,150.501198,3,http://translink.com.au/stop/860202/gtfs/,,,
118,860203,Denham St near West St (Hail n Ride),,-23.383915,150.504161,3,http://translink.com.au/stop/860203/gtfs/,,,
119,860204,Dean St near High St (Hail n Ride),,-23.359243,150.535468,2,http://translink.com.au/stop/860204/gtfs/,,,
120,860205,Dean St at North Rockhampton High School,,-23.352817,150.536445,2,http://translink.com.au/stop/860205/gtfs/,,,
122,860206,Dean St near Gair St,,-23.349137,150.536999,2,http://translink.com.au/stop/860206/gtfs/,,,
123,860207,Norman Rd at Moores Creek Rd,,-23.335589,150.534818,2,http://translink.com.au/stop/860207/gtfs/,,,
233,860209,Richardson Rd near Bruigom St (Hail n Ride),,-23.336979,150.527411,2,http://translink.com.au/stop/860209/gtfs/,,,
126,860211,Farm St near Yaamba Rd (Hail n Ride),,-23.334644,150.520863,2,http://translink.com.au/stop/860211/gtfs/,,,
174,860214,Elphinstone St near Dean St,,-23.364404,150.535239,2,http://translink.com.au/stop/860214/gtfs/,,,
175,860215,Elphinstone St near Craig St,,-23.364764,150.538103,2,http://translink.com.au/stop/860215/gtfs/,,,
177,860218,Rockonia Rd near Codd St (Hail n Ride),,-23.366823,150.546018,2,http://translink.com.au/stop/860218/gtfs/,,,
178,860219,Rockonia Rd near Connor St (Hail n Ride),,-23.367462,150.552004,2,http://translink.com.au/stop/860219/gtfs/,,,
179,860220,Stack St near Stenhouse St,,-23.370776,150.552523,2,http://translink.com.au/stop/860220/gtfs/,,,
180,860221,Stenhouse St near Rose St,,-23.372028,150.554813,2,http://translink.com.au/stop/860221/gtfs/,,,
181,860222,Stenhouse St near Norris St (Hail n Ride),,-23.372407,150.557625,2,http://translink.com.au/stop/860222/gtfs/,,,
182,860223,Paterson St at Lakes Creek School,,-23.376140,150.560418,2,http://translink.com.au/stop/860223/gtfs/,,,
160,860224,Lakes Creek Rd near Mackay St,,-23.377935,150.560510,2,http://translink.com.au/stop/860224/gtfs/,,,
161,860225,Cooper St near Paterson St,,-23.375742,150.558244,2,http://translink.com.au/stop/860225/gtfs/,,,
162,860226,Stenhouse St near Curran St (Hail n Ride),,-23.372411,150.556994,2,http://translink.com.au/stop/860226/gtfs/,,,
163,860227,Stenhouse St near Rose St,,-23.372180,150.555331,2,http://translink.com.au/stop/860227/gtfs/,,,
164,860228,Stenhouse St near Stack St,,-23.371834,150.552573,2,http://translink.com.au/stop/860228/gtfs/,,,
165,860229,Stack St near Rhodes St,,-23.370619,150.552454,2,http://translink.com.au/stop/860229/gtfs/,,,
166,860230,Rockonia Rd near Connor St,,-23.367548,150.551966,2,http://translink.com.au/stop/860230/gtfs/,,,
168,860231,Rockonia Rd at Codd St,,-23.366897,150.546168,2,http://translink.com.au/stop/860231/gtfs/,,,
169,860232,Rockonia Rd near Thozet Rd,,-23.366725,150.544485,2,http://translink.com.au/stop/860232/gtfs/,,,
170,860234,Elphinstone St at Rigalsford Park,,-23.365081,150.539664,2,http://translink.com.au/stop/860234/gtfs/,,,
171,860235,Elphinstone St near Dean St,,-23.364491,150.535076,2,http://translink.com.au/stop/860235/gtfs/,,,
172,860236,Elphinstone St near Bawden St,,-23.364097,150.531910,2,http://translink.com.au/stop/860236/gtfs/,,,
225,860237,Yaamba Rd near Boland St,,-23.347339,150.522320,2,http://translink.com.au/stop/860237/gtfs/,,,
226,860238,Yaamba Rd near Richardson Rd,,-23.342908,150.520414,2,http://translink.com.au/stop/860238/gtfs/,,,
227,860239,Yaamba Rd at Glenmore,,-23.334149,150.518287,2,http://translink.com.au/stop/860239/gtfs/,,,
228,860240,Yaamba Rd near Carlton St (Hail n Ride),,-23.325682,150.516856,2,http://translink.com.au/stop/860240/gtfs/,,,
183,860308,Central Queensland University,,-23.325110,150.519695,2,http://translink.com.au/stop/860308/gtfs/,,,
232,860309,Norman Rd at Nth Rockhampton Nursing Centre,,-23.326855,150.530858,2,http://translink.com.au/stop/860309/gtfs/,,,
248,860310,Norman Rd at Nth Rockhampton Nursing Centre,,-23.326613,150.530475,2,http://translink.com.au/stop/860310/gtfs/,,,
229,860312,Yaamba Rd near Yeppoon Rd (Hail n Ride),,-23.315778,150.516420,2,http://translink.com.au/stop/860312/gtfs/,,,
214,860313,Jones St near Brosnan Cr,,-23.293630,150.514245,2,http://translink.com.au/stop/860313/gtfs/,,,
215,860314,Brosnan Cr near Jones St,,-23.294762,150.513677,2,http://translink.com.au/stop/860314/gtfs/,,,
216,860315,Yaamba Rd at Parkhurst School,,-23.297019,150.512561,2,http://translink.com.au/stop/860315/gtfs/,,,
217,860316,Yaamba Rd at Meilland St,,-23.300663,150.513485,2,http://translink.com.au/stop/860316/gtfs/,,,
218,860317,Yaamba Rd at Boundary Rd,,-23.307214,150.515166,2,http://translink.com.au/stop/860317/gtfs/,,,
219,860318,Yaamba Rd near Carlton St,,-23.328651,150.517465,2,http://translink.com.au/stop/860318/gtfs/,,,
220,860319,Yaamba Rd near Farm St,,-23.333820,150.518574,2,http://translink.com.au/stop/860319/gtfs/,,,
222,860320,Yaamba Rd near Macartney St (Hail n Ride),,-23.339748,150.519849,2,http://translink.com.au/stop/860320/gtfs/,,,
223,860321,Yaamba Rd at Red Hill,,-23.344241,150.521338,2,http://translink.com.au/stop/860321/gtfs/,,,
224,860322,Main St at Emmaus College,,-23.348007,150.522929,2,http://translink.com.au/stop/860322/gtfs/,,,
127,860383,Agnes St at Rockhampton Grammar School (HnR),,-23.384465,150.493167,3,http://translink.com.au/stop/860383/gtfs/,,,
240,860384,Lakes Creek Rd near Dorly St,,-23.387961,150.566926,2,http://translink.com.au/stop/860384/gtfs/,,,
144,860412,Agnes St near Denham St,,-23.388766,150.495900,3,http://translink.com.au/stop/860412/gtfs/,,,
193,860436,Campbell St at Rockhampton High School,,-23.370555,150.499622,3,http://translink.com.au/stop/860436/gtfs/,,,
36,860438,Farm St near Glenmore High,,-23.336494,150.516666,2,http://translink.com.au/stop/860438/gtfs/,,,
246,860440,Feez St near Wafer Ct (Hail n Ride),,-23.339788,150.524707,2,http://translink.com.au/stop/860440/gtfs/,,,
234,860441,Feez St near Water Ct (Hail n Ride),,-23.340064,150.525122,2,http://translink.com.au/stop/860441/gtfs/,,,
130,860442,Farm St near Bramble St (Hail n Ride),,-23.331664,150.526838,2,http://translink.com.au/stop/860442/gtfs/,,,
125,860443,Farm St near Bramble St (Hail n Ride),,-23.331829,150.526917,2,http://translink.com.au/stop/860443/gtfs/,,,
252,860447,Eton St near Crescent Lagoon State School,,-23.382921,150.489049,3,http://translink.com.au/stop/860447/gtfs/,,,
33,860448,Withers St near Boswood St,,-23.339899,150.503513,2,http://translink.com.au/stop/860448/gtfs/,,,
18,860450,Stockland Shopping Fair,,-23.357209,150.521863,1,http://translink.com.au/stop/860450/gtfs/,,,
184,860451,McLaughlin St at Glenmore School,,-23.337527,150.513510,2,http://translink.com.au/stop/860451/gtfs/,,,
86,860452,Berserker St at Berserker State School,,-23.366334,150.529452,2,http://translink.com.au/stop/860452/gtfs/,,,
128,860457,Geordie St at Frenchville State School,,-23.340937,150.543983,2,http://translink.com.au/stop/860457/gtfs/,,,
38,860461,Maloney St near Alexandra St (Hail n Ride),,-23.338393,150.503770,2,http://translink.com.au/stop/860461/gtfs/,,,
34,860462,Maloney St near Alexandra St (Hail n Ride),,-23.338324,150.503731,2,http://translink.com.au/stop/860462/gtfs/,,,
12,860468,Denham St near Bolsover St,,-23.379060,150.511955,1,http://translink.com.au/stop/860468/gtfs/,,,
266,860469,Eton St near Considine St (Hail n Ride),,-23.383278,150.489115,3,http://translink.com.au/stop/860469/gtfs/,,,
255,860478,Western St near Wambool St,,-23.378178,150.485214,3,http://translink.com.au/stop/860478/gtfs/,,,
194,860479,New Exhibition Rd at Rockhampton Showgrounds,,-23.368046,150.498162,3,http://translink.com.au/stop/860479/gtfs/,,,
148,860480,Wood St near Bolsover St,,-23.392391,150.518921,3,http://translink.com.au/stop/860480/gtfs/,,,
19,860481,Musgrave Street at Shopping Fair,,-23.354072,150.523944,1,http://translink.com.au/stop/860481/gtfs/,,,
52,860482,Musgrave Street at Moores Creek,,-23.354462,150.524136,1,http://translink.com.au/stop/860482/gtfs/,,,
35,860483,Farm St at Glenmore School,,-23.337472,150.514417,2,http://translink.com.au/stop/860483/gtfs/,,,
221,860484,Yaamba Rd near Yewdale Dr,,-23.337805,150.519370,2,http://translink.com.au/stop/860484/gtfs/,,,
239,860489,Thozet Rd near Bloxton St,,-23.358159,150.545558,2,http://translink.com.au/stop/860489/gtfs/,,,
241,860490,Thozet Rd near Wigginton St,,-23.357761,150.545482,2,http://translink.com.au/stop/860490/gtfs/,,,
121,860491,Dean St near Robinson St,,-23.350814,150.536734,2,http://translink.com.au/stop/860491/gtfs/,,,
131,860492,Norman Rd near Cedar Drive,,-23.331766,150.533279,2,http://translink.com.au/stop/860492/gtfs/,,,
124,860493,Norman Rd near Richardson Rd,,-23.332534,150.533370,2,http://translink.com.au/stop/860493/gtfs/,,,
231,860496,Berrill Lane at CQUniversity (Health Clinic),,-23.322837,150.521475,2,http://translink.com.au/stop/860496/gtfs/,,,
249,860497,Berrill Lane at CQUniversity (Health Clinic),,-23.322825,150.521620,2,http://translink.com.au/stop/860497/gtfs/,,,
261,860510,Hamilton Ave near Wandal Road,,-23.366710,150.484343,3,http://translink.com.au/stop/860510/gtfs/,,,
154,860511,Campbell St at Rockhampton High,,-23.370241,150.499655,3,http://translink.com.au/stop/860511/gtfs/,,,
173,860512,Paterson St at Lakes Creek School,,-23.376065,150.560609,2,http://translink.com.au/stop/860512/gtfs/,,,
45,860518,Main St near Renshaw St,,-23.359375,150.506774,2,http://translink.com.au/stop/860518/gtfs/,,,
235,860519,Feez St near Walls St (Hail n Ride),,-23.341196,150.525924,2,http://translink.com.au/stop/860519/gtfs/,,,
147,860521,O Connell St near Depot Hill School (Hail n Ride),,-23.395793,150.517807,3,http://translink.com.au/stop/860521/gtfs/,,,
245,860523,St Anthonys School (Hail n Ride),,-23.340882,150.527241,2,http://translink.com.au/stop/860523/gtfs/,,,
212,860534,Scott St at Westmoreland St,,-23.339800,150.515610,2,http://translink.com.au/stop/860534/gtfs/,,,
185,860535,Scott Street at Harden Street,,-23.339450,150.515477,2,http://translink.com.au/stop/860535/gtfs/,,,
27,860593,Glenmore Road at Highway Street,,-23.358875,150.505365,2,http://translink.com.au/stop/860593/gtfs/,,,
167,860594,Rockonia Road at Horton Street,,-23.367107,150.547921,2,http://translink.com.au/stop/860594/gtfs/,,,
176,860595,Elphinstone Street at Rigalsford Park,,-23.364963,150.539676,2,http://translink.com.au/stop/860595/gtfs/,,,
230,860643,Yaamba Rd at Boundary Rd,,-23.305530,150.514343,2,http://translink.com.au/stop/860643/gtfs/,,,
