service_id,monday,tuesday,wednesday,thursday,friday,saturday,sunday,start_date,end_date
1,0,0,0,0,0,1,0,20210220,20210417
2,0,0,0,0,0,0,1,20210221,20210418
3,1,1,1,1,1,0,0,20210406,20210416
4,1,1,1,1,1,0,0,20210218,20210419
