stop_id,stop_code,stop_name,stop_desc,stop_lat,stop_lon,zone_id,stop_url,location_type,parent_station,platform_code
207,860014,Main St near Alexandra St,,-23.353140,150.516328,2,http://translink.com.au/stop/860014/gtfs/,,,
208,860015,Main St near Twigg St,,-23.350729,150.520029,2,http://translink.com.au/stop/860015/gtfs/,,,
92,860016,Stockland Rockhampton,,-23.357239,150.522113,1,http://translink.com.au/stop/860016/gtfs/,,,
93,860018,Musgrave St near Richmond St,,-23.359395,150.523449,1,http://translink.com.au/stop/860018/gtfs/,,,
94,860019,Musgrave St near Edington St,,-23.361870,150.523046,1,http://translink.com.au/stop/860019/gtfs/,,,
95,860020,Musgrave St near Burnett St,,-23.364200,150.522638,1,http://translink.com.au/stop/860020/gtfs/,,,
96,860021,Musgrave St near Armstrong St,,-23.366127,150.522307,1,http://translink.com.au/stop/860021/gtfs/,,,
97,860022,Musgrave St near Bernard St,,-23.370390,150.520033,1,http://translink.com.au/stop/860022/gtfs/,,,
98,860023,Fitzroy St near East St,,-23.376384,150.512295,1,http://translink.com.au/stop/860023/gtfs/,,,
59,860024,Bolsover Street (Denham Street),,-23.378180,150.511884,1,http://translink.com.au/stop/860024/gtfs/,,,
203,860026,Derby St near Murray St,,-23.386531,150.508435,3,http://translink.com.au/stop/860026/gtfs/,,,
204,860027,Derby St near Talford St,,-23.388364,150.505514,3,http://translink.com.au/stop/860027/gtfs/,,,
205,860028,Derby St at Allenstown Shopping Centre,,-23.389879,150.503087,3,http://translink.com.au/stop/860028/gtfs/,,,
206,860042,Derby St near Talford St,,-23.388414,150.505048,3,http://translink.com.au/stop/860042/gtfs/,,,
220,860043,Derby St near Hay St,,-23.387504,150.506495,3,http://translink.com.au/stop/860043/gtfs/,,,
221,860044,Derby St near Murray St,,-23.386211,150.508564,3,http://translink.com.au/stop/860044/gtfs/,,,
222,860045,Derby St near Alma St (Hail n Ride),,-23.383176,150.513427,3,http://translink.com.au/stop/860045/gtfs/,,,
82,860049,Queen Elizabeth Dr near Brown St,,-23.371144,150.519136,1,http://translink.com.au/stop/860049/gtfs/,,,
83,860050,Queen Elizabeth Dr near Kirkellen St,,-23.368726,150.520801,1,http://translink.com.au/stop/860050/gtfs/,,,
84,860051,Musgrave St near Armstrong St,,-23.366225,150.521972,1,http://translink.com.au/stop/860051/gtfs/,,,
85,860052,Musgrave St near Burnett St,,-23.363383,150.522459,1,http://translink.com.au/stop/860052/gtfs/,,,
86,860053,Musgrave St near Miles St,,-23.360643,150.522924,1,http://translink.com.au/stop/860053/gtfs/,,,
87,860055,Stockland Shopping Fair,,-23.357271,150.522345,1,http://translink.com.au/stop/860055/gtfs/,,,
111,860056,Yaamba Rd near Moores Creek Rd,,-23.350486,150.523753,2,http://translink.com.au/stop/860056/gtfs/,,,
215,860057,Main St near Pearce St,,-23.350643,150.520366,2,http://translink.com.au/stop/860057/gtfs/,,,
216,860058,Main St near Alexandra St,,-23.353298,150.516290,2,http://translink.com.au/stop/860058/gtfs/,,,
209,860070,Berserker St near Clifton St,,-23.356946,150.530822,2,http://translink.com.au/stop/860070/gtfs/,,,
210,860071,Berserker St near Robinson St,,-23.352005,150.531555,2,http://translink.com.au/stop/860071/gtfs/,,,
214,860072,Berserker St near Kerrigan St,,-23.345339,150.532630,2,http://translink.com.au/stop/860072/gtfs/,,,
213,860091,Lakes Creek Rd near Tucker St,,-23.373568,150.538539,2,http://translink.com.au/stop/860091/gtfs/,,,
56,860092,Lakes Creek Rd at Berserker,,-23.372558,150.530534,2,http://translink.com.au/stop/860092/gtfs/,,,
57,860093,Lakes Creek Rd near Nobbs St,,-23.372556,150.526301,2,http://translink.com.au/stop/860093/gtfs/,,,
58,860094,Lakes Creek Rd near Goodsall St,,-23.372918,150.521561,1,http://translink.com.au/stop/860094/gtfs/,,,
60,860104,Bridge St near Musgrave St (Hail n Ride),,-23.372462,150.520356,1,http://translink.com.au/stop/860104/gtfs/,,,
191,860105,Lakes Creek Rd near Bawden St,,-23.372425,150.530543,2,http://translink.com.au/stop/860105/gtfs/,,,
192,860106,Lakes Creek Rd near Water St (Hail n Ride),,-23.372967,150.534988,2,http://translink.com.au/stop/860106/gtfs/,,,
187,860138,North St near Quarry St,,-23.379065,150.493607,3,http://translink.com.au/stop/860138/gtfs/,,,
188,860139,Hunter St near Jardine St (Hail n Ride),,-23.381095,150.488692,3,http://translink.com.au/stop/860139/gtfs/,,,
189,860140,Hunter St near Gorle St (Hail n Ride),,-23.380666,150.485530,3,http://translink.com.au/stop/860140/gtfs/,,,
104,860162,Hunter St near Fenlon St,,-23.380496,150.485818,3,http://translink.com.au/stop/860162/gtfs/,,,
105,860163,Hunter St near Jardine St (Hail n Ride),,-23.380925,150.488833,3,http://translink.com.au/stop/860163/gtfs/,,,
106,860164,North St near Millroy St,,-23.378885,150.493488,3,http://translink.com.au/stop/860164/gtfs/,,,
184,860183,Denham St at West St,,-23.383710,150.504882,3,http://translink.com.au/stop/860183/gtfs/,,,
185,860184,Denham St near Canning St (Hail n Ride),,-23.385905,150.501345,3,http://translink.com.au/stop/860184/gtfs/,,,
102,860185,Canning St at TAFE,,-23.383972,150.499166,3,http://translink.com.au/stop/860185/gtfs/,,,
186,860186,Canning St near Voss St (Hail n Ride),,-23.378419,150.495051,3,http://translink.com.au/stop/860186/gtfs/,,,
218,860187,Agnes St at Grammar School,,-23.385074,150.493573,3,http://translink.com.au/stop/860187/gtfs/,,,
107,860200,Canning St near Fitzroy St,,-23.383953,150.499365,3,http://translink.com.au/stop/860200/gtfs/,,,
108,860202,Denham St near Canning St (Hail n Ride),,-23.385757,150.501198,3,http://translink.com.au/stop/860202/gtfs/,,,
109,860203,Denham St near West St (Hail n Ride),,-23.383915,150.504161,3,http://translink.com.au/stop/860203/gtfs/,,,
212,860223,Paterson St at Lakes Creek School,,-23.376140,150.560418,2,http://translink.com.au/stop/860223/gtfs/,,,
55,860224,Lakes Creek Rd near Mackay St,,-23.377935,150.560510,2,http://translink.com.au/stop/860224/gtfs/,,,
112,860237,Yaamba Rd near Boland St,,-23.347339,150.522320,2,http://translink.com.au/stop/860237/gtfs/,,,
113,860238,Yaamba Rd near Richardson Rd,,-23.342908,150.520414,2,http://translink.com.au/stop/860238/gtfs/,,,
114,860239,Yaamba Rd at Glenmore,,-23.334149,150.518287,2,http://translink.com.au/stop/860239/gtfs/,,,
116,860240,Yaamba Rd near Carlton St (Hail n Ride),,-23.325682,150.516856,2,http://translink.com.au/stop/860240/gtfs/,,,
118,860241,Yeppoon Rd near Department of Primary Industries,,-23.313386,150.518534,2,http://translink.com.au/stop/860241/gtfs/,,,
122,860242,Yeppoon Rd near Bondoola Rd (Hail n Ride),,-23.170295,150.687163,81,http://translink.com.au/stop/860242/gtfs/,,,
123,860243,Yeppoon Rd near Millroy Dr (Hail n Ride),,-23.152694,150.713843,81,http://translink.com.au/stop/860243/gtfs/,,,
124,860244,Rockhampton Rd near Palmer Dr,,-23.142650,150.724990,92,http://translink.com.au/stop/860244/gtfs/,,,
125,860245,Rockhampton Rd near Kingfisher Dr,,-23.136472,150.725959,92,http://translink.com.au/stop/860245/gtfs/,,,
21,860246,Rockhampton Rd near Casey Dr,,-23.132626,150.728845,92,http://translink.com.au/stop/860246/gtfs/,,,
22,860247,Rockhampton Rd near Birdwood Ave,,-23.133018,150.736033,92,http://translink.com.au/stop/860247/gtfs/,,,
3,860248,Park St at Yeppoon Central Shopping Centre,,-23.132905,150.737314,92,http://translink.com.au/stop/860248/gtfs/,,,
4,860249,Queen St near Arthur St,,-23.129503,150.741659,92,http://translink.com.au/stop/860249/gtfs/,,,
5,860250,Hill Street Interchange,,-23.129931,150.747261,92,http://translink.com.au/stop/860250/gtfs/,,,
34,860251,Appleton Dr near Sea View Rd,,-23.133411,150.748914,92,http://translink.com.au/stop/860251/gtfs/,,,
35,860252,Appleton Dr near Sea View Rd,,-23.136254,150.746945,92,http://translink.com.au/stop/860252/gtfs/,,,
127,860253,Matthew Flinders Dr at Wattle Grove,,-23.139819,150.755079,92,http://translink.com.au/stop/860253/gtfs/,,,
128,860254,Gregory St near Percy Ford St,,-23.143842,150.759500,92,http://translink.com.au/stop/860254/gtfs/,,,
129,860255,Elma St near Geldard St,,-23.145389,150.760649,92,http://translink.com.au/stop/860255/gtfs/,,,
130,860256,Matthew Flinders Dr near Maida St,,-23.148362,150.762156,92,http://translink.com.au/stop/860256/gtfs/,,,
131,860257,Scenic Hwy near Old Scenic Hwy,,-23.157984,150.768117,93,http://translink.com.au/stop/860257/gtfs/,,,
132,860258,Scenic Hwy near Clayton Rd,,-23.163786,150.772475,93,http://translink.com.au/stop/860258/gtfs/,,,
133,860259,Scenic Hwy near Rosslyn St,,-23.167387,150.782424,93,http://translink.com.au/stop/860259/gtfs/,,,
134,860260,Waterline Way at Keppel Bay Marina,,-23.164096,150.788131,93,http://translink.com.au/stop/860260/gtfs/,,,
136,860261,Vin E Jones Memorial Dr near Breakwater Dr,,-23.165614,150.790828,93,http://translink.com.au/stop/860261/gtfs/,,,
137,860262,Scenic Hwy near Wildin Way,,-23.190036,150.791448,93,http://translink.com.au/stop/860262/gtfs/,,,
138,860263,Scenic Hwy near Ware Ave,,-23.198004,150.789616,94,http://translink.com.au/stop/860263/gtfs/,,,
139,860264,Scenic Hwy near Coolwaters Esp,,-23.205944,150.787196,94,http://translink.com.au/stop/860264/gtfs/,,,
140,860265,Scenic Hwy near Resada Esp (Hail n Ride),,-23.210069,150.789559,94,http://translink.com.au/stop/860265/gtfs/,,,
141,860266,Scenic Hwy near Resada Esp (Hail n Ride),,-23.211738,150.790298,94,http://translink.com.au/stop/860266/gtfs/,,,
142,860267,Scenic Hwy near Coolwaters Esp,,-23.216615,150.792501,94,http://translink.com.au/stop/860267/gtfs/,,,
143,860268,Scenic Hwy near Sunflower St,,-23.221006,150.793229,94,http://translink.com.au/stop/860268/gtfs/,,,
144,860269,Scenic Hwy near Sunflower St,,-23.222878,150.792931,94,http://translink.com.au/stop/860269/gtfs/,,,
145,860270,Scenic Hwy near Young Ave,,-23.226148,150.792460,94,http://translink.com.au/stop/860270/gtfs/,,,
146,860271,Scenic Hwy near Haven Rd,,-23.238772,150.816150,95,http://translink.com.au/stop/860271/gtfs/,,,
147,860272,Pattison St near Vernon St,,-23.246121,150.818646,95,http://translink.com.au/stop/860272/gtfs/,,,
148,860273,Pattison St near Phillip St,,-23.250040,150.821438,95,http://translink.com.au/stop/860273/gtfs/,,,
149,860274,Pattison St near Hill St,,-23.256726,150.826186,95,http://translink.com.au/stop/860274/gtfs/,,,
150,860275,Hartley St near Connor St,,-23.267109,150.819964,95,http://translink.com.au/stop/860275/gtfs/,,,
151,860276,Claude St near Lindsay St,,-23.273576,150.819478,95,http://translink.com.au/stop/860276/gtfs/,,,
196,860277,Connor St near Warnock St,,-23.267398,150.821605,95,http://translink.com.au/stop/860277/gtfs/,,,
197,860278,Hewitt St near Wood St,,-23.262515,150.822443,95,http://translink.com.au/stop/860278/gtfs/,,,
152,860279,Pattison St near Phillip St,,-23.250180,150.821430,95,http://translink.com.au/stop/860279/gtfs/,,,
153,860280,Pattison St near Vernon St,,-23.245963,150.818451,95,http://translink.com.au/stop/860280/gtfs/,,,
154,860281,Pattison St near Haven Rd,,-23.239660,150.816923,95,http://translink.com.au/stop/860281/gtfs/,,,
155,860282,Scenic Hwy near Sunflower St,,-23.226130,150.792337,94,http://translink.com.au/stop/860282/gtfs/,,,
156,860283,Scenic Hwy near Sunflower St,,-23.222841,150.792808,94,http://translink.com.au/stop/860283/gtfs/,,,
157,860284,Scenic Hwy near Coolwaters Esp,,-23.220518,150.793193,94,http://translink.com.au/stop/860284/gtfs/,,,
158,860285,Scenic Hwy near Coolwaters Esp,,-23.216591,150.792351,94,http://translink.com.au/stop/860285/gtfs/,,,
159,860286,Scenic Hwy near Resada Esp,,-23.211712,150.790158,94,http://translink.com.au/stop/860286/gtfs/,,,
160,860287,Scenic Hwy near Resada Esp,,-23.209132,150.788882,94,http://translink.com.au/stop/860287/gtfs/,,,
161,860288,Scenic Hwy near Coolwaters Esp,,-23.203868,150.786784,94,http://translink.com.au/stop/860288/gtfs/,,,
162,860289,Scenic Hwy at Causeway Lake,,-23.197897,150.789473,94,http://translink.com.au/stop/860289/gtfs/,,,
163,860290,Scenic Hwy near Wildin Way,,-23.189633,150.791377,93,http://translink.com.au/stop/860290/gtfs/,,,
164,860291,Scenic Hwy near Mulambin Rd,,-23.167233,150.781210,93,http://translink.com.au/stop/860291/gtfs/,,,
165,860292,Scenic Hwy near Clayton Rd,,-23.163700,150.772249,93,http://translink.com.au/stop/860292/gtfs/,,,
166,860293,Scenic Hwy near Old Scenic Hwy,,-23.157648,150.767638,93,http://translink.com.au/stop/860293/gtfs/,,,
167,860294,Matthew Flinders Dr near Maida St,,-23.148869,150.762154,92,http://translink.com.au/stop/860294/gtfs/,,,
168,860295,Elma St near Geldard St,,-23.145446,150.760609,92,http://translink.com.au/stop/860295/gtfs/,,,
169,860296,Gregory St near Percy Ford St,,-23.143910,150.759369,92,http://translink.com.au/stop/860296/gtfs/,,,
170,860297,Matthew Flinders Dr at Wattle Grove,,-23.139946,150.755103,92,http://translink.com.au/stop/860297/gtfs/,,,
171,860298,Appleton Dr near Sea View Rd,,-23.135902,150.746611,92,http://translink.com.au/stop/860298/gtfs/,,,
172,860299,Appleton Dr near Anzac Pde,,-23.133124,150.749143,92,http://translink.com.au/stop/860299/gtfs/,,,
6,860300,James St near Park St,,-23.128518,150.741900,92,http://translink.com.au/stop/860300/gtfs/,,,
7,860301,Park St near Gilpin St,,-23.131919,150.738370,92,http://translink.com.au/stop/860301/gtfs/,,,
10,860302,Rockhampton Rd near Birdwood Ave,,-23.132957,150.735737,92,http://translink.com.au/stop/860302/gtfs/,,,
11,860303,Rockhampton Rd near Barmaryee Rd,,-23.133451,150.728038,92,http://translink.com.au/stop/860303/gtfs/,,,
173,860304,Rockhampton Rd near Kingfisher Dr,,-23.136724,150.726070,92,http://translink.com.au/stop/860304/gtfs/,,,
174,860305,Rockhampton Rd near Atlantic Dr,,-23.142082,150.725190,92,http://translink.com.au/stop/860305/gtfs/,,,
175,860306,Yeppoon Rd near Millroy Dr,,-23.152824,150.713967,81,http://translink.com.au/stop/860306/gtfs/,,,
176,860307,Yeppoon Rd near Bondoola Rd (Hail n Ride),,-23.170646,150.686486,81,http://translink.com.au/stop/860307/gtfs/,,,
115,860308,Central Queensland University,,-23.325110,150.519695,2,http://translink.com.au/stop/860308/gtfs/,,,
117,860312,Yaamba Rd near Yeppoon Rd (Hail n Ride),,-23.315778,150.516420,2,http://translink.com.au/stop/860312/gtfs/,,,
179,860319,Yaamba Rd near Farm St,,-23.333820,150.518574,2,http://translink.com.au/stop/860319/gtfs/,,,
180,860320,Yaamba Rd near Macartney St (Hail n Ride),,-23.339748,150.519849,2,http://translink.com.au/stop/860320/gtfs/,,,
181,860321,Yaamba Rd at Red Hill,,-23.344241,150.521338,2,http://translink.com.au/stop/860321/gtfs/,,,
182,860322,Main St at Emmaus College,,-23.348007,150.522929,2,http://translink.com.au/stop/860322/gtfs/,,,
89,860323,Lawrie St at Gracemere,,-23.436209,150.455624,10,http://translink.com.au/stop/860323/gtfs/,,,
90,860324,Conaghan St near Hicks St,,-23.444246,150.459627,10,http://translink.com.au/stop/860324/gtfs/,,,
91,860325,Breakspear St near Victoria St,,-23.449516,150.463933,10,http://translink.com.au/stop/860325/gtfs/,,,
75,860333,Breakspear St near Conaghan St,,-23.448859,150.458097,10,http://translink.com.au/stop/860333/gtfs/,,,
224,860334,Davison St near Dawson St,,-23.451747,150.453198,10,http://translink.com.au/stop/860334/gtfs/,,,
225,860335,Johnson Rd near Charles Cr,,-23.449872,150.452041,10,http://translink.com.au/stop/860335/gtfs/,,,
76,860336,Johnson Rd near Labanka Cr,,-23.444763,150.453560,10,http://translink.com.au/stop/860336/gtfs/,,,
77,860337,Ranger St near Barry St (Hail n Ride),,-23.440470,150.455681,10,http://translink.com.au/stop/860337/gtfs/,,,
78,860338,Lawrie St near Ranger St,,-23.438594,150.457180,10,http://translink.com.au/stop/860338/gtfs/,,,
233,860339,Conaghan St near Hicks Cl,,-23.444189,150.459396,10,http://translink.com.au/stop/860339/gtfs/,,,
79,860340,Lawrie St near Conaghan Park,,-23.436229,150.455283,10,http://translink.com.au/stop/860340/gtfs/,,,
101,860345,Burnett Hwy near Carige Ave,,-23.561011,150.473331,13,http://translink.com.au/stop/860345/gtfs/,,,
99,860348,James St at Mt Morgan,,-23.638604,150.387628,15,http://translink.com.au/stop/860348/gtfs/,,,
41,860349,Roden St near Taylor St,,-23.326413,150.790937,85,http://translink.com.au/stop/860349/gtfs/,,,
25,860350,Meikleville St near Keppel St,,-23.113354,150.746757,92,http://translink.com.au/stop/860350/gtfs/,,,
27,860352,Salisbury St near Jarman St,,-23.107380,150.743928,91,http://translink.com.au/stop/860352/gtfs/,,,
28,860353,Barnes St near Salisbury St,,-23.105515,150.744425,91,http://translink.com.au/stop/860353/gtfs/,,,
29,860354,Pacific Heights Rd near Setu Dr,,-23.099315,150.741189,91,http://translink.com.au/stop/860354/gtfs/,,,
30,860355,Pacific Heights Rd near Roberts Rd,,-23.100127,150.740875,91,http://translink.com.au/stop/860355/gtfs/,,,
32,860356,Farnborough Rd near Todd Ave,,-23.112636,150.749472,92,http://translink.com.au/stop/860356/gtfs/,,,
26,860357,Farnborough Rd near Todd Ave,,-23.112051,150.748628,92,http://translink.com.au/stop/860357/gtfs/,,,
33,860358,Farnborough Rd near Ocean Circle,,-23.118555,150.749208,92,http://translink.com.au/stop/860358/gtfs/,,,
36,860359,Swordfish Ave near Dolphin Ct (Hail n Ride),,-23.145004,150.755319,92,http://translink.com.au/stop/860359/gtfs/,,,
37,860361,Marina Ave near Palm Ave,,-23.146754,150.756332,92,http://translink.com.au/stop/860361/gtfs/,,,
38,860364,Robinson St near Ivey St West,,-23.152302,150.761014,92,http://translink.com.au/stop/860364/gtfs/,,,
39,860365,Ashgrove Cr near Quandong Ct,,-23.152827,150.759883,92,http://translink.com.au/stop/860365/gtfs/,,,
23,860366,Meilland St near Eden Way,,-23.119698,150.736723,92,http://translink.com.au/stop/860366/gtfs/,,,
199,860371,Annie Dr near Coorooman Creek Rd,,-23.254082,150.675527,6,http://translink.com.au/stop/860371/gtfs/,,,
103,860372,Terminal Dr at Rockhampton Airport,,-23.378642,150.478908,3,http://translink.com.au/stop/860372/gtfs/,,,
121,860374,Yeppoon Rd near Artillery Rd (Hail n Ride),,-23.245631,150.608669,5,http://translink.com.au/stop/860374/gtfs/,,,
177,860375,Yeppoon Rd near Dairy Inn Rd,,-23.246312,150.608473,5,http://translink.com.au/stop/860375/gtfs/,,,
119,860376,Yeppoon Rd near Rattenbury Rd,,-23.283918,150.570819,4,http://translink.com.au/stop/860376/gtfs/,,,
120,860377,Yeppoon Rd near Caporn Rd,,-23.281669,150.582925,4,http://translink.com.au/stop/860377/gtfs/,,,
195,860378,Hartley St near Connor St,,-23.267825,150.819787,95,http://translink.com.au/stop/860378/gtfs/,,,
40,860379,Taranganba State School (Hail n Ride),,-23.154238,150.754240,92,http://translink.com.au/stop/860379/gtfs/,,,
31,860382,Smith St near Farnborough Rd,,-23.107780,150.748193,91,http://translink.com.au/stop/860382/gtfs/,,,
61,860385,Emu Park Rd near Hartington St,,-23.396859,150.573658,4,http://translink.com.au/stop/860385/gtfs/,,,
62,860386,Emu Park Rd near Nerimbera School Rd,,-23.406499,150.585470,4,http://translink.com.au/stop/860386/gtfs/,,,
63,860387,Emu Park Rd near Black Creek Rd (Hail n Ride),,-23.413315,150.598829,4,http://translink.com.au/stop/860387/gtfs/,,,
64,860388,Emu Park Rd near Mulgoodoo Rd (Hail n Ride),,-23.388182,150.618159,4,http://translink.com.au/stop/860388/gtfs/,,,
65,860389,Emu Park Rd near Thompsons Point Rd,,-23.383080,150.627337,5,http://translink.com.au/stop/860389/gtfs/,,,
66,860390,Emu Park Rd near Leaholme Rd,,-23.365486,150.646736,5,http://translink.com.au/stop/860390/gtfs/,,,
67,860391,Emu Park Rd near Sleipner Siding Rd,,-23.349099,150.660712,5,http://translink.com.au/stop/860391/gtfs/,,,
68,860392,Emu Park Rd near Sleipner Siding Rd,,-23.345622,150.663638,5,http://translink.com.au/stop/860392/gtfs/,,,
69,860393,Emu Park Rd near Tuckers Rd (Hail n Ride),,-23.320828,150.681018,6,http://translink.com.au/stop/860393/gtfs/,,,
70,860394,Keppel Sands Rd near Hoffmans Rd (Hail n Ride),,-23.342060,150.711663,6,http://translink.com.au/stop/860394/gtfs/,,,
71,860395,Keppel Sands Rd near Higginsons Rd,,-23.346919,150.738566,7,http://translink.com.au/stop/860395/gtfs/,,,
72,860396,Keppel Sands Rd near Coowonga Rd (Hail n Ride),,-23.347955,150.756647,7,http://translink.com.au/stop/860396/gtfs/,,,
73,860397,Roden St near Taylor St,,-23.326270,150.790939,85,http://translink.com.au/stop/860397/gtfs/,,,
42,860398,Keppel Sands Rd near Coowonga Rd (Hail n Ride),,-23.349228,150.758316,7,http://translink.com.au/stop/860398/gtfs/,,,
43,860399,Keppel Sands Rd near Higginsons Rd,,-23.347407,150.739241,7,http://translink.com.au/stop/860399/gtfs/,,,
44,860400,Keppel Sands Rd near Hoffmans Rd (Hail n Ride),,-23.342487,150.711869,6,http://translink.com.au/stop/860400/gtfs/,,,
45,860401,Keppel Sands Rd near Emu Park Rd,,-23.314277,150.688866,6,http://translink.com.au/stop/860401/gtfs/,,,
46,860402,Emu Park Rd near Tuckers Rd (Hail n Ride),,-23.321352,150.681450,6,http://translink.com.au/stop/860402/gtfs/,,,
47,860403,Emu Park Rd near Sleipner Siding Rd,,-23.346269,150.663473,5,http://translink.com.au/stop/860403/gtfs/,,,
48,860404,Emu Park Rd near Sleipner Siding Rd,,-23.349244,150.660881,5,http://translink.com.au/stop/860404/gtfs/,,,
49,860405,Emu Park Rd near Leaholme Rd,,-23.365745,150.646919,5,http://translink.com.au/stop/860405/gtfs/,,,
50,860406,Emu Park Rd near Thompsons Point Rd,,-23.383447,150.627439,5,http://translink.com.au/stop/860406/gtfs/,,,
51,860407,Emu Park Rd near Mulgoodoo Rd (Hail n Ride),,-23.388594,150.618425,4,http://translink.com.au/stop/860407/gtfs/,,,
52,860408,Emu Park Rd near Black Creek Rd (Hail n Ride),,-23.413477,150.598986,4,http://translink.com.au/stop/860408/gtfs/,,,
53,860409,Emu Park Rd near Stenhouse Rd,,-23.407095,150.586066,4,http://translink.com.au/stop/860409/gtfs/,,,
54,860410,Emu Park Rd near Hartington St,,-23.397358,150.573957,4,http://translink.com.au/stop/860410/gtfs/,,,
219,860412,Agnes St near Denham St,,-23.388766,150.495900,3,http://translink.com.au/stop/860412/gtfs/,,,
16,860413,Fowler Dr near Kerrith Way,,-23.144285,150.723002,92,http://translink.com.au/stop/860413/gtfs/,,,
17,860414,Millroy Dr near Jabiru Dr,,-23.151594,150.713564,81,http://translink.com.au/stop/860414/gtfs/,,,
20,860415,Millroy Dr near Jabiru Dr,,-23.150861,150.712846,81,http://translink.com.au/stop/860415/gtfs/,,,
18,860416,Norman Dr near Newton Ave,,-23.140992,150.716994,92,http://translink.com.au/stop/860416/gtfs/,,,
19,860417,Nagle Rd near Von Nida Cr,,-23.142481,150.715106,92,http://translink.com.au/stop/860417/gtfs/,,,
12,860418,Barmaryee Rd near Divine St,,-23.134179,150.723623,92,http://translink.com.au/stop/860418/gtfs/,,,
15,860419,Barmaryee Rd near Divine St,,-23.133564,150.722841,92,http://translink.com.au/stop/860419/gtfs/,,,
13,860420,Emu Pde near Barmaryee Rd,,-23.132414,150.710170,92,http://translink.com.au/stop/860420/gtfs/,,,
14,860421,Emu Pde near Racecourse Rd,,-23.133723,150.703473,91,http://translink.com.au/stop/860421/gtfs/,,,
24,860423,Morgan St near Hughes St,,-23.119044,150.739027,92,http://translink.com.au/stop/860423/gtfs/,,,
0,860424,Hoskyn Dr at Yeppoon Health Service,,-23.143247,150.733786,92,http://translink.com.au/stop/860424/gtfs/,,,
9,860425,Tanby Rd near Industrial Ave,,-23.136309,150.738749,92,http://translink.com.au/stop/860425/gtfs/,,,
1,860426,Tanby Rd near Industrial Ave,,-23.136833,150.738655,92,http://translink.com.au/stop/860426/gtfs/,,,
8,860427,Tanby Rd near Coolsetti Ave,,-23.134336,150.737739,92,http://translink.com.au/stop/860427/gtfs/,,,
2,860428,Tanby Rd near Coolsetti Ave,,-23.134503,150.737680,92,http://translink.com.au/stop/860428/gtfs/,,,
178,860431,Yeppoon Rd near Yaamba Rd,,-23.313445,150.519095,2,http://translink.com.au/stop/860431/gtfs/,,,
200,860432,Svendsen Rd near Claude St,,-23.273438,150.819033,95,http://translink.com.au/stop/860432/gtfs/,,,
202,860433,Tabone St at Yeppoon State High School,,-23.135163,150.735584,92,http://translink.com.au/stop/860433/gtfs/,,,
201,860434,Norton St near Ranger Rd,,-23.124615,150.736576,92,http://translink.com.au/stop/860434/gtfs/,,,
193,860444,Monaco Dr at Zilzie Resort,,-23.292309,150.797284,84,http://translink.com.au/stop/860444/gtfs/,,,
80,860445,Gracemere Shoppingworld,,-23.434526,150.452962,10,http://translink.com.au/stop/860445/gtfs/,,,
88,860446,Old Capricorn Hwy near Reservoir St,,-23.426463,150.460995,10,http://translink.com.au/stop/860446/gtfs/,,,
231,860455,Archer St near Agnes St (Hail n Ride),,-23.385515,150.493866,3,http://translink.com.au/stop/860455/gtfs/,,,
226,860470,James St near John Oxley Dr,,-23.435471,150.459893,10,http://translink.com.au/stop/860470/gtfs/,,,
227,860471,Broadhurst Dr near Jamie Cr,,-23.438864,150.461409,10,http://translink.com.au/stop/860471/gtfs/,,,
228,860472,Fisher St near Ranger St,,-23.442484,150.454611,10,http://translink.com.au/stop/860472/gtfs/,,,
229,860473,Zamia Way near Lillypilly Ave,,-23.455509,150.471328,10,http://translink.com.au/stop/860473/gtfs/,,,
230,860474,Origano Ave near Sage St,,-23.453472,150.460470,10,http://translink.com.au/stop/860474/gtfs/,,,
223,860475,Cowan St near Donovan Cr,,-23.451628,150.466332,10,http://translink.com.au/stop/860475/gtfs/,,,
110,860481,Musgrave Street at Shopping Fair,,-23.354072,150.523944,1,http://translink.com.au/stop/860481/gtfs/,,,
183,860482,Musgrave Street at Moores Creek,,-23.354462,150.524136,1,http://translink.com.au/stop/860482/gtfs/,,,
100,860499,Burnett Hwy near Carige Ave,,-23.561322,150.473036,13,http://translink.com.au/stop/860499/gtfs/,,,
81,860502,Bolsover Street (Denham Street),,-23.378045,150.511779,1,http://translink.com.au/stop/860502/gtfs/,,,
135,860505,Vin E Jones Memorial Dr near John Howes Dr,,-23.162565,150.790456,93,http://translink.com.au/stop/860505/gtfs/,,,
232,860506,Tabone St near Melbourne St,,-23.136728,150.735514,92,http://translink.com.au/stop/860506/gtfs/,,,
126,860507,Hill St near Findlay Lane,,-23.129826,150.747273,92,http://translink.com.au/stop/860507/gtfs/,,,
217,860511,Campbell St at Rockhampton High,,-23.370241,150.499655,3,http://translink.com.au/stop/860511/gtfs/,,,
211,860512,Paterson St at Lakes Creek School,,-23.376065,150.560609,2,http://translink.com.au/stop/860512/gtfs/,,,
74,860520,Buxton Dr near Peters St (Hail n Ride),,-23.452697,150.462539,10,http://translink.com.au/stop/860520/gtfs/,,,
194,860525,Valley Park Avenue at Eagle Heights Rd,,-23.299139,150.780171,84,http://translink.com.au/stop/860525/gtfs/,,,
198,860526,Eagle Hts near Falcon Cr,,-23.300672,150.778187,84,http://translink.com.au/stop/860526/gtfs/,,,
190,860527,Fountain St near Hunter St,,-23.259128,150.821582,95,http://translink.com.au/stop/860527/gtfs/,,,
