shape_id,shape_pt_lat,shape_pt_lon,shape_pt_sequence
0,-20.012854,148.246687,10001
0,-20.012130,148.246228,10002
0,-20.010990,148.245503,10003
0,-20.010758,148.245355,10004
0,-20.010758,148.245355,20001
0,-20.009853,148.244779,20002
0,-20.008716,148.244056,20003
0,-20.007772,148.243457,20004
0,-20.007693,148.243391,20005
0,-20.007693,148.243365,20006
0,-20.007687,148.243335,20007
0,-20.007675,148.243306,20008
0,-20.007660,148.243281,20009
0,-20.008658,148.241571,20010
0,-20.008707,148.241541,20011
0,-20.008753,148.241489,20012
0,-20.008775,148.241425,20013
0,-20.008777,148.241357,20014
0,-20.008738,148.241308,20015
0,-20.008687,148.241283,20016
0,-20.008619,148.241275,20017
0,-20.007618,148.240651,20018
0,-20.007555,148.240639,20019
0,-20.007494,148.240663,20020
0,-20.007493,148.240732,20021
0,-20.007531,148.240787,20022
0,-20.007531,148.240787,30001
0,-20.008507,148.241467,30002
0,-20.007796,148.242757,30003
0,-20.007796,148.242757,40001
0,-20.007532,148.243234,40002
0,-20.007524,148.243235,40003
0,-20.007496,148.243244,40004
0,-20.007481,148.243254,40005
0,-20.007301,148.243159,40006
0,-20.006298,148.242524,40007
0,-20.005709,148.242145,40008
0,-20.005258,148.241861,40009
0,-20.005258,148.241861,50001
0,-20.004750,148.241540,50002
0,-20.003899,148.240998,50003
0,-20.004881,148.239171,50004
0,-20.004608,148.238989,50005
0,-20.004608,148.238989,60001
0,-20.003765,148.238431,60002
0,-20.003050,148.237988,60003
0,-20.002798,148.237769,60004
0,-20.002798,148.237769,70001
0,-20.002357,148.237387,70002
0,-20.001846,148.237063,70003
0,-20.001846,148.237063,80001
0,-20.001576,148.236892,80002
0,-20.001246,148.236635,80003
0,-20.001099,148.236604,80004
0,-20.000936,148.236626,80005
0,-20.000846,148.236653,80006
0,-20.000928,148.237031,80007
0,-20.001012,148.237191,80008
0,-20.001141,148.237699,80009
0,-20.001242,148.238001,80010
0,-20.001426,148.238486,80011
0,-20.001537,148.238725,80012
0,-20.001537,148.238725,90001
0,-20.001639,148.238945,90002
0,-20.001844,148.239310,90003
0,-20.002031,148.239621,90004
0,-20.002190,148.239951,90005
0,-20.002453,148.240233,90006
0,-20.002144,148.240654,90007
0,-20.001211,148.241925,90008
0,-20.001023,148.242135,90009
0,-20.000817,148.242315,90010
0,-20.000553,148.242469,90011
0,-20.000256,148.242587,90012
0,-19.999647,148.242713,90013
0,-19.995842,148.243085,90014
0,-19.994376,148.243239,90015
0,-19.993496,148.243399,90016
0,-19.993492,148.243376,90017
0,-19.993484,148.243357,90018
0,-19.993473,148.243341,90019
0,-19.993459,148.243327,90020
0,-19.993442,148.243317,90021
0,-19.993424,148.243311,90022
0,-19.993405,148.243309,90023
0,-19.993386,148.243311,90024
0,-19.993368,148.243317,90025
0,-19.993351,148.243327,90026
0,-19.993346,148.243332,90027
0,-19.992789,148.242860,90028
0,-19.992789,148.242860,100001
0,-19.991998,148.242190,100002
0,-19.991998,148.242190,110001
0,-19.991910,148.242115,110002
0,-19.991778,148.240778,110003
0,-19.991778,148.240778,120001
0,-19.991751,148.240502,120002
0,-19.991700,148.239988,120003
0,-19.991666,148.239639,120004
0,-19.991666,148.239639,130001
0,-19.991645,148.239431,130002
0,-19.991588,148.238850,130003
0,-19.991384,148.236830,130004
0,-19.991384,148.236830,140001
0,-19.991358,148.236569,140002
0,-19.989570,148.236770,140003
0,-19.989299,148.236800,140004
0,-19.989299,148.236800,150001
0,-19.988457,148.236894,150002
0,-19.986777,148.237092,150003
0,-19.986272,148.237192,150004
0,-19.986566,148.236439,150005
0,-19.986566,148.236439,160001
0,-19.986690,148.236122,160002
0,-19.984491,148.235213,160003
0,-19.984247,148.235107,160004
0,-19.984247,148.235107,170001
0,-19.983657,148.234851,170002
0,-19.983017,148.233320,170003
0,-19.982009,148.233822,170004
0,-19.981765,148.233265,170005
0,-19.981765,148.233265,180001
0,-19.981078,148.231701,180002
0,-19.981052,148.231642,180003
0,-19.981052,148.231642,190001
0,-19.980447,148.230262,190002
0,-19.980382,148.230159,190003
0,-19.980387,148.230156,190004
0,-19.980413,148.230132,190005
0,-19.980433,148.230102,190006
0,-19.980447,148.230068,190007
0,-19.980455,148.230032,190008
0,-19.980455,148.229995,190009
0,-19.980447,148.229958,190010
0,-19.980433,148.229924,190011
0,-19.980413,148.229894,190012
0,-19.980386,148.229870,190013
0,-19.980357,148.229851,190014
0,-19.980323,148.229840,190015
0,-19.980289,148.229836,190016
0,-19.980259,148.229839,190017
0,-19.980221,148.229851,190018
0,-19.980191,148.229871,190019
0,-19.980165,148.229894,190020
0,-19.980147,148.229921,190021
0,-19.980131,148.229958,190022
0,-19.980123,148.229994,190023
0,-19.980123,148.230032,190024
0,-19.980131,148.230068,190025
0,-19.980145,148.230102,190026
0,-19.980165,148.230133,190027
0,-19.980197,148.230160,190028
0,-19.979669,148.230992,190029
0,-19.978019,148.229892,190030
0,-19.978019,148.229892,200001
0,-19.977978,148.229865,200002
0,-19.976605,148.228953,200003
0,-19.976605,148.228953,210001
0,-19.976285,148.228740,210002
0,-19.974234,148.227361,210003
0,-19.974234,148.227361,220001
0,-19.974004,148.227206,220002
0,-19.974041,148.227599,220003
0,-19.972631,148.226738,220004
0,-19.971526,148.226050,220005
0,-19.970703,148.225534,220006
0,-19.970825,148.225315,220007
0,-19.970825,148.225315,230001
0,-19.971180,148.224679,230002
0,-19.972003,148.225195,230003
0,-19.972424,148.225440,230004
0,-19.972424,148.225440,240001
0,-19.973120,148.225847,240002
0,-19.973604,148.226142,240003
0,-19.973604,148.226142,250001
0,-19.973929,148.226339,250002
0,-19.973875,148.225743,250003
0,-19.976224,148.227330,250004
0,-19.976224,148.227330,260001
0,-19.976865,148.227763,260002
0,-19.978426,148.228803,260003
0,-19.978426,148.228803,270001
0,-19.978558,148.228890,270002
0,-19.980147,148.229921,270003
0,-19.980131,148.229958,270004
0,-19.980123,148.229994,270005
0,-19.980123,148.230032,270006
0,-19.980131,148.230068,270007
0,-19.980145,148.230102,270008
0,-19.980165,148.230133,270009
0,-19.980197,148.230160,270010
0,-19.980221,148.230175,270011
0,-19.980254,148.230186,270012
0,-19.980289,148.230190,270013
0,-19.980324,148.230186,270014
0,-19.980357,148.230175,270015
0,-19.980382,148.230159,270016
0,-19.980447,148.230262,270017
0,-19.980842,148.231165,270018
0,-19.980842,148.231165,280001
0,-19.981078,148.231701,280002
0,-19.981745,148.233221,280003
0,-19.981745,148.233221,290001
0,-19.982009,148.233822,290002
0,-19.983017,148.233320,290003
0,-19.983117,148.233556,290004
0,-19.983117,148.233556,300001
0,-19.983657,148.234851,300002
0,-19.984491,148.235213,300003
0,-19.986690,148.236122,300004
0,-19.986272,148.237192,300005
0,-19.987322,148.238108,300006
0,-19.987322,148.238108,310001
0,-19.991706,148.241937,310002
0,-19.991706,148.241937,320001
0,-19.991910,148.242115,320002
0,-19.991778,148.240778,320003
0,-19.991778,148.240778,330001
0,-19.991751,148.240502,330002
0,-19.991700,148.239988,330003
0,-19.991666,148.239639,330004
0,-19.991666,148.239639,340001
0,-19.991645,148.239431,340002
0,-19.991588,148.238850,340003
0,-19.991384,148.236830,340004
0,-19.991384,148.236830,350001
0,-19.991358,148.236569,350002
0,-19.992078,148.236489,350003
0,-19.992192,148.236476,350004
0,-19.992192,148.236476,360001
0,-19.992695,148.236419,360002
0,-19.993893,148.236283,360003
0,-19.993893,148.236283,370001
0,-19.994056,148.236265,370002
0,-19.995145,148.236140,370003
0,-19.995927,148.236051,370004
0,-19.997384,148.235886,370005
0,-19.998122,148.235803,370006
0,-19.998122,148.235803,380001
0,-19.998279,148.235785,380002
0,-19.998944,148.235717,380003
0,-20.000485,148.235561,380004
0,-20.000508,148.235616,380005
0,-20.000540,148.235670,380006
0,-20.000572,148.235699,380007
0,-20.000607,148.235721,380008
0,-20.000681,148.235967,380009
0,-20.000761,148.236283,380010
0,-20.000846,148.236653,380011
0,-20.000928,148.237031,380012
0,-20.001012,148.237191,380013
0,-20.001141,148.237699,380014
0,-20.001242,148.238001,380015
0,-20.001426,148.238486,380016
0,-20.001537,148.238725,380017
0,-20.001537,148.238725,390001
0,-20.001639,148.238945,390002
0,-20.001844,148.239310,390003
0,-20.002031,148.239621,390004
0,-20.002190,148.239951,390005
0,-20.002453,148.240233,390006
0,-20.002943,148.240531,390007
0,-20.003809,148.241058,390008
0,-20.004711,148.241625,390009
0,-20.005663,148.242226,390010
0,-20.006252,148.242604,390011
0,-20.006777,148.242937,390012
0,-20.006777,148.242937,400001
0,-20.007252,148.243238,400002
0,-20.007416,148.243352,400003
0,-20.007413,148.243365,400004
0,-20.007413,148.243397,400005
0,-20.007419,148.243427,400006
0,-20.007431,148.243456,400007
0,-20.007449,148.243481,400008
0,-20.007470,148.243502,400009
0,-20.007480,148.243508,400010
0,-20.007496,148.243518,400011
0,-20.007524,148.243527,400012
0,-20.007553,148.243530,400013
0,-20.007582,148.243527,400014
0,-20.007610,148.243519,400015
0,-20.007636,148.243502,400016
0,-20.007642,148.243496,400017
0,-20.007657,148.243481,400018
0,-20.007675,148.243456,400019
0,-20.007687,148.243428,400020
0,-20.007693,148.243397,400021
0,-20.007693,148.243391,400022
0,-20.007693,148.243365,400023
0,-20.007687,148.243335,400024
0,-20.007675,148.243306,400025
0,-20.007660,148.243281,400026
0,-20.008658,148.241571,400027
0,-20.008707,148.241541,400028
0,-20.008753,148.241489,400029
0,-20.008775,148.241425,400030
0,-20.008777,148.241357,400031
0,-20.008738,148.241308,400032
0,-20.008687,148.241283,400033
0,-20.008619,148.241275,400034
0,-20.007618,148.240651,400035
0,-20.007555,148.240639,400036
0,-20.007494,148.240663,400037
0,-20.007493,148.240732,400038
0,-20.007531,148.240787,400039
0,-20.007531,148.240787,410001
0,-20.008507,148.241467,410002
0,-20.008540,148.241527,410003
0,-20.008594,148.241563,410004
0,-20.008658,148.241571,410005
0,-20.008707,148.241541,410006
0,-20.008753,148.241489,410007
0,-20.008775,148.241425,410008
0,-20.008777,148.241357,410009
0,-20.009785,148.239562,410010
0,-20.009865,148.239431,410011
0,-20.010776,148.237724,410012
0,-20.010776,148.237724,420001
0,-20.010939,148.237419,420002
0,-20.012075,148.238142,420003
0,-20.013213,148.238862,420004
0,-20.014350,148.239585,420005
0,-20.015487,148.240307,420006
0,-20.016628,148.241033,420007
0,-20.015762,148.242562,420008
0,-20.015762,148.242562,430001
0,-20.015507,148.243012,430002
0,-20.016645,148.243740,430003
0,-20.017741,148.244440,430004
0,-20.017559,148.244630,430005
0,-20.016886,148.245853,430006
0,-20.016886,148.245853,440001
0,-20.016620,148.246337,440002
0,-20.015721,148.245765,440003
0,-20.015511,148.245739,440004
0,-20.014793,148.245280,440005
0,-20.014793,148.245280,450001
0,-20.014371,148.245010,450002
0,-20.013801,148.246012,450003
0,-20.013801,148.246012,460001
0,-20.013330,148.246842,460002
0,-20.013312,148.246831,460003
0,-20.013281,148.246821,460004
0,-20.013249,148.246817,460005
0,-20.013217,148.246821,460006
0,-20.013186,148.246831,460007
0,-20.013158,148.246848,460008
0,-20.013151,148.246855,460009
0,-20.013032,148.246800,460010
0,-20.012854,148.246687,460011
1,-20.012854,148.246687,10001
1,-20.012130,148.246228,10002
1,-20.012084,148.246309,10003
1,-20.010981,148.248190,10004
1,-20.011604,148.248615,10005
1,-20.011604,148.248615,20001
1,-20.012128,148.248972,20002
1,-20.011057,148.250854,20003
1,-20.011617,148.251219,20004
1,-20.012181,148.251586,20005
1,-20.013324,148.252337,20006
1,-20.013669,148.252569,20007
1,-20.013826,148.252694,20008
1,-20.013955,148.252858,20009
1,-20.014090,148.253122,20010
1,-20.014061,148.253149,20011
1,-20.014039,148.253181,20012
1,-20.014024,148.253217,20013
1,-20.014016,148.253257,20014
1,-20.014016,148.253296,20015
1,-20.014024,148.253335,20016
1,-20.014039,148.253371,20017
1,-20.014061,148.253403,20018
1,-20.014088,148.253429,20019
1,-20.014096,148.253434,20020
1,-20.014121,148.253449,20021
1,-20.014156,148.253461,20022
1,-20.014193,148.253466,20023
1,-20.014230,148.253461,20024
1,-20.014265,148.253449,20025
1,-20.014277,148.253442,20026
1,-20.014298,148.253429,20027
1,-20.014325,148.253403,20028
1,-20.014347,148.253371,20029
1,-20.014362,148.253335,20030
1,-20.014370,148.253296,20031
1,-20.014370,148.253256,20032
1,-20.014362,148.253218,20033
1,-20.014347,148.253181,20034
1,-20.014325,148.253149,20035
1,-20.014298,148.253123,20036
1,-20.014293,148.253120,20037
1,-20.014703,148.252392,20038
1,-20.014703,148.252392,30001
1,-20.014953,148.251947,30002
1,-20.015435,148.251059,30003
1,-20.014402,148.250419,30004
1,-20.013265,148.249695,30005
1,-20.014365,148.247757,30006
1,-20.014411,148.247676,30007
1,-20.014662,148.247234,30008
1,-20.014662,148.247234,40001
1,-20.015263,148.246176,40002
1,-20.015263,148.246176,50001
1,-20.015511,148.245739,50002
1,-20.014793,148.245280,50003
1,-20.014793,148.245280,60001
1,-20.014371,148.245010,60002
1,-20.013801,148.246012,60003
1,-20.013801,148.246012,70001
1,-20.013330,148.246842,70002
1,-20.013312,148.246831,70003
1,-20.013281,148.246821,70004
1,-20.013249,148.246817,70005
1,-20.013217,148.246821,70006
1,-20.013186,148.246831,70007
1,-20.013158,148.246848,70008
1,-20.013151,148.246855,70009
1,-20.013032,148.246800,70010
1,-20.012854,148.246687,70011
2,-20.012854,148.246687,10001
2,-20.012130,148.246228,10002
2,-20.010990,148.245503,10003
2,-20.010758,148.245355,10004
2,-20.010758,148.245355,20001
2,-20.009853,148.244779,20002
2,-20.008716,148.244056,20003
2,-20.007772,148.243457,20004
2,-20.007693,148.243391,20005
2,-20.007693,148.243365,20006
2,-20.007687,148.243335,20007
2,-20.007675,148.243306,20008
2,-20.007660,148.243281,20009
2,-20.008658,148.241571,20010
2,-20.008707,148.241541,20011
2,-20.008753,148.241489,20012
2,-20.008775,148.241425,20013
2,-20.008777,148.241357,20014
2,-20.008738,148.241308,20015
2,-20.008687,148.241283,20016
2,-20.008619,148.241275,20017
2,-20.007618,148.240651,20018
2,-20.007555,148.240639,20019
2,-20.007494,148.240663,20020
2,-20.007493,148.240732,20021
2,-20.007531,148.240787,20022
2,-20.007531,148.240787,30001
2,-20.008507,148.241467,30002
2,-20.007796,148.242757,30003
2,-20.007796,148.242757,40001
2,-20.007532,148.243234,40002
2,-20.007524,148.243235,40003
2,-20.007496,148.243244,40004
2,-20.007481,148.243254,40005
2,-20.007301,148.243159,40006
2,-20.006298,148.242524,40007
2,-20.005709,148.242145,40008
2,-20.005258,148.241861,40009
2,-20.005258,148.241861,50001
2,-20.004750,148.241540,50002
2,-20.003899,148.240998,50003
2,-20.004029,148.240755,50004
2,-20.004029,148.240755,60001
2,-20.004881,148.239171,60002
2,-20.004608,148.238989,60003
2,-20.004608,148.238989,70001
2,-20.003765,148.238431,70002
2,-20.003050,148.237988,70003
2,-20.002798,148.237769,70004
2,-20.002798,148.237769,80001
2,-20.002357,148.237387,80002
2,-20.001846,148.237063,80003
2,-20.001846,148.237063,90001
2,-20.001576,148.236892,90002
2,-20.001246,148.236635,90003
2,-20.001099,148.236604,90004
2,-20.000936,148.236626,90005
2,-20.000846,148.236653,90006
2,-20.000928,148.237031,90007
2,-20.001012,148.237191,90008
2,-20.001141,148.237699,90009
2,-20.001242,148.238001,90010
2,-20.001426,148.238486,90011
2,-20.001537,148.238725,90012
2,-20.001537,148.238725,100001
2,-20.001639,148.238945,100002
2,-20.001844,148.239310,100003
2,-20.002031,148.239621,100004
2,-20.002190,148.239951,100005
2,-20.002453,148.240233,100006
2,-20.002144,148.240654,100007
2,-20.001211,148.241925,100008
2,-20.001023,148.242135,100009
2,-20.000817,148.242315,100010
2,-20.000553,148.242469,100011
2,-20.000256,148.242587,100012
2,-19.999647,148.242713,100013
2,-19.995842,148.243085,100014
2,-19.994376,148.243239,100015
2,-19.993496,148.243399,100016
2,-19.993492,148.243376,100017
2,-19.993484,148.243357,100018
2,-19.993473,148.243341,100019
2,-19.993459,148.243327,100020
2,-19.993442,148.243317,100021
2,-19.993424,148.243311,100022
2,-19.993405,148.243309,100023
2,-19.993386,148.243311,100024
2,-19.993368,148.243317,100025
2,-19.993351,148.243327,100026
2,-19.993346,148.243332,100027
2,-19.993337,148.243341,100028
2,-19.993326,148.243357,100029
2,-19.993318,148.243376,100030
2,-19.993314,148.243396,100031
2,-19.993315,148.243421,100032
2,-19.991417,148.243587,100033
2,-19.988975,148.243861,100034
2,-19.988346,148.243930,100035
2,-19.987780,148.243991,100036
2,-19.987780,148.243991,110001
2,-19.987261,148.244049,110002
2,-19.987084,148.242232,110003
2,-19.986071,148.242341,110004
2,-19.986071,148.242341,120001
2,-19.986000,148.242349,120002
2,-19.986198,148.244164,120003
2,-19.986359,148.244148,120004
2,-19.986481,148.245388,120005
2,-19.986481,148.245388,130001
2,-19.986491,148.245485,130002
2,-19.986622,148.246820,130003
2,-19.986746,148.248078,130004
2,-19.986746,148.248078,140001
2,-19.986754,148.248153,140002
2,-19.986947,148.250262,140003
2,-19.986950,148.250642,140004
2,-19.986950,148.250642,150001
2,-19.986961,148.252190,150002
2,-19.987005,148.254358,150003
2,-19.987030,148.254470,150004
2,-19.987021,148.254473,150005
2,-19.987000,148.254486,150006
2,-19.986982,148.254503,150007
2,-19.986970,148.254520,150008
2,-19.986957,148.254548,150009
2,-19.986952,148.254573,150010
2,-19.986952,148.254599,150011
2,-19.986957,148.254624,150012
2,-19.986967,148.254648,150013
2,-19.986982,148.254669,150014
2,-19.987000,148.254686,150015
2,-19.987021,148.254699,150016
2,-19.987032,148.254703,150017
2,-19.987044,148.254707,150018
2,-19.987068,148.254710,150019
2,-19.987092,148.254707,150020
2,-19.987115,148.254699,150021
2,-19.987136,148.254686,150022
2,-19.987154,148.254669,150023
2,-19.987282,148.254770,150024
2,-19.987957,148.255677,150025
2,-19.989374,148.257589,150026
2,-19.989690,148.258083,150027
2,-19.991142,148.262545,150028
2,-19.991500,148.263124,150029
2,-19.991679,148.263294,150030
2,-19.991922,148.263663,150031
2,-19.992059,148.264067,150032
2,-19.992104,148.264344,150033
2,-19.992085,148.264981,150034
2,-19.992375,148.265059,150035
2,-19.992298,148.265293,150036
2,-19.992264,148.265335,150037
2,-19.992208,148.265388,150038
2,-19.992208,148.265388,160001
2,-19.992105,148.265484,160002
2,-19.992065,148.265498,160003
2,-19.992014,148.265490,160004
2,-19.991916,148.265441,160005
2,-19.992085,148.264981,160006
2,-19.992104,148.264344,160007
2,-19.992059,148.264067,160008
2,-19.991922,148.263663,160009
2,-19.991679,148.263294,160010
2,-19.991500,148.263124,160011
2,-19.991142,148.262545,160012
2,-19.989690,148.258083,160013
2,-19.989374,148.257589,160014
2,-19.987957,148.255677,160015
2,-19.987282,148.254770,160016
2,-19.987154,148.254669,160017
2,-19.987169,148.254648,160018
2,-19.987179,148.254624,160019
2,-19.987184,148.254599,160020
2,-19.987184,148.254573,160021
2,-19.987179,148.254548,160022
2,-19.987169,148.254524,160023
2,-19.987154,148.254503,160024
2,-19.987136,148.254486,160025
2,-19.987115,148.254473,160026
2,-19.987092,148.254465,160027
2,-19.987068,148.254462,160028
2,-19.987044,148.254465,160029
2,-19.987030,148.254470,160030
2,-19.987021,148.254473,160031
2,-19.987000,148.254486,160032
2,-19.986982,148.254503,160033
2,-19.986970,148.254520,160034
2,-19.986957,148.254548,160035
2,-19.986952,148.254573,160036
2,-19.986952,148.254599,160037
2,-19.986957,148.254624,160038
2,-19.986967,148.254648,160039
2,-19.986982,148.254669,160040
2,-19.987000,148.254686,160041
2,-19.987021,148.254699,160042
2,-19.987032,148.254703,160043
2,-19.986954,148.255064,160044
2,-19.986671,148.255724,160045
2,-19.985592,148.257305,160046
2,-19.984725,148.258017,160047
2,-19.984295,148.258328,160048
2,-19.984088,148.258453,160049
2,-19.983908,148.258463,160050
2,-19.983743,148.258456,160051
2,-19.982424,148.258151,160052
2,-19.982296,148.258142,160053
2,-19.982180,148.258139,160054
2,-19.982074,148.258154,160055
2,-19.981290,148.258597,160056
2,-19.980896,148.258902,160057
2,-19.980089,148.259868,160058
2,-19.979972,148.259760,160059
2,-19.979901,148.259831,160060
2,-19.979844,148.259909,160061
2,-19.979939,148.259983,160062
2,-19.979939,148.259983,170001
2,-19.979987,148.260021,170002
2,-19.980089,148.259868,170003
2,-19.980896,148.258902,170004
2,-19.981290,148.258597,170005
2,-19.982074,148.258154,170006
2,-19.982180,148.258139,170007
2,-19.982296,148.258142,170008
2,-19.982424,148.258151,170009
2,-19.983743,148.258456,170010
2,-19.983908,148.258463,170011
2,-19.984088,148.258453,170012
2,-19.984295,148.258328,170013
2,-19.984725,148.258017,170014
2,-19.985592,148.257305,170015
2,-19.986671,148.255724,170016
2,-19.986954,148.255064,170017
2,-19.987032,148.254703,170018
2,-19.987044,148.254707,170019
2,-19.987068,148.254710,170020
2,-19.987092,148.254707,170021
2,-19.987115,148.254699,170022
2,-19.987136,148.254686,170023
2,-19.987154,148.254669,170024
2,-19.987169,148.254648,170025
2,-19.987179,148.254624,170026
2,-19.987184,148.254599,170027
2,-19.987184,148.254573,170028
2,-19.987179,148.254548,170029
2,-19.987169,148.254524,170030
2,-19.987154,148.254503,170031
2,-19.987136,148.254486,170032
2,-19.987115,148.254473,170033
2,-19.987092,148.254465,170034
2,-19.987068,148.254462,170035
2,-19.987044,148.254465,170036
2,-19.987030,148.254470,170037
2,-19.987005,148.254358,170038
2,-19.986961,148.252190,170039
2,-19.986949,148.250556,170040
2,-19.986949,148.250556,180001
2,-19.986947,148.250262,180002
2,-19.986754,148.248153,180003
2,-19.987403,148.248080,180004
2,-19.987403,148.248080,190001
2,-19.987641,148.248054,190002
2,-19.988015,148.248013,190003
2,-19.987921,148.247069,190004
2,-19.987921,148.247069,200001
2,-19.987881,148.246674,200002
2,-19.986622,148.246820,200003
2,-19.986491,148.245485,200004
2,-19.986412,148.244682,200005
2,-19.986412,148.244682,210001
2,-19.986359,148.244148,210002
2,-19.987225,148.244053,210003
2,-19.987225,148.244053,220001
2,-19.987261,148.244049,220002
2,-19.988346,148.243930,220003
2,-19.988366,148.243927,220004
2,-19.988366,148.243927,230001
2,-19.988975,148.243861,230002
2,-19.991417,148.243587,230003
2,-19.993315,148.243421,230004
2,-19.993318,148.243436,230005
2,-19.993326,148.243455,230006
2,-19.993337,148.243472,230007
2,-19.993351,148.243485,230008
2,-19.993368,148.243495,230009
2,-19.993386,148.243502,230010
2,-19.993405,148.243503,230011
2,-19.993424,148.243501,230012
2,-19.993442,148.243495,230013
2,-19.993459,148.243485,230014
2,-19.993473,148.243471,230015
2,-19.993485,148.243452,230016
2,-19.993492,148.243436,230017
2,-19.993496,148.243416,230018
2,-19.993496,148.243399,230019
2,-19.993492,148.243376,230020
2,-19.993484,148.243357,230021
2,-19.993473,148.243341,230022
2,-19.993459,148.243327,230023
2,-19.993442,148.243317,230024
2,-19.993424,148.243311,230025
2,-19.993405,148.243309,230026
2,-19.993386,148.243311,230027
2,-19.993368,148.243317,230028
2,-19.993351,148.243327,230029
2,-19.993346,148.243332,230030
2,-19.992789,148.242860,230031
2,-19.992789,148.242860,240001
2,-19.991998,148.242190,240002
2,-19.991998,148.242190,250001
2,-19.991910,148.242115,250002
2,-19.991778,148.240778,250003
2,-19.991778,148.240778,260001
2,-19.991751,148.240502,260002
2,-19.991700,148.239988,260003
2,-19.991666,148.239639,260004
2,-19.991666,148.239639,270001
2,-19.991645,148.239431,270002
2,-19.991588,148.238850,270003
2,-19.991384,148.236830,270004
2,-19.991384,148.236830,280001
2,-19.991358,148.236569,280002
2,-19.992078,148.236489,280003
2,-19.992192,148.236476,280004
2,-19.992192,148.236476,290001
2,-19.992695,148.236419,290002
2,-19.993893,148.236283,290003
2,-19.993893,148.236283,300001
2,-19.994056,148.236265,300002
2,-19.995145,148.236140,300003
2,-19.995927,148.236051,300004
2,-19.997384,148.235886,300005
2,-19.998122,148.235803,300006
2,-19.998122,148.235803,310001
2,-19.998279,148.235785,310002
2,-19.998944,148.235717,310003
2,-20.000485,148.235561,310004
2,-20.000508,148.235616,310005
2,-20.000540,148.235670,310006
2,-20.000572,148.235699,310007
2,-20.000607,148.235721,310008
2,-20.000681,148.235967,310009
2,-20.000761,148.236283,310010
2,-20.000846,148.236653,310011
2,-20.000928,148.237031,310012
2,-20.001012,148.237191,310013
2,-20.001141,148.237699,310014
2,-20.001242,148.238001,310015
2,-20.001426,148.238486,310016
2,-20.001537,148.238725,310017
2,-20.001537,148.238725,320001
2,-20.001639,148.238945,320002
2,-20.001844,148.239310,320003
2,-20.002031,148.239621,320004
2,-20.002190,148.239951,320005
2,-20.002453,148.240233,320006
2,-20.002943,148.240531,320007
2,-20.003809,148.241058,320008
2,-20.004711,148.241625,320009
2,-20.005663,148.242226,320010
2,-20.006252,148.242604,320011
2,-20.006777,148.242937,320012
2,-20.006777,148.242937,330001
2,-20.007252,148.243238,330002
2,-20.007416,148.243352,330003
2,-20.007413,148.243365,330004
2,-20.007413,148.243397,330005
2,-20.007419,148.243427,330006
2,-20.007431,148.243456,330007
2,-20.007449,148.243481,330008
2,-20.007470,148.243502,330009
2,-20.007480,148.243508,330010
2,-20.007496,148.243518,330011
2,-20.007524,148.243527,330012
2,-20.007553,148.243530,330013
2,-20.007582,148.243527,330014
2,-20.007610,148.243519,330015
2,-20.007636,148.243502,330016
2,-20.007642,148.243496,330017
2,-20.007657,148.243481,330018
2,-20.007675,148.243456,330019
2,-20.007687,148.243428,330020
2,-20.007693,148.243397,330021
2,-20.007693,148.243391,330022
2,-20.007693,148.243365,330023
2,-20.007687,148.243335,330024
2,-20.007675,148.243306,330025
2,-20.007660,148.243281,330026
2,-20.008658,148.241571,330027
2,-20.008707,148.241541,330028
2,-20.008753,148.241489,330029
2,-20.008775,148.241425,330030
2,-20.008777,148.241357,330031
2,-20.008738,148.241308,330032
2,-20.008687,148.241283,330033
2,-20.008619,148.241275,330034
2,-20.007618,148.240651,330035
2,-20.007555,148.240639,330036
2,-20.007494,148.240663,330037
2,-20.007493,148.240732,330038
2,-20.007531,148.240787,330039
2,-20.007531,148.240787,340001
2,-20.008507,148.241467,340002
2,-20.008540,148.241527,340003
2,-20.008594,148.241563,340004
2,-20.008658,148.241571,340005
2,-20.008707,148.241541,340006
2,-20.008753,148.241489,340007
2,-20.008775,148.241425,340008
2,-20.008777,148.241357,340009
2,-20.009785,148.239562,340010
2,-20.009865,148.239431,340011
2,-20.010776,148.237724,340012
2,-20.010776,148.237724,350001
2,-20.010939,148.237419,350002
2,-20.012075,148.238142,350003
2,-20.013213,148.238862,350004
2,-20.014350,148.239585,350005
2,-20.015487,148.240307,350006
2,-20.016628,148.241033,350007
2,-20.015762,148.242562,350008
2,-20.015762,148.242562,360001
2,-20.015507,148.243012,360002
2,-20.016645,148.243740,360003
2,-20.017741,148.244440,360004
2,-20.017559,148.244630,360005
2,-20.016886,148.245853,360006
2,-20.016886,148.245853,370001
2,-20.016620,148.246337,370002
2,-20.015721,148.245765,370003
2,-20.015511,148.245739,370004
2,-20.014793,148.245280,370005
2,-20.014793,148.245280,380001
2,-20.014371,148.245010,380002
2,-20.013801,148.246012,380003
2,-20.013801,148.246012,390001
2,-20.013330,148.246842,390002
2,-20.013312,148.246831,390003
2,-20.013281,148.246821,390004
2,-20.013249,148.246817,390005
2,-20.013217,148.246821,390006
2,-20.013186,148.246831,390007
2,-20.013158,148.246848,390008
2,-20.013151,148.246855,390009
2,-20.013032,148.246800,390010
2,-20.012854,148.246687,390011
3,-20.012854,148.246687,10001
3,-20.012130,148.246228,10002
3,-20.010990,148.245503,10003
3,-20.010758,148.245355,10004
3,-20.010758,148.245355,20001
3,-20.009853,148.244779,20002
3,-20.008716,148.244056,20003
3,-20.007772,148.243457,20004
3,-20.007693,148.243391,20005
3,-20.007693,148.243365,20006
3,-20.007687,148.243335,20007
3,-20.007675,148.243306,20008
3,-20.007660,148.243281,20009
3,-20.008658,148.241571,20010
3,-20.008707,148.241541,20011
3,-20.008753,148.241489,20012
3,-20.008775,148.241425,20013
3,-20.008777,148.241357,20014
3,-20.008738,148.241308,20015
3,-20.008687,148.241283,20016
3,-20.008619,148.241275,20017
3,-20.007618,148.240651,20018
3,-20.007555,148.240639,20019
3,-20.007494,148.240663,20020
3,-20.007493,148.240732,20021
3,-20.007531,148.240787,20022
3,-20.007531,148.240787,30001
3,-20.008507,148.241467,30002
3,-20.007796,148.242757,30003
3,-20.007796,148.242757,40001
3,-20.007532,148.243234,40002
3,-20.007524,148.243235,40003
3,-20.007496,148.243244,40004
3,-20.007481,148.243254,40005
3,-20.007301,148.243159,40006
3,-20.006298,148.242524,40007
3,-20.005709,148.242145,40008
3,-20.005258,148.241861,40009
3,-20.005258,148.241861,50001
3,-20.004750,148.241540,50002
3,-20.003899,148.240998,50003
3,-20.004029,148.240755,50004
3,-20.004029,148.240755,60001
3,-20.004881,148.239171,60002
3,-20.004608,148.238989,60003
3,-20.004608,148.238989,70001
3,-20.003765,148.238431,70002
3,-20.003050,148.237988,70003
3,-20.002798,148.237769,70004
3,-20.002798,148.237769,80001
3,-20.002357,148.237387,80002
3,-20.001846,148.237063,80003
3,-20.001846,148.237063,90001
3,-20.001576,148.236892,90002
3,-20.001246,148.236635,90003
3,-20.001099,148.236604,90004
3,-20.000936,148.236626,90005
3,-20.000846,148.236653,90006
3,-20.000928,148.237031,90007
3,-20.001012,148.237191,90008
3,-20.001141,148.237699,90009
3,-20.001242,148.238001,90010
3,-20.001426,148.238486,90011
3,-20.001537,148.238725,90012
3,-20.001537,148.238725,100001
3,-20.001639,148.238945,100002
3,-20.001844,148.239310,100003
3,-20.002031,148.239621,100004
3,-20.002190,148.239951,100005
3,-20.002453,148.240233,100006
3,-20.002144,148.240654,100007
3,-20.001211,148.241925,100008
3,-20.001023,148.242135,100009
3,-20.000817,148.242315,100010
3,-20.000553,148.242469,100011
3,-20.000256,148.242587,100012
3,-19.999647,148.242713,100013
3,-19.999604,148.242277,100014
3,-19.999604,148.242277,110001
3,-19.999244,148.238608,110002
3,-19.999085,148.237064,110003
3,-19.999067,148.236884,110004
3,-19.999067,148.236884,120001
3,-19.999046,148.236688,120002
3,-19.998944,148.235717,120003
3,-20.000485,148.235561,120004
3,-20.000508,148.235616,120005
3,-20.000540,148.235670,120006
3,-20.000572,148.235699,120007
3,-20.000607,148.235721,120008
3,-20.000631,148.235724,120009
3,-20.000663,148.235720,120010
3,-20.000693,148.235710,120011
3,-20.000710,148.235699,120012
3,-20.000733,148.235672,120013
3,-20.000746,148.235639,120014
3,-20.000750,148.235601,120015
3,-20.000744,148.235563,120016
3,-20.000733,148.235510,120017
3,-20.000717,148.235463,120018
3,-20.000694,148.235425,120019
3,-20.000655,148.235403,120020
3,-20.000418,148.234427,120021
3,-20.000154,148.233414,120022
3,-20.000644,148.233366,120023
3,-20.000644,148.233366,130001
3,-20.002018,148.233234,130002
3,-20.002018,148.233234,140001
3,-20.003088,148.233132,140002
3,-20.003088,148.233132,150001
3,-20.003358,148.233106,150002
3,-20.003550,148.233074,150003
3,-20.003797,148.233057,150004
3,-20.003922,148.233061,150005
3,-20.004111,148.233106,150006
3,-20.004428,148.233217,150007
3,-20.004596,148.233315,150008
3,-20.005407,148.233786,150009
3,-20.005859,148.234094,150010
3,-20.006052,148.233365,150011
3,-20.006124,148.233134,150012
3,-20.006124,148.233134,160001
3,-20.006516,148.231892,160002
3,-20.006516,148.231892,170001
3,-20.006661,148.231433,170002
3,-20.006493,148.230709,170003
3,-20.007338,148.230986,170004
3,-20.007611,148.231031,170005
3,-20.007611,148.231031,180001
3,-20.007661,148.231039,180002
3,-20.008319,148.230962,180003
3,-20.009103,148.230484,180004
3,-20.009103,148.230484,190001
3,-20.009522,148.230228,190002
3,-20.009517,148.230396,190003
3,-20.011250,148.231488,190004
3,-20.011250,148.231488,200001
3,-20.011586,148.231699,200002
3,-20.011253,148.232272,200003
3,-20.011084,148.232605,200004
3,-20.010907,148.232921,200005
3,-20.010907,148.232921,210001
3,-20.010247,148.234099,210002
3,-20.010247,148.234099,220001
3,-20.010165,148.234244,220002
3,-20.011204,148.234897,220003
3,-20.011370,148.235002,220004
3,-20.011370,148.235002,230001
3,-20.012056,148.235432,230002
3,-20.013199,148.236158,230003
3,-20.013318,148.235948,230004
3,-20.013318,148.235948,240001
3,-20.014151,148.234483,240002
3,-20.014151,148.234483,250001
3,-20.014318,148.234190,250002
3,-20.015459,148.234903,250003
3,-20.015645,148.235021,250004
3,-20.015645,148.235021,260001
3,-20.016597,148.235625,260002
3,-20.016769,148.235733,260003
3,-20.016769,148.235733,270001
3,-20.017696,148.236321,270002
3,-20.017499,148.236685,270003
3,-20.017499,148.236685,280001
3,-20.016835,148.237914,280002
3,-20.016835,148.237914,290001
3,-20.016613,148.238325,290002
3,-20.017157,148.238751,290003
3,-20.017157,148.238751,300001
3,-20.017646,148.239135,300002
3,-20.018827,148.239877,300003
3,-20.018674,148.240150,300004
3,-20.018674,148.240150,310001
3,-20.017769,148.241758,310002
3,-20.017390,148.241517,310003
3,-20.017390,148.241517,320001
3,-20.016628,148.241033,320002
3,-20.015762,148.242562,320003
3,-20.015762,148.242562,330001
3,-20.015507,148.243012,330002
3,-20.016645,148.243740,330003
3,-20.017741,148.244440,330004
3,-20.017559,148.244630,330005
3,-20.016886,148.245853,330006
3,-20.016886,148.245853,340001
3,-20.016620,148.246337,340002
3,-20.015721,148.245765,340003
3,-20.015511,148.245739,340004
3,-20.014793,148.245280,340005
3,-20.014793,148.245280,350001
3,-20.014371,148.245010,350002
3,-20.013801,148.246012,350003
3,-20.013801,148.246012,360001
3,-20.013330,148.246842,360002
3,-20.013312,148.246831,360003
3,-20.013281,148.246821,360004
3,-20.013249,148.246817,360005
3,-20.013217,148.246821,360006
3,-20.013186,148.246831,360007
3,-20.013158,148.246848,360008
3,-20.013151,148.246855,360009
3,-20.013032,148.246800,360010
3,-20.012854,148.246687,360011
