trip_id,arrival_time,departure_time,stop_id,stop_sequence,pickup_type,drop_off_type
0,10:45:00,10:45:00,0,1,0,0
0,10:45:00,10:45:00,1,2,0,0
0,10:47:00,10:47:00,2,3,0,0
0,10:47:00,10:47:00,3,4,0,0
0,10:48:00,10:48:00,4,5,0,0
0,10:48:00,10:48:00,5,6,0,0
0,10:48:00,10:48:00,6,7,0,0
0,10:49:00,10:49:00,7,8,0,0
0,10:49:00,10:49:00,8,9,0,0
0,10:51:00,10:51:00,9,10,0,0
0,10:51:00,10:51:00,10,11,0,0
0,10:52:00,10:52:00,11,12,0,0
0,10:53:00,10:53:00,12,13,0,0
0,10:54:00,10:54:00,13,14,0,0
0,10:55:00,10:55:00,14,15,0,0
0,10:56:00,10:56:00,15,16,0,0
0,10:57:00,10:57:00,16,17,0,0
0,10:58:00,10:58:00,17,18,0,0
0,10:58:00,10:58:00,18,19,0,0
0,11:00:00,11:00:00,19,20,0,0
0,11:00:00,11:00:00,20,21,0,0
0,11:01:00,11:01:00,21,22,0,0
0,11:02:00,11:02:00,22,23,0,0
0,11:03:00,11:03:00,23,24,0,0
0,11:03:00,11:03:00,24,25,0,0
0,11:04:00,11:04:00,25,26,0,0
0,11:05:00,11:05:00,26,27,0,0
0,11:05:00,11:05:00,27,28,0,0
0,11:06:00,11:06:00,28,29,0,0
0,11:06:00,11:06:00,29,30,0,0
0,11:07:00,11:07:00,30,31,0,0
0,11:08:00,11:08:00,31,32,0,0
0,11:09:00,11:09:00,11,33,0,0
0,11:09:00,11:09:00,12,34,0,0
0,11:10:00,11:10:00,13,35,0,0
0,11:10:00,11:10:00,32,36,0,0
0,11:11:00,11:11:00,33,37,0,0
0,11:12:00,11:12:00,34,38,0,0
0,11:14:00,11:14:00,8,39,0,0
0,11:15:00,11:15:00,35,40,0,0
0,11:16:00,11:16:00,2,41,0,0
0,11:18:00,11:18:00,36,42,0,0
0,11:20:00,11:20:00,37,43,0,0
0,11:21:00,11:21:00,38,44,0,0
0,11:22:00,11:22:00,39,45,0,0
0,11:23:00,11:23:00,40,46,0,0
0,11:23:00,11:23:00,0,47,0,0
1,12:45:00,12:45:00,0,1,0,0
1,12:45:00,12:45:00,1,2,0,0
1,12:47:00,12:47:00,2,3,0,0
1,12:47:00,12:47:00,3,4,0,0
1,12:48:00,12:48:00,4,5,0,0
1,12:48:00,12:48:00,5,6,0,0
1,12:48:00,12:48:00,6,7,0,0
1,12:49:00,12:49:00,7,8,0,0
1,12:49:00,12:49:00,8,9,0,0
1,12:51:00,12:51:00,9,10,0,0
1,12:51:00,12:51:00,10,11,0,0
1,12:52:00,12:52:00,11,12,0,0
1,12:53:00,12:53:00,12,13,0,0
1,12:54:00,12:54:00,13,14,0,0
1,12:55:00,12:55:00,14,15,0,0
1,12:56:00,12:56:00,15,16,0,0
1,12:57:00,12:57:00,16,17,0,0
1,12:58:00,12:58:00,17,18,0,0
1,12:58:00,12:58:00,18,19,0,0
1,13:00:00,13:00:00,19,20,0,0
1,13:00:00,13:00:00,20,21,0,0
1,13:01:00,13:01:00,21,22,0,0
1,13:02:00,13:02:00,22,23,0,0
1,13:03:00,13:03:00,23,24,0,0
1,13:03:00,13:03:00,24,25,0,0
1,13:04:00,13:04:00,25,26,0,0
1,13:05:00,13:05:00,26,27,0,0
1,13:05:00,13:05:00,27,28,0,0
1,13:06:00,13:06:00,28,29,0,0
1,13:06:00,13:06:00,29,30,0,0
1,13:07:00,13:07:00,30,31,0,0
1,13:08:00,13:08:00,31,32,0,0
1,13:09:00,13:09:00,11,33,0,0
1,13:09:00,13:09:00,12,34,0,0
1,13:10:00,13:10:00,13,35,0,0
1,13:10:00,13:10:00,32,36,0,0
1,13:11:00,13:11:00,33,37,0,0
1,13:12:00,13:12:00,34,38,0,0
1,13:14:00,13:14:00,8,39,0,0
1,13:15:00,13:15:00,35,40,0,0
1,13:16:00,13:16:00,2,41,0,0
1,13:18:00,13:18:00,36,42,0,0
1,13:20:00,13:20:00,37,43,0,0
1,13:21:00,13:21:00,38,44,0,0
1,13:22:00,13:22:00,39,45,0,0
1,13:23:00,13:23:00,40,46,0,0
1,13:23:00,13:23:00,0,47,0,0
2,08:45:00,08:45:00,0,1,0,0
2,08:45:00,08:45:00,1,2,0,0
2,08:47:00,08:47:00,2,3,0,0
2,08:47:00,08:47:00,3,4,0,0
2,08:48:00,08:48:00,4,5,0,0
2,08:48:00,08:48:00,5,6,0,0
2,08:48:00,08:48:00,6,7,0,0
2,08:49:00,08:49:00,7,8,0,0
2,08:49:00,08:49:00,8,9,0,0
2,08:51:00,08:51:00,9,10,0,0
2,08:51:00,08:51:00,10,11,0,0
2,08:52:00,08:52:00,11,12,0,0
2,08:53:00,08:53:00,12,13,0,0
2,08:54:00,08:54:00,13,14,0,0
2,08:55:00,08:55:00,14,15,0,0
2,08:56:00,08:56:00,15,16,0,0
2,08:57:00,08:57:00,16,17,0,0
2,08:58:00,08:58:00,17,18,0,0
2,08:58:00,08:58:00,18,19,0,0
2,09:00:00,09:00:00,19,20,0,0
2,09:00:00,09:00:00,20,21,0,0
2,09:01:00,09:01:00,21,22,0,0
2,09:02:00,09:02:00,22,23,0,0
2,09:03:00,09:03:00,23,24,0,0
2,09:03:00,09:03:00,24,25,0,0
2,09:04:00,09:04:00,25,26,0,0
2,09:05:00,09:05:00,26,27,0,0
2,09:05:00,09:05:00,27,28,0,0
2,09:06:00,09:06:00,28,29,0,0
2,09:06:00,09:06:00,29,30,0,0
2,09:07:00,09:07:00,30,31,0,0
2,09:08:00,09:08:00,31,32,0,0
2,09:09:00,09:09:00,11,33,0,0
2,09:09:00,09:09:00,12,34,0,0
2,09:10:00,09:10:00,13,35,0,0
2,09:10:00,09:10:00,32,36,0,0
2,09:11:00,09:11:00,33,37,0,0
2,09:12:00,09:12:00,34,38,0,0
2,09:14:00,09:14:00,8,39,0,0
2,09:15:00,09:15:00,35,40,0,0
2,09:16:00,09:16:00,2,41,0,0
2,09:18:00,09:18:00,36,42,0,0
2,09:20:00,09:20:00,37,43,0,0
2,09:21:00,09:21:00,38,44,0,0
2,09:22:00,09:22:00,39,45,0,0
2,09:23:00,09:23:00,40,46,0,0
2,09:23:00,09:23:00,0,47,0,0
3,11:25:00,11:25:00,0,1,0,0
3,11:26:00,11:26:00,41,2,0,0
3,11:28:00,11:28:00,42,3,0,0
3,11:30:00,11:30:00,43,4,0,0
3,11:31:00,11:31:00,44,5,0,0
3,11:32:00,11:32:00,39,6,0,0
3,11:33:00,11:33:00,40,7,0,0
3,11:33:00,11:33:00,0,8,0,0
4,13:25:00,13:25:00,0,1,0,0
4,13:26:00,13:26:00,41,2,0,0
4,13:28:00,13:28:00,42,3,0,0
4,13:30:00,13:30:00,43,4,0,0
4,13:31:00,13:31:00,44,5,0,0
4,13:32:00,13:32:00,39,6,0,0
4,13:33:00,13:33:00,40,7,0,0
4,13:33:00,13:33:00,0,8,0,0
5,09:25:00,09:25:00,0,1,0,0
5,09:26:00,09:26:00,41,2,0,0
5,09:28:00,09:28:00,42,3,0,0
5,09:30:00,09:30:00,43,4,0,0
5,09:31:00,09:31:00,44,5,0,0
5,09:32:00,09:32:00,39,6,0,0
5,09:33:00,09:33:00,40,7,0,0
5,09:33:00,09:33:00,0,8,0,0
6,11:40:00,11:40:00,0,1,0,0
6,11:40:00,11:40:00,1,2,0,0
6,11:42:00,11:42:00,2,3,0,0
6,11:42:00,11:42:00,3,4,0,0
6,11:43:00,11:43:00,4,5,0,0
6,11:43:00,11:43:00,45,6,0,0
6,11:43:00,11:43:00,5,7,0,0
6,11:43:00,11:43:00,6,8,0,0
6,11:44:00,11:44:00,7,9,0,0
6,11:44:00,11:44:00,8,10,0,0
6,11:46:00,11:46:00,46,11,0,0
6,11:48:00,11:48:00,47,12,0,0
6,11:49:00,11:49:00,48,13,0,0
6,11:49:00,11:49:00,49,14,0,0
6,11:50:00,11:50:00,50,15,0,0
6,11:52:00,11:52:00,51,16,0,0
6,11:56:00,11:56:00,52,17,0,0
6,11:59:00,11:59:00,53,18,0,0
6,11:59:00,11:59:00,54,19,0,0
6,11:59:00,11:59:00,55,20,0,0
6,12:00:00,12:00:00,56,21,0,0
6,12:00:00,12:00:00,57,22,0,0
6,12:01:00,12:01:00,58,23,0,0
6,12:02:00,12:02:00,9,24,0,0
6,12:02:00,12:02:00,10,25,0,0
6,12:03:00,12:03:00,11,26,0,0
6,12:03:00,12:03:00,12,27,0,0
6,12:04:00,12:04:00,13,28,0,0
6,12:04:00,12:04:00,32,29,0,0
6,12:05:00,12:05:00,33,30,0,0
6,12:06:00,12:06:00,34,31,0,0
6,12:07:00,12:07:00,8,32,0,0
6,12:08:00,12:08:00,35,33,0,0
6,12:09:00,12:09:00,2,34,0,0
6,12:10:00,12:10:00,36,35,0,0
6,12:12:00,12:12:00,37,36,0,0
6,12:14:00,12:14:00,38,37,0,0
6,12:17:00,12:17:00,39,38,0,0
6,12:18:00,12:18:00,40,39,0,0
6,12:18:00,12:18:00,0,40,0,0
7,13:40:00,13:40:00,0,1,0,0
7,13:40:00,13:40:00,1,2,0,0
7,13:42:00,13:42:00,2,3,0,0
7,13:42:00,13:42:00,3,4,0,0
7,13:43:00,13:43:00,4,5,0,0
7,13:43:00,13:43:00,45,6,0,0
7,13:43:00,13:43:00,5,7,0,0
7,13:43:00,13:43:00,6,8,0,0
7,13:44:00,13:44:00,7,9,0,0
7,13:44:00,13:44:00,8,10,0,0
7,13:46:00,13:46:00,46,11,0,0
7,13:48:00,13:48:00,47,12,0,0
7,13:49:00,13:49:00,48,13,0,0
7,13:49:00,13:49:00,49,14,0,0
7,13:50:00,13:50:00,50,15,0,0
7,13:52:00,13:52:00,51,16,0,0
7,13:56:00,13:56:00,52,17,0,0
7,13:59:00,13:59:00,53,18,0,0
7,13:59:00,13:59:00,54,19,0,0
7,13:59:00,13:59:00,55,20,0,0
7,14:00:00,14:00:00,56,21,0,0
7,14:00:00,14:00:00,57,22,0,0
7,14:01:00,14:01:00,58,23,0,0
7,14:02:00,14:02:00,9,24,0,0
7,14:02:00,14:02:00,10,25,0,0
7,14:03:00,14:03:00,11,26,0,0
7,14:03:00,14:03:00,12,27,0,0
7,14:04:00,14:04:00,13,28,0,0
7,14:04:00,14:04:00,32,29,0,0
7,14:05:00,14:05:00,33,30,0,0
7,14:06:00,14:06:00,34,31,0,0
7,14:07:00,14:07:00,8,32,0,0
7,14:08:00,14:08:00,35,33,0,0
7,14:09:00,14:09:00,2,34,0,0
7,14:10:00,14:10:00,36,35,0,0
7,14:12:00,14:12:00,37,36,0,0
7,14:14:00,14:14:00,38,37,0,0
7,14:17:00,14:17:00,39,38,0,0
7,14:18:00,14:18:00,40,39,0,0
7,14:18:00,14:18:00,0,40,0,0
8,09:40:00,09:40:00,0,1,0,0
8,09:40:00,09:40:00,1,2,0,0
8,09:42:00,09:42:00,2,3,0,0
8,09:42:00,09:42:00,3,4,0,0
8,09:43:00,09:43:00,4,5,0,0
8,09:43:00,09:43:00,45,6,0,0
8,09:43:00,09:43:00,5,7,0,0
8,09:43:00,09:43:00,6,8,0,0
8,09:44:00,09:44:00,7,9,0,0
8,09:44:00,09:44:00,8,10,0,0
8,09:46:00,09:46:00,46,11,0,0
8,09:48:00,09:48:00,47,12,0,0
8,09:49:00,09:49:00,48,13,0,0
8,09:49:00,09:49:00,49,14,0,0
8,09:50:00,09:50:00,50,15,0,0
8,09:52:00,09:52:00,51,16,0,0
8,09:56:00,09:56:00,52,17,0,0
8,09:59:00,09:59:00,53,18,0,0
8,09:59:00,09:59:00,54,19,0,0
8,09:59:00,09:59:00,55,20,0,0
8,10:00:00,10:00:00,56,21,0,0
8,10:00:00,10:00:00,57,22,0,0
8,10:01:00,10:01:00,58,23,0,0
8,10:02:00,10:02:00,9,24,0,0
8,10:02:00,10:02:00,10,25,0,0
8,10:03:00,10:03:00,11,26,0,0
8,10:03:00,10:03:00,12,27,0,0
8,10:04:00,10:04:00,13,28,0,0
8,10:04:00,10:04:00,32,29,0,0
8,10:05:00,10:05:00,33,30,0,0
8,10:06:00,10:06:00,34,31,0,0
8,10:07:00,10:07:00,8,32,0,0
8,10:08:00,10:08:00,35,33,0,0
8,10:09:00,10:09:00,2,34,0,0
8,10:10:00,10:10:00,36,35,0,0
8,10:12:00,10:12:00,37,36,0,0
8,10:14:00,10:14:00,38,37,0,0
8,10:17:00,10:17:00,39,38,0,0
8,10:18:00,10:18:00,40,39,0,0
8,10:18:00,10:18:00,0,40,0,0
9,12:20:00,12:20:00,0,1,0,0
9,12:20:00,12:20:00,1,2,0,0
9,12:22:00,12:22:00,2,3,0,0
9,12:22:00,12:22:00,3,4,0,0
9,12:23:00,12:23:00,4,5,0,0
9,12:23:00,12:23:00,45,6,0,0
9,12:23:00,12:23:00,5,7,0,0
9,12:23:00,12:23:00,6,8,0,0
9,12:24:00,12:24:00,7,9,0,0
9,12:24:00,12:24:00,8,10,0,0
9,12:25:00,12:25:00,59,11,0,0
9,12:25:00,12:25:00,60,12,0,0
9,12:27:00,12:27:00,61,13,0,0
9,12:27:00,12:27:00,62,14,0,0
9,12:27:00,12:27:00,63,15,0,0
9,12:28:00,12:28:00,64,16,0,0
9,12:28:00,12:28:00,65,17,0,0
9,12:29:00,12:29:00,66,18,0,0
9,12:29:00,12:29:00,67,19,0,0
9,12:30:00,12:30:00,68,20,0,0
9,12:30:00,12:30:00,69,21,0,0
9,12:31:00,12:31:00,70,22,0,0
9,12:31:00,12:31:00,71,23,0,0
9,12:31:00,12:31:00,72,24,0,0
9,12:32:00,12:32:00,73,25,0,0
9,12:32:00,12:32:00,74,26,0,0
9,12:32:00,12:32:00,75,27,0,0
9,12:32:00,12:32:00,76,28,0,0
9,12:33:00,12:33:00,77,29,0,0
9,12:33:00,12:33:00,78,30,0,0
9,12:33:00,12:33:00,79,31,0,0
9,12:34:00,12:34:00,80,32,0,0
9,12:34:00,12:34:00,37,33,0,0
9,12:35:00,12:35:00,38,34,0,0
9,12:37:00,12:37:00,39,35,0,0
9,12:38:00,12:38:00,40,36,0,0
9,12:38:00,12:38:00,0,37,0,0
10,14:20:00,14:20:00,0,1,0,0
10,14:20:00,14:20:00,1,2,0,0
10,14:22:00,14:22:00,2,3,0,0
10,14:22:00,14:22:00,3,4,0,0
10,14:23:00,14:23:00,4,5,0,0
10,14:23:00,14:23:00,45,6,0,0
10,14:23:00,14:23:00,5,7,0,0
10,14:23:00,14:23:00,6,8,0,0
10,14:24:00,14:24:00,7,9,0,0
10,14:24:00,14:24:00,8,10,0,0
10,14:25:00,14:25:00,59,11,0,0
10,14:25:00,14:25:00,60,12,0,0
10,14:27:00,14:27:00,61,13,0,0
10,14:27:00,14:27:00,62,14,0,0
10,14:27:00,14:27:00,63,15,0,0
10,14:28:00,14:28:00,64,16,0,0
10,14:28:00,14:28:00,65,17,0,0
10,14:29:00,14:29:00,66,18,0,0
10,14:29:00,14:29:00,67,19,0,0
10,14:30:00,14:30:00,68,20,0,0
10,14:30:00,14:30:00,69,21,0,0
10,14:31:00,14:31:00,70,22,0,0
10,14:31:00,14:31:00,71,23,0,0
10,14:31:00,14:31:00,72,24,0,0
10,14:32:00,14:32:00,73,25,0,0
10,14:32:00,14:32:00,74,26,0,0
10,14:32:00,14:32:00,75,27,0,0
10,14:32:00,14:32:00,76,28,0,0
10,14:33:00,14:33:00,77,29,0,0
10,14:33:00,14:33:00,78,30,0,0
10,14:33:00,14:33:00,79,31,0,0
10,14:34:00,14:34:00,80,32,0,0
10,14:34:00,14:34:00,37,33,0,0
10,14:35:00,14:35:00,38,34,0,0
10,14:37:00,14:37:00,39,35,0,0
10,14:38:00,14:38:00,40,36,0,0
10,14:38:00,14:38:00,0,37,0,0
11,10:20:00,10:20:00,0,1,0,0
11,10:20:00,10:20:00,1,2,0,0
11,10:22:00,10:22:00,2,3,0,0
11,10:22:00,10:22:00,3,4,0,0
11,10:23:00,10:23:00,4,5,0,0
11,10:23:00,10:23:00,45,6,0,0
11,10:23:00,10:23:00,5,7,0,0
11,10:23:00,10:23:00,6,8,0,0
11,10:24:00,10:24:00,7,9,0,0
11,10:24:00,10:24:00,8,10,0,0
11,10:25:00,10:25:00,59,11,0,0
11,10:25:00,10:25:00,60,12,0,0
11,10:27:00,10:27:00,61,13,0,0
11,10:27:00,10:27:00,62,14,0,0
11,10:27:00,10:27:00,63,15,0,0
11,10:28:00,10:28:00,64,16,0,0
11,10:28:00,10:28:00,65,17,0,0
11,10:29:00,10:29:00,66,18,0,0
11,10:29:00,10:29:00,67,19,0,0
11,10:30:00,10:30:00,68,20,0,0
11,10:30:00,10:30:00,69,21,0,0
11,10:31:00,10:31:00,70,22,0,0
11,10:31:00,10:31:00,71,23,0,0
11,10:31:00,10:31:00,72,24,0,0
11,10:32:00,10:32:00,73,25,0,0
11,10:32:00,10:32:00,74,26,0,0
11,10:32:00,10:32:00,75,27,0,0
11,10:32:00,10:32:00,76,28,0,0
11,10:33:00,10:33:00,77,29,0,0
11,10:33:00,10:33:00,78,30,0,0
11,10:33:00,10:33:00,79,31,0,0
11,10:34:00,10:34:00,80,32,0,0
11,10:34:00,10:34:00,37,33,0,0
11,10:35:00,10:35:00,38,34,0,0
11,10:37:00,10:37:00,39,35,0,0
11,10:38:00,10:38:00,40,36,0,0
11,10:38:00,10:38:00,0,37,0,0
12,10:45:00,10:45:00,0,1,0,0
12,10:45:00,10:45:00,1,2,0,0
12,10:47:00,10:47:00,2,3,0,0
12,10:47:00,10:47:00,3,4,0,0
12,10:48:00,10:48:00,4,5,0,0
12,10:48:00,10:48:00,5,6,0,0
12,10:48:00,10:48:00,6,7,0,0
12,10:49:00,10:49:00,7,8,0,0
12,10:49:00,10:49:00,8,9,0,0
12,10:51:00,10:51:00,9,10,0,0
12,10:51:00,10:51:00,10,11,0,0
12,10:52:00,10:52:00,11,12,0,0
12,10:53:00,10:53:00,12,13,0,0
12,10:54:00,10:54:00,13,14,0,0
12,10:55:00,10:55:00,14,15,0,0
12,10:56:00,10:56:00,15,16,0,0
12,10:57:00,10:57:00,16,17,0,0
12,10:58:00,10:58:00,17,18,0,0
12,10:58:00,10:58:00,18,19,0,0
12,11:00:00,11:00:00,19,20,0,0
12,11:00:00,11:00:00,20,21,0,0
12,11:01:00,11:01:00,21,22,0,0
12,11:02:00,11:02:00,22,23,0,0
12,11:03:00,11:03:00,23,24,0,0
12,11:03:00,11:03:00,24,25,0,0
12,11:04:00,11:04:00,25,26,0,0
12,11:05:00,11:05:00,26,27,0,0
12,11:05:00,11:05:00,27,28,0,0
12,11:06:00,11:06:00,28,29,0,0
12,11:06:00,11:06:00,29,30,0,0
12,11:07:00,11:07:00,30,31,0,0
12,11:08:00,11:08:00,31,32,0,0
12,11:09:00,11:09:00,11,33,0,0
12,11:09:00,11:09:00,12,34,0,0
12,11:10:00,11:10:00,13,35,0,0
12,11:10:00,11:10:00,32,36,0,0
12,11:11:00,11:11:00,33,37,0,0
12,11:12:00,11:12:00,34,38,0,0
12,11:14:00,11:14:00,8,39,0,0
12,11:15:00,11:15:00,35,40,0,0
12,11:16:00,11:16:00,2,41,0,0
12,11:18:00,11:18:00,36,42,0,0
12,11:20:00,11:20:00,37,43,0,0
12,11:21:00,11:21:00,38,44,0,0
12,11:22:00,11:22:00,39,45,0,0
12,11:23:00,11:23:00,40,46,0,0
12,11:23:00,11:23:00,0,47,0,0
13,08:45:00,08:45:00,0,1,0,0
13,08:45:00,08:45:00,1,2,0,0
13,08:47:00,08:47:00,2,3,0,0
13,08:47:00,08:47:00,3,4,0,0
13,08:48:00,08:48:00,4,5,0,0
13,08:48:00,08:48:00,5,6,0,0
13,08:48:00,08:48:00,6,7,0,0
13,08:49:00,08:49:00,7,8,0,0
13,08:49:00,08:49:00,8,9,0,0
13,08:51:00,08:51:00,9,10,0,0
13,08:51:00,08:51:00,10,11,0,0
13,08:52:00,08:52:00,11,12,0,0
13,08:53:00,08:53:00,12,13,0,0
13,08:54:00,08:54:00,13,14,0,0
13,08:55:00,08:55:00,14,15,0,0
13,08:56:00,08:56:00,15,16,0,0
13,08:57:00,08:57:00,16,17,0,0
13,08:58:00,08:58:00,17,18,0,0
13,08:58:00,08:58:00,18,19,0,0
13,09:00:00,09:00:00,19,20,0,0
13,09:00:00,09:00:00,20,21,0,0
13,09:01:00,09:01:00,21,22,0,0
13,09:02:00,09:02:00,22,23,0,0
13,09:03:00,09:03:00,23,24,0,0
13,09:03:00,09:03:00,24,25,0,0
13,09:04:00,09:04:00,25,26,0,0
13,09:05:00,09:05:00,26,27,0,0
13,09:05:00,09:05:00,27,28,0,0
13,09:06:00,09:06:00,28,29,0,0
13,09:06:00,09:06:00,29,30,0,0
13,09:07:00,09:07:00,30,31,0,0
13,09:08:00,09:08:00,31,32,0,0
13,09:09:00,09:09:00,11,33,0,0
13,09:09:00,09:09:00,12,34,0,0
13,09:10:00,09:10:00,13,35,0,0
13,09:10:00,09:10:00,32,36,0,0
13,09:11:00,09:11:00,33,37,0,0
13,09:12:00,09:12:00,34,38,0,0
13,09:14:00,09:14:00,8,39,0,0
13,09:15:00,09:15:00,35,40,0,0
13,09:16:00,09:16:00,2,41,0,0
13,09:18:00,09:18:00,36,42,0,0
13,09:20:00,09:20:00,37,43,0,0
13,09:21:00,09:21:00,38,44,0,0
13,09:22:00,09:22:00,39,45,0,0
13,09:23:00,09:23:00,40,46,0,0
13,09:23:00,09:23:00,0,47,0,0
14,11:25:00,11:25:00,0,1,0,0
14,11:26:00,11:26:00,41,2,0,0
14,11:28:00,11:28:00,42,3,0,0
14,11:30:00,11:30:00,43,4,0,0
14,11:31:00,11:31:00,44,5,0,0
14,11:32:00,11:32:00,39,6,0,0
14,11:33:00,11:33:00,40,7,0,0
14,11:33:00,11:33:00,0,8,0,0
15,09:25:00,09:25:00,0,1,0,0
15,09:26:00,09:26:00,41,2,0,0
15,09:28:00,09:28:00,42,3,0,0
15,09:30:00,09:30:00,43,4,0,0
15,09:31:00,09:31:00,44,5,0,0
15,09:32:00,09:32:00,39,6,0,0
15,09:33:00,09:33:00,40,7,0,0
15,09:33:00,09:33:00,0,8,0,0
16,11:40:00,11:40:00,0,1,0,0
16,11:40:00,11:40:00,1,2,0,0
16,11:42:00,11:42:00,2,3,0,0
16,11:42:00,11:42:00,3,4,0,0
16,11:43:00,11:43:00,4,5,0,0
16,11:43:00,11:43:00,45,6,0,0
16,11:43:00,11:43:00,5,7,0,0
16,11:43:00,11:43:00,6,8,0,0
16,11:44:00,11:44:00,7,9,0,0
16,11:44:00,11:44:00,8,10,0,0
16,11:46:00,11:46:00,46,11,0,0
16,11:48:00,11:48:00,47,12,0,0
16,11:49:00,11:49:00,48,13,0,0
16,11:49:00,11:49:00,49,14,0,0
16,11:50:00,11:50:00,50,15,0,0
16,11:52:00,11:52:00,51,16,0,0
16,11:56:00,11:56:00,52,17,0,0
16,11:59:00,11:59:00,53,18,0,0
16,11:59:00,11:59:00,54,19,0,0
16,11:59:00,11:59:00,55,20,0,0
16,12:00:00,12:00:00,56,21,0,0
16,12:00:00,12:00:00,57,22,0,0
16,12:01:00,12:01:00,58,23,0,0
16,12:02:00,12:02:00,9,24,0,0
16,12:02:00,12:02:00,10,25,0,0
16,12:03:00,12:03:00,11,26,0,0
16,12:03:00,12:03:00,12,27,0,0
16,12:04:00,12:04:00,13,28,0,0
16,12:04:00,12:04:00,32,29,0,0
16,12:05:00,12:05:00,33,30,0,0
16,12:06:00,12:06:00,34,31,0,0
16,12:07:00,12:07:00,8,32,0,0
16,12:08:00,12:08:00,35,33,0,0
16,12:09:00,12:09:00,2,34,0,0
16,12:10:00,12:10:00,36,35,0,0
16,12:12:00,12:12:00,37,36,0,0
16,12:14:00,12:14:00,38,37,0,0
16,12:17:00,12:17:00,39,38,0,0
16,12:18:00,12:18:00,40,39,0,0
16,12:18:00,12:18:00,0,40,0,0
17,09:40:00,09:40:00,0,1,0,0
17,09:40:00,09:40:00,1,2,0,0
17,09:42:00,09:42:00,2,3,0,0
17,09:42:00,09:42:00,3,4,0,0
17,09:43:00,09:43:00,4,5,0,0
17,09:43:00,09:43:00,45,6,0,0
17,09:43:00,09:43:00,5,7,0,0
17,09:43:00,09:43:00,6,8,0,0
17,09:44:00,09:44:00,7,9,0,0
17,09:44:00,09:44:00,8,10,0,0
17,09:46:00,09:46:00,46,11,0,0
17,09:48:00,09:48:00,47,12,0,0
17,09:49:00,09:49:00,48,13,0,0
17,09:49:00,09:49:00,49,14,0,0
17,09:50:00,09:50:00,50,15,0,0
17,09:52:00,09:52:00,51,16,0,0
17,09:56:00,09:56:00,52,17,0,0
17,09:59:00,09:59:00,53,18,0,0
17,09:59:00,09:59:00,54,19,0,0
17,09:59:00,09:59:00,55,20,0,0
17,10:00:00,10:00:00,56,21,0,0
17,10:00:00,10:00:00,57,22,0,0
17,10:01:00,10:01:00,58,23,0,0
17,10:02:00,10:02:00,9,24,0,0
17,10:02:00,10:02:00,10,25,0,0
17,10:03:00,10:03:00,11,26,0,0
17,10:03:00,10:03:00,12,27,0,0
17,10:04:00,10:04:00,13,28,0,0
17,10:04:00,10:04:00,32,29,0,0
17,10:05:00,10:05:00,33,30,0,0
17,10:06:00,10:06:00,34,31,0,0
17,10:07:00,10:07:00,8,32,0,0
17,10:08:00,10:08:00,35,33,0,0
17,10:09:00,10:09:00,2,34,0,0
17,10:10:00,10:10:00,36,35,0,0
17,10:12:00,10:12:00,37,36,0,0
17,10:14:00,10:14:00,38,37,0,0
17,10:17:00,10:17:00,39,38,0,0
17,10:18:00,10:18:00,40,39,0,0
17,10:18:00,10:18:00,0,40,0,0
18,12:20:00,12:20:00,0,1,0,0
18,12:20:00,12:20:00,1,2,0,0
18,12:22:00,12:22:00,2,3,0,0
18,12:22:00,12:22:00,3,4,0,0
18,12:23:00,12:23:00,4,5,0,0
18,12:23:00,12:23:00,45,6,0,0
18,12:23:00,12:23:00,5,7,0,0
18,12:23:00,12:23:00,6,8,0,0
18,12:24:00,12:24:00,7,9,0,0
18,12:24:00,12:24:00,8,10,0,0
18,12:25:00,12:25:00,59,11,0,0
18,12:25:00,12:25:00,60,12,0,0
18,12:27:00,12:27:00,61,13,0,0
18,12:27:00,12:27:00,62,14,0,0
18,12:27:00,12:27:00,63,15,0,0
18,12:28:00,12:28:00,64,16,0,0
18,12:28:00,12:28:00,65,17,0,0
18,12:29:00,12:29:00,66,18,0,0
18,12:29:00,12:29:00,67,19,0,0
18,12:30:00,12:30:00,68,20,0,0
18,12:30:00,12:30:00,69,21,0,0
18,12:31:00,12:31:00,70,22,0,0
18,12:31:00,12:31:00,71,23,0,0
18,12:31:00,12:31:00,72,24,0,0
18,12:32:00,12:32:00,73,25,0,0
18,12:32:00,12:32:00,74,26,0,0
18,12:32:00,12:32:00,75,27,0,0
18,12:32:00,12:32:00,76,28,0,0
18,12:33:00,12:33:00,77,29,0,0
18,12:33:00,12:33:00,78,30,0,0
18,12:33:00,12:33:00,79,31,0,0
18,12:34:00,12:34:00,80,32,0,0
18,12:34:00,12:34:00,37,33,0,0
18,12:35:00,12:35:00,38,34,0,0
18,12:37:00,12:37:00,39,35,0,0
18,12:38:00,12:38:00,40,36,0,0
18,12:38:00,12:38:00,0,37,0,0
19,10:20:00,10:20:00,0,1,0,0
19,10:20:00,10:20:00,1,2,0,0
19,10:22:00,10:22:00,2,3,0,0
19,10:22:00,10:22:00,3,4,0,0
19,10:23:00,10:23:00,4,5,0,0
19,10:23:00,10:23:00,45,6,0,0
19,10:23:00,10:23:00,5,7,0,0
19,10:23:00,10:23:00,6,8,0,0
19,10:24:00,10:24:00,7,9,0,0
19,10:24:00,10:24:00,8,10,0,0
19,10:25:00,10:25:00,59,11,0,0
19,10:25:00,10:25:00,60,12,0,0
19,10:27:00,10:27:00,61,13,0,0
19,10:27:00,10:27:00,62,14,0,0
19,10:27:00,10:27:00,63,15,0,0
19,10:28:00,10:28:00,64,16,0,0
19,10:28:00,10:28:00,65,17,0,0
19,10:29:00,10:29:00,66,18,0,0
19,10:29:00,10:29:00,67,19,0,0
19,10:30:00,10:30:00,68,20,0,0
19,10:30:00,10:30:00,69,21,0,0
19,10:31:00,10:31:00,70,22,0,0
19,10:31:00,10:31:00,71,23,0,0
19,10:31:00,10:31:00,72,24,0,0
19,10:32:00,10:32:00,73,25,0,0
19,10:32:00,10:32:00,74,26,0,0
19,10:32:00,10:32:00,75,27,0,0
19,10:32:00,10:32:00,76,28,0,0
19,10:33:00,10:33:00,77,29,0,0
19,10:33:00,10:33:00,78,30,0,0
19,10:33:00,10:33:00,79,31,0,0
19,10:34:00,10:34:00,80,32,0,0
19,10:34:00,10:34:00,37,33,0,0
19,10:35:00,10:35:00,38,34,0,0
19,10:37:00,10:37:00,39,35,0,0
19,10:38:00,10:38:00,40,36,0,0
19,10:38:00,10:38:00,0,37,0,0
