route_id,service_id,trip_id,trip_headsign,direction_id,block_id,shape_id
0,2,0,"Bowen, Herbert St",0,,0
0,2,1,"Bowen, Herbert St",0,,0
0,2,2,"Bowen, Herbert St",0,,0
1,2,3,"Bowen, Herbert St",0,,1
1,2,4,"Bowen, Herbert St",0,,1
1,2,5,"Bowen, Herbert St",0,,1
2,2,6,"Bowen, Herbert St",0,,2
2,2,7,"Bowen, Herbert St",0,,2
2,2,8,"Bowen, Herbert St",0,,2
3,2,9,"Bowen, Herbert St",0,,3
3,2,10,"Bowen, Herbert St",0,,3
3,2,11,"Bowen, Herbert St",0,,3
0,1,12,"Bowen, Herbert St",0,,0
0,1,13,"Bowen, Herbert St",0,,0
1,1,14,"Bowen, Herbert St",0,,1
1,1,15,"Bowen, Herbert St",0,,1
2,1,16,"Bowen, Herbert St",0,,2
2,1,17,"Bowen, Herbert St",0,,2
3,1,18,"Bowen, Herbert St",0,,3
3,1,19,"Bowen, Herbert St",0,,3
