shape_id,shape_pt_lat,shape_pt_lon,shape_pt_sequence
0,-28.216655,152.032520,10001
0,-28.217299,152.032413,10002
0,-28.218135,152.032255,10003
0,-28.218139,152.032277,10004
0,-28.218150,152.032305,10005
0,-28.218166,152.032331,10006
0,-28.218187,152.032352,10007
0,-28.218211,152.032368,10008
0,-28.218237,152.032377,10009
0,-28.218265,152.032381,10010
0,-28.218280,152.032380,10011
0,-28.218293,152.032377,10012
0,-28.218319,152.032368,10013
0,-28.218343,152.032352,10014
0,-28.218364,152.032331,10015
0,-28.218380,152.032305,10016
0,-28.218391,152.032277,10017
0,-28.218397,152.032246,10018
0,-28.218396,152.032207,10019
0,-28.220304,152.031863,10020
0,-28.220396,152.032571,10021
0,-28.220457,152.033004,10022
0,-28.220568,152.033861,10023
0,-28.220592,152.034024,10024
0,-28.220662,152.034199,10025
0,-28.222279,152.033901,10026
0,-28.222730,152.033817,10027
0,-28.222696,152.033583,10028
0,-28.222696,152.033583,20001
0,-28.222556,152.032621,20002
0,-28.222375,152.031518,20003
0,-28.222698,152.031458,20004
0,-28.222698,152.031458,30001
0,-28.225483,152.030944,30002
0,-28.225320,152.029718,30003
0,-28.225153,152.028580,30004
0,-28.225021,152.027669,30005
0,-28.225021,152.027669,40001
0,-28.224980,152.027388,40002
0,-28.224816,152.026250,40003
0,-28.224639,152.025046,40004
0,-28.224477,152.023919,40005
0,-28.224467,152.023846,40006
0,-28.224467,152.023846,50001
0,-28.224303,152.022722,50002
0,-28.224138,152.021588,50003
0,-28.221048,152.022155,50004
0,-28.220890,152.020966,50005
0,-28.220713,152.019830,50006
0,-28.223814,152.019269,50007
0,-28.223584,152.017625,50008
0,-28.223584,152.017625,60001
0,-28.223487,152.016933,60002
0,-28.223305,152.015680,60003
0,-28.223305,152.015680,70001
0,-28.223288,152.015564,70002
0,-28.223149,152.014608,70003
0,-28.223060,152.013953,70004
0,-28.222978,152.013418,70005
0,-28.222804,152.012271,70006
0,-28.222799,152.012238,70007
0,-28.222799,152.012238,80001
0,-28.222755,152.011910,80002
0,-28.222523,152.010213,80003
0,-28.222523,152.010213,90001
0,-28.222504,152.010076,90002
0,-28.222485,152.009928,90003
0,-28.222312,152.008778,90004
0,-28.222268,152.008468,90005
0,-28.222183,152.007829,90006
0,-28.222183,152.007829,100001
0,-28.222153,152.007598,100002
0,-28.221899,152.005798,100003
0,-28.221837,152.005586,100004
0,-28.221837,152.005586,110001
0,-28.221829,152.005558,110002
0,-28.221752,152.005431,110003
0,-28.221540,152.005209,110004
0,-28.221225,152.005038,110005
0,-28.220614,152.004690,110006
0,-28.220009,152.004758,110007
0,-28.218851,152.004966,110008
0,-28.218851,152.004966,120001
0,-28.218605,152.005010,120002
0,-28.218319,152.003146,120003
0,-28.218218,152.002880,120004
0,-28.217886,152.002448,120005
0,-28.217854,152.002404,120006
0,-28.217701,152.002261,120007
0,-28.217644,152.002176,120008
0,-28.217297,152.002207,120009
0,-28.217048,152.002254,120010
0,-28.217048,152.002254,130001
0,-28.216965,152.002270,130002
0,-28.215059,152.002627,130003
0,-28.215085,152.002816,130004
0,-28.215085,152.002816,140001
0,-28.215150,152.003285,140002
0,-28.215245,152.003768,140003
0,-28.215298,152.003996,140004
0,-28.215298,152.003996,150001
0,-28.215304,152.004021,150002
0,-28.215377,152.004196,150003
0,-28.215503,152.004449,150004
0,-28.216521,152.006036,150005
0,-28.216521,152.006036,160001
0,-28.218025,152.008382,160002
0,-28.218048,152.008421,160003
0,-28.218048,152.008421,170001
0,-28.218132,152.008566,170002
0,-28.218252,152.008804,170003
0,-28.218309,152.008940,170004
0,-28.218364,152.009134,170005
0,-28.218401,152.009313,170006
0,-28.218430,152.009507,170007
0,-28.218439,152.009701,170008
0,-28.218426,152.009928,170009
0,-28.218403,152.010130,170010
0,-28.218330,152.010510,170011
0,-28.218330,152.010510,180001
0,-28.218294,152.010696,180002
0,-28.218177,152.011257,180003
0,-28.217986,152.012154,180004
0,-28.217895,152.012568,180005
0,-28.217813,152.013044,180006
0,-28.217804,152.013165,180007
0,-28.217799,152.013336,180008
0,-28.217806,152.013499,180009
0,-28.217831,152.013718,180010
0,-28.217876,152.014030,180011
0,-28.217876,152.014030,190001
0,-28.217911,152.014277,190002
0,-28.218093,152.015528,190003
0,-28.218250,152.016640,190004
0,-28.218259,152.016693,190005
0,-28.218259,152.016693,200001
0,-28.218435,152.017855,200002
0,-28.218489,152.018247,200003
0,-28.218514,152.018532,200004
0,-28.218533,152.018874,200005
0,-28.218552,152.019208,200006
0,-28.218552,152.019208,210001
0,-28.218558,152.019331,210002
0,-28.218566,152.019560,210003
0,-28.218571,152.019784,210004
0,-28.218620,152.020214,210005
0,-28.218794,152.021346,210006
0,-28.218965,152.022536,210007
0,-28.219019,152.022907,210008
0,-28.219019,152.022907,220001
0,-28.219131,152.023670,220002
0,-28.219303,152.024867,220003
0,-28.219347,152.025169,220004
0,-28.219347,152.025169,230001
0,-28.219466,152.026002,230002
0,-28.219638,152.027201,230003
0,-28.219257,152.027270,230004
0,-28.219257,152.027270,240001
0,-28.218006,152.027499,240002
0,-28.218006,152.027499,250001
0,-28.217592,152.027574,250002
0,-28.215772,152.027900,250003
0,-28.215772,152.027900,260001
0,-28.215544,152.027941,260002
0,-28.215704,152.029077,260003
0,-28.215842,152.029985,260004
0,-28.215842,152.029985,270001
0,-28.215888,152.030286,270002
0,-28.216032,152.031403,270003
0,-28.216208,152.032594,270004
0,-28.216655,152.032520,270005
1,-28.216655,152.032520,10001
1,-28.217299,152.032413,10002
1,-28.218135,152.032255,10003
1,-28.218139,152.032277,10004
1,-28.218150,152.032305,10005
1,-28.218166,152.032331,10006
1,-28.218187,152.032352,10007
1,-28.218211,152.032368,10008
1,-28.218237,152.032377,10009
1,-28.218265,152.032381,10010
1,-28.218280,152.032380,10011
1,-28.218293,152.032377,10012
1,-28.218319,152.032368,10013
1,-28.218343,152.032352,10014
1,-28.218364,152.032331,10015
1,-28.218380,152.032305,10016
1,-28.218391,152.032277,10017
1,-28.218397,152.032246,10018
1,-28.218396,152.032207,10019
1,-28.220304,152.031863,10020
1,-28.220393,152.031847,10021
1,-28.220208,152.030657,10022
1,-28.220048,152.029519,10023
1,-28.222037,152.029143,10024
1,-28.225153,152.028580,10025
1,-28.225021,152.027669,10026
1,-28.225021,152.027669,20001
1,-28.224980,152.027388,20002
1,-28.224874,152.026651,20003
1,-28.224874,152.026651,30001
1,-28.224816,152.026250,30002
1,-28.224639,152.025046,30003
1,-28.224477,152.023919,30004
1,-28.224467,152.023846,30005
1,-28.224467,152.023846,40001
1,-28.224303,152.022722,40002
1,-28.224138,152.021588,40003
1,-28.221048,152.022155,40004
1,-28.220890,152.020966,40005
1,-28.220713,152.019830,40006
1,-28.223814,152.019269,40007
1,-28.223584,152.017625,40008
1,-28.223584,152.017625,50001
1,-28.223487,152.016933,50002
1,-28.223305,152.015680,50003
1,-28.223305,152.015680,60001
1,-28.223288,152.015564,60002
1,-28.223149,152.014608,60003
1,-28.223060,152.013953,60004
1,-28.222978,152.013418,60005
1,-28.222804,152.012271,60006
1,-28.222799,152.012238,60007
1,-28.222799,152.012238,70001
1,-28.222755,152.011910,70002
1,-28.222523,152.010213,70003
1,-28.222523,152.010213,80001
1,-28.222504,152.010076,80002
1,-28.222485,152.009928,80003
1,-28.222312,152.008778,80004
1,-28.222268,152.008468,80005
1,-28.222183,152.007829,80006
1,-28.222183,152.007829,90001
1,-28.222153,152.007598,90002
1,-28.221899,152.005798,90003
1,-28.221837,152.005586,90004
1,-28.221837,152.005586,100001
1,-28.221829,152.005558,100002
1,-28.221752,152.005431,100003
1,-28.221540,152.005209,100004
1,-28.221225,152.005038,100005
1,-28.220614,152.004690,100006
1,-28.220009,152.004758,100007
1,-28.218851,152.004966,100008
1,-28.218851,152.004966,110001
1,-28.218605,152.005010,110002
1,-28.218319,152.003146,110003
1,-28.218218,152.002880,110004
1,-28.217886,152.002448,110005
1,-28.218391,152.002003,110006
1,-28.218287,152.001868,110007
1,-28.218287,152.001868,120001
1,-28.218264,152.001839,120002
1,-28.218153,152.001611,120003
1,-28.218008,152.001184,120004
1,-28.217964,152.000861,120005
1,-28.217972,151.999826,120006
1,-28.220256,151.999452,120007
1,-28.220256,151.999452,130001
1,-28.220580,151.999399,130002
1,-28.221078,151.999306,130003
1,-28.222777,151.998989,130004
1,-28.222777,151.998989,140001
1,-28.222942,151.998957,140002
1,-28.222324,151.994625,140003
1,-28.221559,151.994772,140004
1,-28.220771,151.989047,140005
1,-28.220581,151.987717,140006
1,-28.220569,151.987627,140007
1,-28.220569,151.987627,150001
1,-28.220256,151.985309,150002
1,-28.220212,151.985046,150003
1,-28.218286,151.985410,150004
1,-28.217612,151.985526,150005
1,-28.217612,151.985526,160001
1,-28.217397,151.985564,160002
1,-28.216498,151.985721,160003
1,-28.214393,151.986102,160004
1,-28.212746,151.986393,160005
1,-28.213152,151.989313,160006
1,-28.213152,151.989313,170001
1,-28.213293,151.990317,170002
1,-28.213489,151.991585,170003
1,-28.213703,151.993115,170004
1,-28.214016,151.995344,170005
1,-28.214106,151.995986,170006
1,-28.214106,151.995986,180001
1,-28.214131,151.996166,180002
1,-28.214735,152.000395,180003
1,-28.215059,152.002627,180004
1,-28.215085,152.002816,180005
1,-28.215085,152.002816,190001
1,-28.215150,152.003285,190002
1,-28.215245,152.003768,190003
1,-28.215298,152.003996,190004
1,-28.215298,152.003996,200001
1,-28.215304,152.004021,200002
1,-28.215377,152.004196,200003
1,-28.215503,152.004449,200004
1,-28.216521,152.006036,200005
1,-28.216521,152.006036,210001
1,-28.218025,152.008382,210002
1,-28.218048,152.008421,210003
1,-28.218048,152.008421,220001
1,-28.218132,152.008566,220002
1,-28.218252,152.008804,220003
1,-28.218309,152.008940,220004
1,-28.218364,152.009134,220005
1,-28.218401,152.009313,220006
1,-28.218430,152.009507,220007
1,-28.218439,152.009701,220008
1,-28.218426,152.009928,220009
1,-28.218403,152.010130,220010
1,-28.218330,152.010510,220011
1,-28.218330,152.010510,230001
1,-28.218294,152.010696,230002
1,-28.218177,152.011257,230003
1,-28.217986,152.012154,230004
1,-28.217895,152.012568,230005
1,-28.217813,152.013044,230006
1,-28.217804,152.013165,230007
1,-28.217799,152.013336,230008
1,-28.217806,152.013499,230009
1,-28.217831,152.013718,230010
1,-28.217876,152.014030,230011
1,-28.217876,152.014030,240001
1,-28.217911,152.014277,240002
1,-28.218093,152.015528,240003
1,-28.218829,152.015387,240004
1,-28.220040,152.015167,240005
1,-28.220070,152.015374,240006
1,-28.220070,152.015374,250001
1,-28.220371,152.017498,250002
1,-28.220713,152.019830,250003
1,-28.220890,152.020966,250004
1,-28.221000,152.021797,250005
1,-28.221000,152.021797,260001
1,-28.221048,152.022155,260002
1,-28.221208,152.023290,260003
1,-28.221380,152.024485,260004
1,-28.221556,152.025631,260005
1,-28.221716,152.026821,260006
1,-28.221901,152.027952,260007
1,-28.222037,152.029143,260008
1,-28.220048,152.029519,260009
1,-28.219879,152.028330,260010
1,-28.219715,152.027192,260011
1,-28.219638,152.027201,260012
1,-28.219257,152.027270,260013
1,-28.219257,152.027270,270001
1,-28.218006,152.027499,270002
1,-28.218006,152.027499,280001
1,-28.217592,152.027574,280002
1,-28.215772,152.027900,280003
1,-28.215772,152.027900,290001
1,-28.215544,152.027941,290002
1,-28.215704,152.029077,290003
1,-28.215842,152.029985,290004
1,-28.215842,152.029985,300001
1,-28.215888,152.030286,300002
1,-28.216032,152.031403,300003
1,-28.216208,152.032594,300004
1,-28.216655,152.032520,300005
2,-28.216655,152.032520,10001
2,-28.217299,152.032413,10002
2,-28.218135,152.032255,10003
2,-28.218139,152.032277,10004
2,-28.218150,152.032305,10005
2,-28.218166,152.032331,10006
2,-28.218187,152.032352,10007
2,-28.218211,152.032368,10008
2,-28.218237,152.032377,10009
2,-28.218265,152.032381,10010
2,-28.218280,152.032380,10011
2,-28.218422,152.033377,10012
2,-28.218588,152.034568,10013
2,-28.217652,152.034743,10014
2,-28.216536,152.034948,10015
2,-28.215859,152.035067,10016
2,-28.214472,152.035316,10017
2,-28.214690,152.036851,10018
2,-28.214690,152.036851,20001
2,-28.214847,152.037956,20002
2,-28.215015,152.039138,20003
2,-28.217090,152.038775,20004
2,-28.217252,152.039893,20005
2,-28.217493,152.039849,20006
2,-28.217493,152.039849,30001
2,-28.217764,152.039801,30002
2,-28.218362,152.039689,30003
2,-28.219240,152.039542,30004
2,-28.219243,152.039556,30005
2,-28.219250,152.039573,30006
2,-28.219260,152.039589,30007
2,-28.219272,152.039601,30008
2,-28.219286,152.039611,30009
2,-28.219302,152.039617,30010
2,-28.219319,152.039619,30011
2,-28.219332,152.039618,30012
2,-28.219546,152.041198,30013
2,-28.219638,152.041844,30014
2,-28.218611,152.042045,30015
2,-28.217595,152.042237,30016
2,-28.217914,152.044557,30017
2,-28.218195,152.044507,30018
2,-28.218195,152.044507,40001
2,-28.218944,152.044372,40002
2,-28.218644,152.042279,40003
2,-28.218644,152.042279,50001
2,-28.218611,152.042045,50002
2,-28.219638,152.041844,50003
2,-28.220102,152.041753,50004
2,-28.220102,152.041753,60001
2,-28.221073,152.041562,60002
2,-28.220921,152.040491,60003
2,-28.220921,152.040491,70001
2,-28.220903,152.040361,70002
2,-28.222071,152.040134,70003
2,-28.223020,152.039959,70004
2,-28.223020,152.039959,80001
2,-28.223145,152.039936,80002
2,-28.223046,152.039192,80003
2,-28.222839,152.038868,80004
2,-28.222805,152.038835,80005
2,-28.222805,152.038835,90001
2,-28.222609,152.038654,90002
2,-28.222591,152.038588,90003
2,-28.222616,152.038487,90004
2,-28.222824,152.038099,90005
2,-28.222851,152.037959,90006
2,-28.222681,152.036722,90007
2,-28.222681,152.036722,100001
2,-28.222656,152.036535,100002
2,-28.221059,152.036826,100003
2,-28.220721,152.036887,100004
2,-28.220721,152.036887,110001
2,-28.218973,152.037207,110002
2,-28.218692,152.037258,110003
2,-28.218692,152.037258,120001
2,-28.218030,152.037378,120002
2,-28.217782,152.037418,120003
2,-28.217655,152.037444,120004
2,-28.217655,152.037444,130001
2,-28.216921,152.037592,130002
2,-28.216721,152.036194,130003
2,-28.216536,152.034948,130004
2,-28.216368,152.033748,130005
2,-28.216208,152.032594,130006
2,-28.216655,152.032520,130007
3,-28.216655,152.032520,10001
3,-28.217299,152.032413,10002
3,-28.218135,152.032255,10003
3,-28.218139,152.032277,10004
3,-28.218150,152.032305,10005
3,-28.218166,152.032331,10006
3,-28.218187,152.032352,10007
3,-28.218211,152.032368,10008
3,-28.218237,152.032377,10009
3,-28.218265,152.032381,10010
3,-28.218280,152.032380,10011
3,-28.218422,152.033377,10012
3,-28.218588,152.034568,10013
3,-28.217652,152.034743,10014
3,-28.216536,152.034948,10015
3,-28.215859,152.035067,10016
3,-28.214472,152.035316,10017
3,-28.212398,152.035695,10018
3,-28.212062,152.033369,10019
3,-28.211770,152.031339,10020
3,-28.211770,152.031339,20001
3,-28.211727,152.031034,20002
3,-28.211569,152.029947,20003
3,-28.211396,152.028711,20004
3,-28.211078,152.028767,20005
3,-28.211078,152.028767,30001
3,-28.209343,152.029071,30002
3,-28.208828,152.025563,30003
3,-28.208774,152.025203,30004
3,-28.208683,152.024582,30005
3,-28.208227,152.021560,30006
3,-28.207580,152.021694,30007
3,-28.207580,152.021694,40001
3,-28.207567,152.021697,40002
3,-28.206585,152.021857,40003
3,-28.206447,152.021876,40004
3,-28.206214,152.021872,40005
3,-28.205737,152.022422,40006
3,-28.205591,152.022347,40007
3,-28.204881,152.022244,40008
3,-28.204325,152.022271,40009
3,-28.203433,152.022434,40010
3,-28.203520,152.023049,40011
3,-28.203520,152.023049,50001
3,-28.203574,152.023426,50002
3,-28.203719,152.024434,50003
3,-28.203867,152.025464,50004
3,-28.204010,152.026472,50005
3,-28.203864,152.026510,50006
3,-28.202835,152.026689,50007
3,-28.202835,152.026689,60001
3,-28.202083,152.026820,60002
3,-28.202131,152.027161,60003
3,-28.201709,152.027237,60004
3,-28.201709,152.027237,70001
3,-28.199617,152.027614,70002
3,-28.199799,152.028954,70003
3,-28.199799,152.028954,80001
3,-28.200001,152.030445,80002
3,-28.199552,152.030519,80003
3,-28.198822,152.030652,80004
3,-28.197725,152.030846,80005
3,-28.197725,152.030846,90001
3,-28.197554,152.030876,90002
3,-28.196458,152.031068,90003
3,-28.196556,152.031824,90004
3,-28.196554,152.031964,90005
3,-28.196357,152.031973,90006
3,-28.196316,152.031979,90007
3,-28.196316,152.031979,100001
3,-28.195769,152.032071,100002
3,-28.194295,152.032343,100003
3,-28.193532,152.032487,100004
3,-28.193778,152.034217,100005
3,-28.193971,152.035554,100006
3,-28.194199,152.037176,100007
3,-28.194236,152.037433,100008
3,-28.194236,152.037433,110001
3,-28.195006,152.042829,110002
3,-28.195211,152.042685,110003
3,-28.195211,152.042685,120001
3,-28.197319,152.041202,120002
3,-28.197498,152.041115,120003
3,-28.197721,152.041005,120004
3,-28.197803,152.040970,120005
3,-28.198918,152.040678,120006
3,-28.199084,152.040631,120007
3,-28.199100,152.040445,120008
3,-28.199178,152.040213,120009
3,-28.199178,152.040213,130001
3,-28.200104,152.037443,130002
3,-28.200448,152.036421,130003
3,-28.200448,152.036421,140001
3,-28.200452,152.036408,140002
3,-28.200637,152.035853,140003
3,-28.200916,152.035027,140004
3,-28.201048,152.034635,140005
3,-28.201289,152.033922,140006
3,-28.201406,152.033546,140007
3,-28.202471,152.030355,140008
3,-28.202471,152.030355,150001
3,-28.202539,152.030151,150002
3,-28.202523,152.029983,150003
3,-28.202904,152.029933,150004
3,-28.203059,152.030022,150005
3,-28.203256,152.030376,150006
3,-28.203309,152.030610,150007
3,-28.203331,152.030894,150008
3,-28.203291,152.031328,150009
3,-28.203234,152.032021,150010
3,-28.203247,152.032180,150011
3,-28.203313,152.032370,150012
3,-28.203436,152.032525,150013
3,-28.203590,152.032614,150014
3,-28.204016,152.032713,150015
3,-28.204288,152.032187,150016
3,-28.204562,152.031933,150017
3,-28.204740,152.031856,150018
3,-28.204903,152.031858,150019
3,-28.205019,152.031901,150020
3,-28.205303,152.032542,150021
3,-28.205527,152.032828,150022
3,-28.205854,152.033023,150023
3,-28.206792,152.033510,150024
3,-28.206792,152.033510,160001
3,-28.207665,152.033962,160002
3,-28.208116,152.034096,160003
3,-28.209926,152.033751,160004
3,-28.209929,152.033768,160005
3,-28.209937,152.033788,160006
3,-28.209948,152.033806,160007
3,-28.209963,152.033821,160008
3,-28.209980,152.033832,160009
3,-28.209999,152.033839,160010
3,-28.210018,152.033841,160011
3,-28.210032,152.033840,160012
3,-28.210056,152.033832,160013
3,-28.210073,152.033821,160014
3,-28.210088,152.033807,160015
3,-28.210099,152.033788,160016
3,-28.210107,152.033768,160017
3,-28.210111,152.033746,160018
3,-28.210110,152.033717,160019
3,-28.212062,152.033369,160020
3,-28.212432,152.033303,160021
3,-28.212432,152.033303,170001
3,-28.214147,152.033003,170002
3,-28.216208,152.032594,170003
3,-28.216655,152.032520,170004
4,-28.216655,152.032520,10001
4,-28.217299,152.032413,10002
4,-28.218135,152.032255,10003
4,-28.218139,152.032277,10004
4,-28.218150,152.032305,10005
4,-28.218166,152.032331,10006
4,-28.218187,152.032352,10007
4,-28.218211,152.032368,10008
4,-28.218237,152.032377,10009
4,-28.218265,152.032381,10010
4,-28.218280,152.032380,10011
4,-28.218293,152.032377,10012
4,-28.218319,152.032368,10013
4,-28.218343,152.032352,10014
4,-28.218364,152.032331,10015
4,-28.218380,152.032305,10016
4,-28.218391,152.032277,10017
4,-28.218397,152.032246,10018
4,-28.218396,152.032207,10019
4,-28.220304,152.031863,10020
4,-28.220393,152.031847,10021
4,-28.220208,152.030657,10022
4,-28.220048,152.029519,10023
4,-28.222037,152.029143,10024
4,-28.221901,152.027952,10025
4,-28.221716,152.026821,10026
4,-28.221556,152.025631,10027
4,-28.223541,152.025258,10028
4,-28.224103,152.025152,10029
4,-28.224548,152.025075,10030
4,-28.224639,152.025046,10031
4,-28.224477,152.023919,10032
4,-28.224303,152.022722,10033
4,-28.224138,152.021588,10034
4,-28.223966,152.020405,10035
4,-28.223814,152.019269,10036
4,-28.223584,152.017625,10037
4,-28.223584,152.017625,20001
4,-28.223487,152.016933,20002
4,-28.223305,152.015680,20003
4,-28.223305,152.015680,30001
4,-28.223288,152.015564,30002
4,-28.223149,152.014608,30003
4,-28.223060,152.013953,30004
4,-28.224480,152.013671,30005
4,-28.224746,152.013618,30006
4,-28.224746,152.013618,40001
4,-28.225039,152.013558,40002
4,-28.225552,152.013457,40003
4,-28.225603,152.013781,40004
4,-28.227145,152.013504,40005
4,-28.227483,152.013443,40006
4,-28.227483,152.013443,50001
4,-28.228962,152.013173,50002
4,-28.228783,152.011905,50003
4,-28.228655,152.010999,50004
4,-28.228502,152.009921,50005
4,-28.228502,152.009921,60001
4,-28.228440,152.009488,60002
4,-28.232135,152.008816,60003
4,-28.232135,152.008816,70001
4,-28.232257,152.008793,70002
4,-28.232223,152.008547,70003
4,-28.232078,152.007535,70004
4,-28.232062,152.007422,70005
4,-28.232007,152.007040,70006
4,-28.232007,152.007040,80001
4,-28.231837,152.005870,80002
4,-28.235932,152.005096,80003
4,-28.236097,152.005105,80004
4,-28.236190,152.005733,80005
4,-28.236314,152.006524,80006
4,-28.236314,152.006524,90001
4,-28.236479,152.007570,90002
4,-28.236959,152.010378,90003
4,-28.237018,152.010723,90004
4,-28.237257,152.012351,90005
4,-28.237792,152.016098,90006
4,-28.237805,152.016248,90007
4,-28.237805,152.016248,100001
4,-28.237825,152.016506,100002
4,-28.237871,152.017104,100003
4,-28.238454,152.021102,100004
4,-28.238512,152.021481,100005
4,-28.238512,152.021481,110001
4,-28.238559,152.021790,110002
4,-28.238837,152.023722,110003
4,-28.233374,152.024735,110004
4,-28.233374,152.024735,120001
4,-28.232435,152.024909,120002
4,-28.228570,152.025587,120003
4,-28.227640,152.025740,120004
4,-28.227412,152.025778,120005
4,-28.227412,152.025778,130001
4,-28.227331,152.025792,130002
4,-28.226493,152.025938,130003
4,-28.226187,152.025985,130004
4,-28.224816,152.026250,130005
4,-28.224527,152.026303,130006
4,-28.224527,152.026303,140001
4,-28.221716,152.026821,140002
4,-28.219715,152.027192,140003
4,-28.219638,152.027201,140004
4,-28.219257,152.027270,140005
4,-28.219257,152.027270,150001
4,-28.218006,152.027499,150002
4,-28.218006,152.027499,160001
4,-28.217592,152.027574,160002
4,-28.215772,152.027900,160003
4,-28.215772,152.027900,170001
4,-28.215544,152.027941,170002
4,-28.215704,152.029077,170003
4,-28.215842,152.029985,170004
4,-28.215842,152.029985,180001
4,-28.215888,152.030286,180002
4,-28.216032,152.031403,180003
4,-28.216208,152.032594,180004
4,-28.216655,152.032520,180005
